{
    "label": "Aptitudes (Animal Companions)",
    "entries": {
        "Negative Essence": {
            "name": "Essence négative (Negative Essence)",
            "description": "<p>Votre eidolon mort-vivant a un lien direct avec votre force vitale, ce qui lui confère un état à mi-chemin entre vivant et mort-vivant. Cela en fait une créature vivante et donc sensible à de nombreuses afflictions qui ne touchent que les vivants, bien qu'il possède certaines résistances à leurs effets. L'eidolon a sins négatifs, ce qui signifie qu'il se soigne avec l'énergie négative qui guérit les morts-vivants et est blessé par les effets de vitalité qui blessent les morts-vivants. Il ne possède pas les immunités normales des morts-vivants mais il bénéficie d'un bonus de circonstances de +2 aux jets de sauvegarde contre les effets de mort, de maladie et de poison, ainsi que contre les effets qui ne blessent pas mais ne ciblent que les morts-vivants. De plus, son essence nécrotique étanche facilement ses blessures. Le test nu pour supprimer les dégâts de saignement de l'eidolon se fait contre un DD 10 (ou un DD 5 après avoir reçu une aide particulièrement efficace).</p>"
        },
        "Eidolon Ability Boosts (15th)": {
            "name": "Primes d'attributs de l'eidolon (15e) (Eidolon Ability Boosts (15th))"
        },
        "Spirit Taker": {
            "name": "Délivreur d'esprit (Spirit Taker)",
            "description": "<p>Votre eidolon est particulièrement compétent lorsqu'il s'agit de manipuler des esprits sans corps et de mettre les morts-vivants dans leur dernier repos. Votre eidolon peut voir les créatures incorporelles à l'intérieur d'objets solides et peut les attaquer avec des Frappes sans pénalité ; une créature incorporelle dans un objet solide qui subit des dégâts suite à une Frappe de votre eidolon est expulsée de l'objet vers l'espace disponible le plus proche, en se rapprochant de votre eidolon si possible.</p>\n<p>En outre, votre eidolon peut cibler ou affecter une créature projetant sa conscience (par exemple via @UUID[Compendium.pf2e.spells-srd.Item.0873MWM0qKDDv81O]{Projection d'image}) ou possédant une autre créature, même si son corps est ailleurs, bien que votre eidolon doive être au courant de la possession ou de la projection et choisir de le faire.</p>\n<p>Enfin, l'esprit d'un mort-vivant détruit par les Frappes de votre eidolon est envoyé directement au Cimetière pour y être jugé ; un mort-vivant doté d'une capacité lui permettant d'éviter automatiquement un tel sort, comme la reconstruction d'un fantôme, peut tenter un test de contre contre votre DD de sort pour se reconstruire par le biais de cette capacité comme à l'ordinaire. Dans ce cas, il utilise son modificateur de Volonté comme modificateur de contre.</p>"
        },
        "Guardian Plant": {
            "name": "Plante gardienne (Guardian Plant)",
            "description": "<p>For 18, Dex 14, Con 16, Int 8, Sag 12, Cha 10 ; CA +2 (Max Dex +3)</p>"
        },
        "Fey Mischief": {
            "name": "Méfait féerique (Fey Mischief)",
            "description": "<p>La magie féerique de votre eidolon devient plus puissante et plus espiègle. Votre eidolon gagne le don @UUID[Compendium.pf2e.feats-srd.Item.b1eGMNjBY3iqIt2S]{Adepte magique}, bien qu'il ne possède pas le niveau requis, et peut choisir des sorts du Cadeau féerique en plus des sorts primordiaux.</p>"
        },
        "Wyrm's Breath": {
            "name": "Souffle du Ver (Wyrm's Breath)",
            "description": "<p><strong>Fréquence</strong> Une fois par minute</p>\n<hr />\n<p>Votre eidolon rassemble la puissance des plus puissants dracosires pour rendre son souffle magique encore plus spectaculaire. Si la prochaine action de votre eidolon est d'utiliser son Arme de souffle, le nombre de dés de dégâts et la zone de l'arme du souffle sont doublés.</p>"
        },
        "Brutal Beast": {
            "name": "Bête brutale (Brutal Beast)",
            "description": "<p>For 18, Dex 14, Con 16, Int 8, Sag 12, Cha 10 ; CA +2 (Max Dex +3)</p>"
        },
        "Stalwart Guardian": {
            "name": "Vaillant gardien (Stalwart Guardian)",
            "description": "<p>For 18, Dex 14, Con 16, Int 10, Sag 10, Cha 10 ; CA +2 (Dex max +3)</p>"
        },
        "Badger Rage": {
            "name": "Rage du blaireau (Badger Rage)",
            "description": "<p>Lorsqu'il entre en rage, le blaireau est affecté de la manière suivante :</p>\n<p>Il inflige 4 dégâts supplémentaires avec son attaque de morsure et 2 dégâts supplémentaires avec ses attaques de griffe.</p>\n<p>Il subit une pénalité de -1 à la CA.</p>\n<p>Il ne peut utiliser les actions qui ont le trait concentration à moins qu'ils aient aussi le trait rage. Le compagnon animal peut Chercher même lorsqu'il est en rage.</p>",
            "rules": {
                "0": {
                    "label": "rage-ac"
                }
            }
        },
        "Whirlwind Maul": {
            "name": "Masse tourbillon (Whirlwind Maul)",
            "description": "<p>Votre eidolon se débat violemment, blessant de nombreux ennemis dans son allonge. Il obtient l'activité @Compendium[pf2e-animal-companions.AC-Features.W4VCL85CO77MYkQH]{Whirlwind Maul}.</p>"
        },
        "Tendril Strike": {
            "name": "Frappe de liane (Tendril Strike)",
            "description": "<p>Votre eidolon peut étirer ses lianes et ses racines pour attaquer un ennemi qui serait normalement hors de sa portée. Il obtient l'action @Compendium[pf2e-animal-companions.AC-Features.fNTyFkFxNCi5O5SE]{Frappe de liane}.</p>"
        },
        "Eidolon Unarmed Expertise": {
            "name": "Expertise à mains nues de l'eidolon (Eidolon Unarmed Expertise)",
            "description": "<p>Votre eidolon devient davantage capable d'utiliser ses attaques à mains nues. Il devient expert en attaques à mains nues.</p>"
        },
        "Eidolon Defensive Mastery": {
            "name": "Maîtrise défensive de l'eidolon (Eidolon Defensive Mastery)",
            "description": "<p>La forme de votre eidolon devient particulièrement difficile à attaquer. Sa maîtrise pour le combat sans armure passe à maître.</p>"
        },
        "Enraged Assassin": {
            "name": "Assassin enragé (Enraged Assassin)",
            "description": "<p>For 14, Dex 18, Con 16, Int 10, Sag 8, Cha 12 ; CA +1 (Max Dex +4)</p>"
        },
        "Skirmisher Fey": {
            "name": "Fée escarmoucheuse (Skirmisher Fey)",
            "description": "<p>For 14, Dex 18, Con 14, Int 10, Sag 10, Cha 12 ; CA +1 (Max Dex +4)</p>"
        },
        "Eidolon Unarmed Mastery": {
            "name": "Maîtrise à mains nues de l'eidolon (Eidolon Unarmed Mastery)",
            "description": "<p>Votre eidolon maîtrise réellement ses attaques à mains nues, atteignant de plus hauts sommets. Sa maîtrise pour les attaques à mains nues passe à maître.</p>"
        },
        "Primal Roar": {
            "name": "Rugissement primordial (Primal Roar)",
            "description": "<p>Votre eidolon peut pousser un rugissement, un hurlement, un croassement ou tout autre son terrifiant pour effrayer ses ennemis. Il obtient l'activité @Compendium[pf2e-animal-companions.AC-Features.hcQsGAZQgqdCckCm]{Rugissement primordial}.</p>"
        },
        "Adaptable Elemental": {
            "name": "Élémentaire adaptable (Adaptable Elemental)",
            "description": "<p>For +1, Dex +4, Con +3, Int +0, Sag +1, Cha +0 ; CA +1 (Max Dex +4)</p>"
        },
        "Devotion Aura": {
            "name": "Aura de dévouement (Devotion Aura)",
            "description": "<p>Après avoir combattu à vos côtés pendant si longtemps, votre eidolon est devenu aussi dévoué à votre protection et à celle de vos alliés qu'à sa cause initiale. Il gagne une aura de dévouement de 6 mètres, qui possède les traits abjuration, aura et occulte. Chaque fois qu'un des alliés de votre eidolon se trouvant dans l'aura subit des dégâts, vous pouvez les réduire du montant du modificateur de Constitution de votre eidolon. Vous perdez un nombre de points de vie égal à la moitié du montant par lequel l'eidolon a réduit les dégâts, arrondi à l'inférieur. Si les dégâts étaient inférieurs au modificateur de Constitution, basez les dégâts que vous subissez sur le montant réel des dégâts évités.</p>"
        },
        "Eidolon Weapon Specialization": {
            "name": "Spécialisation martiale de l'eidolon (Eidolon Weapon Specialization)",
            "description": "<p>Votre eidolon a appris à infliger des blessures plus importantes avec ses attaques à mains nues. Il inflige 2 dégâts supplémentaires avec les attaques à mains nues dans lesquelles il est expert. Ces dégâts supplémentaires passent à 3 s'il est maître et à 4 s'il est légendaire.</p>"
        },
        "Breath Weapon (Poison)": {
            "name": "Arme de souffle (Poison) (Breath Weapon (Poison))",
            "description": "<p>Votre eidolon souffle une explosion d'énergie destructrice. Votre eidolon inflige [[/r 1d6[poison]]]{1d6 dégâts de poison} à toutes les créatures dans la zone, avec un jet de Réflexes basique contre votre DD de sort. La zone et le type de dégâts de l'arme de souffle sont choisis lorsque l'eidolon obtient cette capacité. Votre eidolon ne peut plus alors utiliser son arme de souffle de nouveau pendant [[/br 1d4 #Recharge arme de souffle]]{1d4 rounds}.</p>\n<p>Au niveau 3 et tous les 2 niveaux par la suite, les dégâts augmentent de 1d6.</p>\n<p>@Template[type:cone|distance:30]{cône de 9 m}</p>\n<p>@Template[type:line|distance:60]{ligne de 18 m}</p>"
        },
        "Charisma Boost": {
            "name": "Prime de Charisme (Charisma Boost)"
        },
        "Wrathful Berserker": {
            "name": "Berserker courroucé (Wrathful Berserker)",
            "description": "<p>For 18, Dex 14, Con 16, Int 8, Sag 10, Cha 12 ; CA +2 (Max Dex +3)</p>"
        },
        "Ultimate Reconfiguration": {
            "name": "Reconfiguration ultime (Ultimate Reconfiguration)",
            "description": "<p>Votre eidolon créature artificielle devient encore plus personnalisable. Choisissez un don d'évolution de niveau 16 ou inférieur. Votre eidolon obtient ce don. Vous pouvez passer du temps lors des Intermèdes pour l'ajuster en utilisant Artisanat, tout comme le don d'évolution Évolution reconfigurée. De nombreux conjurateurs choisissent @Compendium[pf2e-animal-companions.AC-Evolution-Feats.eF3CKuQwqXJXIQPL]{Sens toujours en éveil} pour cette capacité.</p>"
        },
        "Primary (1d8, shove)": {
            "name": "Primaire (1d8, pousser) (Primary (1d8, shove))"
        },
        "Greater Eidolon Specialization": {
            "name": "Spécialisation de l'eidolon supérieure (Greater Eidolon Specialization)",
            "description": "<p>Les dégâts supplémentaires infligés par la Spécialisation martiale de votre eidolon passent à 4 avec les attaques à mains nues avec lesquelles il est expert, 6 s'il est maître et 8 s'il est légendaire.</p>"
        },
        "Strength Boost": {
            "name": "Prime de Force (Strength Boost)"
        },
        "Eidolon Ability Boosts (10th)": {
            "name": "Primes d'attributs de l'eidolon (10e) (Eidolon Ability Boosts (10th))"
        },
        "Visions of Sin": {
            "name": "Visions du péché (Visions of Sin)",
            "description": "<p>Votre démon est né du péché et peut projeter le péché dont il est issu dans l'esprit des autres. Il obtient l'activité @Compendium[pf2e-animal-companions.AC-Features.srfAyOXpUYxEz0gx]{Visions du péché}.</p>"
        },
        "Eidolon Symbiosis": {
            "name": "Symbiose de l'eidolon (Eidolon Symbiosis)",
            "description": "<p>Le lien que vous avez noué avec votre eidolon se renforce, accordant à votre eidolon l'accès à une nouvelle capacité qui dépend de son type, comme indiqué dans les capacités de l'eidolon dans chaque description des différents types d'eidolon.</p>"
        },
        "Elemental Core": {
            "name": "Noyau élémentaire (Elemental Core)",
            "description": "<p>Votre eidolon élémentaire est un amalgame de matière élémentaire et de force vitale mortelle, ce qui le protège de certains effets plus néfastes pour les mortels que pour les élémentaires. Ils obtiennent un bonus de circonstances de +2 aux jets de sauvegarde contre les effets de poison et de sommeil, ainsi que les effets provoquant l'état @UUID[Compendium.pf2e.conditionitems.Item.6uEgoh53GbXuHpTF]{Paralysé}. De plus, leur essence élémentaire saigne moins facilement que la chair, de sorte que le DD de tout test nu effectué pour retirer des dégâts de saignement est de 10 (ou de 5 après avoir reçu une aide particulièrement efficace). Choisissez pour votre eidolon soit le type air, bois, eau, feu, métal ou terre. Votre eidolon et toutes les attaques à mains nues obtiennent le trait de l'élément choisi et l'eidolon obtient des effets supplémentaires en fonction de votre choix.</p>\n<p><strong>Air</strong> Votre eidolon est formé d'air élémentaire et est aussi léger que la brise. Votre eidolon peut @UUID[Compendium.pf2e.actionspf2e.Item.d5I6018Mci2SWokk]{Bondir}, @UUID[Compendium.pf2e.actionspf2e.Item.2HJ4yuEFY1Cast4h]{Sauter en hauteur} et @UUID[Compendium.pf2e.actionspf2e.Item.JUvAvruz7yRQXfz2]{Sauter en longueur} deux fois plus loin et ne subit pas de dégâts de chute.</p>\n<p><strong>Bois</strong> Votre eidolon est formé de bois élémentaire et sa forme de bois vivant se tort et repousse lorsque vous concentrez vos énergies élémentaires. Vous pouvez choisir de donner à votre eidolon du trait plante. Lorsque vous Refocalisez, votre eidolon regagne un nombre de points de vie égal au double de votre niveau.</p>\n<p><strong>Eau</strong> Votre eidolon est formé d'eau élémentaire et nage avec grâce. Votre eidolon obtient le trait amphibie, lui permettant de respirer de l'eau et de l'air et d'éviter la pénalité normale de –2 en faisant des Frappes à mains nues contondantes et tranchantes dans l'eau. La vitesse terrestre de votre eidolon est réduite à 4,5 mètres et il obtient une Vitesse de nage de 4,5 mètres. Vous pouvez prendre le don Forme amphibie pour passer sa vitesse terrestre à 7,5 mètres, comme indiqué dans le don.</p>\n<p><strong>Feu</strong> Votre eidolon est formé de feu élémentaire et brûle avec des flammes de braise. Votre eidolon obtient une résistance égale à la moitié de votre niveau (minimum 1) au feu et un montant égal de faiblesse au froid et à l'eau. Leurs attaques à mains nues infligent 1 dégât de feu supplémentaire.</p>\n<p><strong>Métal</strong> Votre eidolon est formé de métal élémentaire et peut adapter sa forme métallique à la bataille. Une des attaques au corps-à-corps de votre eidolon obtient le trait polyvalent contondant, perforant ou tranchant, car votre eidolon apprend comment changer le métal en formes d'armes variées.</p>\n<p><strong>Terre</strong> Votre eidolon est formé de terre élémentaire et est incroyablement dur à déplacer de force. Votre eidolon obtient un bonus de circonstances de +2 à ses jets de Vigueur ou de Réflexes contre les tentatives pour les @UUID[Compendium.pf2e.actionspf2e.Item.7blmbDrQFNfdT731]{Pousser} ou leur faire un @UUID[Compendium.pf2e.actionspf2e.Item.ge56Lu1xXVFYUnLP]{Croc-en-jambe}. Ce bonus s'applique aussi aux jets de sauvegarde contre les sorts et les effets qui tentent de le mettre @UUID[Compendium.pf2e.conditionitems.Item.j91X7x0XSomq8d60]{À terre}. De plus, si un effet quelconque devrait le forcer à se déplacer de 3 mètres ou plus, il n'est déplacé que sur la moitié de la distance.</p>",
            "rules": {
                "9": {
                    "prompt": "Obtient le trait plante ?"
                }
            }
        },
        "Traveler's Aura": {
            "name": "Aura du voyageur (Traveler's Aura)",
            "description": "<p>Votre eidolon émet une puissante aura - ressemblant à celle d'un déva astral - qui protège les créatures lors de leurs déplacements. L'aura possède les traits abjuration, aura et divin. Votre eidolon et ses alliés dans une @Template[type:emanation|distance:20]{émanation de 6 mètres} sont protégés de la chaleur et du froid intense et votre eidolon n'est jamais @UUID[Compendium.pf2e.conditionitems.Item.AJh5ex99aV6VTggg]{Pris au dépourvu} contre les créatures à l'intérieur de l'aura qui sont d'un niveau inférieur à celui de l'eidolon.</p>\n<p>Lorsque vous obtenez la capacité de classe Transcendance, cela évolue vers les avantages complets d'un déva astral. Votre eidolon et vos alliés dans l'aura sont protégés des dégâts environnementaux de n'importe quel plan, y compris la chaleur et le froid importants et extrêmes ainsi que des dangers plus inhabituels.</p>"
        },
        "Growing Vines": {
            "name": "Lianes extensibles (Growing Vines)",
            "description": "</p>Les lianes et les branches de votre eidolon s'étirent encore plus. Toutes les Frappes à mains nues au corps-à-corps de votre eidolon gagnent le trait allonge.</p>"
        },
        "Seething Frenzy": {
            "name": "Frénésie effrénée (Seething Frenzy)",
            "description": "<p>Votre eidolon peut s'enflammer jusqu'à la frénésie. Il obtient l'action @Compendium[pf2e-animal-companions.AC-Features.7K6UJ3D3owmOQS03]{Frénésie effrénée}.</p>"
        },
        "Undead Stalker": {
            "name": "Traqueur mort-vivant (Undead Stalker)",
            "description": "<p>For 14, Dex 18, Con 16, Int 8, Sag 12, Cha 10</p>"
        },
        "Mindless Companion": {
            "name": "Compagnon dénué d'intelligence (Mindless Companion)",
            "description": "<p>Certains compagnons morts-vivants sont dénués d'intelligence. Le trait dénué d'intelligence leur procure une immunité contre tous les effets mentaux, comme à l'ordinaire. Les seules compétences dans lesquelles un compagnon dénué d'intelligence est qualifié sont l'Acrobaties et l'Athlétisme et il ne peut pas être qualifié dans d'autres compétences. Même si un compagnon dénué d'intelligence acquiert une capacité limitée d'agir en combat sans être commandé, par exemple grâce au don Compagnon animal adulte, il ne peut répéter que le dernier ordre ; il ne peut pas entreprendre une nouvelle action de son propre chef. Un compagnon dénué d'intelligence ne peut pas prendre de spécialisation qui augmenterait son Intelligence ou lui accorderait des avantages dans des compétences autres qu'Acrobaties ou Athlétisme et il ne peut pas utiliser ou bénéficier des dons ou autres options pour les compagnons animaux qui exigent normalement qu'une créature ait un esprit, qu'elle pense ou prenne une décision. En cas de doute, le MJ détermine quelles capacités un compagnon dénué d'intelligence peut utiliser.</p>"
        },
        "Rejuvenation": {
            "name": "Reconstruction (Rejuvenation)",
            "description": "<p>Le lien inhabituel que vous possédez avec votre eidolon vous permet de vous reconstruire tous deux chaque fois que vous êtes vaincu. La première fois chaque jour lorsque votre tour commence alors que vous êtes Mourant, vous regagnez instantanément un nombre de Points de vie égal à trois fois votre niveau et vous vous réveillez (Augmentez votre état Blessé comme à l'ordinaire). Vous pouvez immédiatement Manifester votre eidolon par une action gratuite. Vous pouvez alors entreprendre votre tour comme à l'ordinaire.</p>"
        },
        "Beast's Charge": {
            "name": "Charge de la bête (Beast's Charge)",
            "description": "<p>Votre eidolon se rue en avant, utilisant son élan pour augmenter la puissance de son attaque. Votre eidolon Marche rapidement deux fois et puis Frappe. Si l'eidolon a franchi au moins 6 mètres par rapport à sa position de départ et s'est déplacé entièrement en ligne droite, il bénéficie d'un bonus de circonstances de +1 à ce jet d'attaque.</p>"
        },
        "Gulp Blood": {
            "name": "Gorgée de sang (Gulp Blood)",
            "description": "<p><strong>Conditions</strong> La dernière action de l'âme-en-peine aquatique était une attaque de mâchoires réussie contre un ennemi</p>\n<hr>\n<p>L'âme-en-peine aquatique obtient [[/r 2d8 #Points de vie temporaires]]{2d8 Points de vie temporaires} qui durent pendant 1 round et l'adversaire subit [[/r 2d6[bleed]]]{2d6 dégâts de saignement}. Si l'âme-en-peine aquatique est spécialisée, l'âme-en-peine aquatique obtient à la place [[/r 3d8 #Points de vie temporaires]]{3d8 Points de vie temporaires} et la cible subit [[/r 3d6[bleed]]]{3d6 dégâts de saignement}. Si la créature ciblée n'a aucun fluide vital, cette capacité pourrait ne pas fonctionner, à la discrétion du MJ.</p>"
        },
        "Fleet Beast": {
            "name": "Bête véloce (Fleet Beast)",
            "description": "<p>For 14, Dex 18, Con 16, Int 8, Sag 12, Cha 10 ; CA +1 (Max Dex +4)</p>"
        },
        "Secondary Attack": {
            "name": "Attaque secondaire (Secondary Attack)"
        },
        "Blasphemous Decree": {
            "name": "Décret blasphématoire (Blasphemous Decree)",
            "description": "<p>Votre démon murmure des mots indescriptibles qui se complaisent avec le péché associé. Il peut Lancer la version mauvaise de @UUID[Compendium.pf2e.spells-srd.Item.sX2o0HH4RjJDAZ8C]{Décret divin} une fois par jour comme un sort de rang 9. Vous n'êtes pas affectée par ce décret, même si vous n'êtes pas mauvais. Au niveau 19, cela devient un <em>Décret divin</em> au rang 10.</p>"
        },
        "Demonic Strikes": {
            "name": "Frappes démoniaques (Demonic Strikes)",
            "description": "<p>Les attaques de votre eidolon sont corrompues par les Failles extérieures et imprégnées de mal pur et de chaos mouvant. Toutes les frappes à mains nues de votre eidolon infligent [[/r 1[evil]]]{1 dégât mauvais} supplémentaire. Comme à l'ordinaire, ces dégâts supplémentaires ne blessent que les créatures bonnes ou celles qui ont une faiblesse contre les dégâts mauvais. De plus, choisissez l'une des attaques à mains nues de votre eidolon qui inflige des dégâts physiques. Elle obtient le trait polyvalent pour un autre type de dégâts physiques que vous choisissez.</p>"
        },
        "Trickster Fey": {
            "name": "Fée mystificatrice (Trickster Fey)",
            "description": "<p>For 12, Dex 18, Con 12, Int 12, Sag 8, Cha 16; CA +1 (Max Dex +4)</p>"
        },
        "Breath Weapon (Piercing)": {
            "name": "Arme de Souffle (Perforant) (Breath Weapon (Piercing))",
            "description": "<p>Votre eidolon souffle une explosion d'énergie destructrice. Votre eidolon inflige @Damage[1d6[piercing]]{1d6 dégâts perforants} à toutes les créatures dans la zone, avec un jet de Réflexes basique contre votre DD de sort. La zone et le type de dégâts de l'arme de souffle sont choisis lorsque l'eidolon obtient cette capacité. Votre eidolon ne peut plus alors utiliser son arme de souffle de nouveau pendant [[/br 1d4 #Recharge arme de souffle]]{1d4 rounds}.</p>\n<p>Au niveau 3 et tous les 2 niveaux par la suite, les dégâts augmentent de 1d6.</p>\n<p>@Template[type:cone|distance:30]{cône de 9 m}</p>\n<p>@Template[type:line|distance:60]{ligne de 18 m}</p>"
        },
        "Eidolon Ability Boosts (20th)": {
            "name": "Primes d'attributs de l'eidolon (20e) (Eidolon Ability Boosts (20th))"
        },
        "Effect: Seething Frenzy": {
            "name": "Effet : Frénésie effrénée (Effect: Seething Frenzy)",
            "description": "<p>La créature subit une pénalité de -2 à la CA.</p>"
        },
        "Angelic Avenger": {
            "name": "Vengeur angélique (Angelic Avenger)",
            "description": "<p>For 18, Dex 14, Con 16, Int 8, Sag 12, Cha 10 ; CA +2 (Max Dex +3)</p>"
        },
        "Cunning Dragon": {
            "name": "Dragon rusé (Cunning Dragon)",
            "description": "<p>For 12, Dex 18, Con 12, Int 14, Sag 10, Cha 12 ; CA +1 (Max Dex +4)</p>"
        },
        "Draconic Frenzy": {
            "name": "Frénésie draconique (Draconic Frenzy)",
            "description": "<p>Votre eidolon effectue une frappe avec son attaque principale à mains nues et deux Frappes avec une attaque à mains nues secondaire (dans n'importe quel ordre). Si l'une de ces attaques contre un ennemi est un coup critique, votre eidolon récupère instantanément l'utilisation de son Arme de souffle.</p>"
        },
        "Primordial Elemental": {
            "name": "Élémentaire primordial (Primordial Elemental)",
            "description": "<p>For +4, Dex +2, Con +3, Int –1, Sag +1, Cha +0 ; CA +2 (Max Dex +3)</p>"
        },
        "Primary (1d8, nonlethal)": {
            "name": "Primaire (1d8, non-létale) (Primary (1d8, nonlethal))"
        },
        "Wisdom Boost": {
            "name": "Prime de Sagesse (Wisdom Boost)"
        },
        "Scout Construct": {
            "name": "Créature artificielle éclaireuse (Scout Construct)",
            "description": "<p>For 14, Dex 18, Con 16, Int 12, Sag 10, Cha 8 ; CA +1 (Max Dex +4)</p>"
        },
        "Field of Roots": {
            "name": "Champ de racines (Field of Roots)",
            "description": "<p>Votre eidolon apprend à envoyer ses racines sous terre pour gêner ses ennemis. Il gagne l'activité @Compendium[pf2e-animal-compagnons.AC-Features.4ZCaD8Y817JjbrX2]{Champ de racines}.</p>"
        },
        "Wrecker Demon": {
            "name": "Démon démolisseur (Wrecker Demon)",
            "description": "<p>For 18, Dex 14, Con 16, Int 10, Sag 8, Cha 12 ; CA +2 (Max Dex +3)</p>"
        },
        "Drain Life": {
            "name": "Drain de vie (Drain Life)",
            "description": "<p>Le lien vital de votre eidolon avec vous le maintient mais il reste affamé de l'essence vitale des vivants, que ce soit à travers du sang ou de l'essence pure. Il obtient l'activité @Compendium[pf2e-animal-companions.AC-Features.3Ns5BmFpAcoGQIY5]{Drain de vie}.</p>"
        },
        "Negative Healing": {
            "name": "Guérison du vide (Negative Healing)",
            "description": "<p>@Localize[PF2E.NPC.Abilities.Glossary.NegativeHealing]</p>"
        },
        "Eidolon Ability": {
            "name": "Capacité d'eidolon (Eidolon Ability)",
            "description": "<p>L'eidolon débute avec une capacité initiale déterminée par le type d'eidolon.</p>"
        },
        "Breath Weapon (Negative)": {
            "name": "Arme de souffle (vide) (Breath Weapon (Negative))",
            "description": "<p>Votre eidolon souffle une explosion d'énergie destructrice. Votre eidolon inflige [[/r 1d6[void]]]{1d6 dégâts de vide} à toutes les créatures dans la zone, avec un jet de Réflexes basique contre votre DD de sort. La zone et le type de dégâts de l'arme de souffle sont choisis lorsque l'eidolon obtient cette capacité. Votre eidolon ne peut plus alors utiliser son arme de souffle de nouveau pendant [[/br 1d4 #Recharge du souffle]]{1d4 rounds}.</p>\n<p>Au niveau 3 et tous les 2 niveaux par la suite, les dégâts augmentent de 1d6.</p>\n<p>@Template[type:cone|distance:30]{cône de 9 m}</p>\n<p>@Template[type:line|distance:60]{ligne de 18 m}</p>"
        },
        "Breath Weapon (Cold)": {
            "name": "Arme de souffle (froid) (Breath Weapon (Cold))",
            "description": "<p>Votre eidolon souffle une explosion d'énergie destructrice. Votre eidolon inflige [[/r 1d6[cold]]]{1d6 dégâts de froid} à toutes les créatures dans la zone, avec un jet de Réflexes basique contre votre DD de sort. La zone et le type de dégâts de l'arme de souffle sont choisis lorsque l'eidolon obtient cette capacité. Votre eidolon ne peut plus alors utiliser son arme de souffle de nouveau pendant [[/br 1d4 #Recharge arme de souffle]]{1d4 rounds}.</p>\n<p>Au niveau 3 et tous les 2 niveaux par la suite, les dégâts augmentent de 1d6.</p>\n<p>@Template[type:cone|distance:30]{cône de 9 m}</p>\n<p>@Template[type:line|distance:60]{ligne de 18 m}</p>"
        },
        "Creeping Plant": {
            "name": "Plante rampante (Creeping Plant)",
            "description": "<p>For 12, Dex 18, Con 16, Int 8, Sag 14, Cha 10 ; CA +1 (Max Dex +4)</p>"
        },
        "Breath Weapon (Acid)": {
            "name": "Arme de souffle (Acide) (Breath Weapon (Acid))",
            "description": "<p>Votre eidolon souffle une explosion d'énergie destructrice. Votre eidolon inflige [[/r 1d6[acid]]]{1d6 dégâts d'acide} à toutes les créatures dans la zone, avec un jet de Réflexes basique contre votre DD de sort. La zone et le type de dégâts de l'arme de souffle sont choisis lorsque l'eidolon obtient cette capacité. Votre eidolon ne peut plus alors utiliser son arme de souffle de nouveau pendant [[/br 1d4 #Recharge arme de souffle]]{1d4 rounds}.</p>\n<p>Au niveau 3 et tous les 2 niveaux par la suite, les dégâts augmentent de 1d6.</p>\n<p>@Template[type:cone|distance:30]{cône de 9 m}</p>\n<p>@Template[type:line|distance:60]{ligne de 18 m}</p>"
        },
        "Angelic Mercy": {
            "name": "Grâce angélique (Angelic Mercy)",
            "description": "<p>Le pouvoir angélique de votre eidolon lui permet de soulager une variété de maux, comme la plupart des autres anges puissants. Votre eidolon peut lancer @UUID[Compendium.pf2e.spells-srd.Item.SUKaxVZW2TlM8lu0]{Affliction purifiée}, @UUID[Compendium.pf2e.spells-srd.Item.EfFMLVbmkBWmzoLF]{Clarté d'esprit} et @UUID[Compendium.pf2e.spells-srd.Item.BCuHKrDeJ4eq53M6]{Remise sur pied} une fois par jour chacun comme des sorts innés divins au rang 9.</p>"
        },
        "Swift Protector": {
            "name": "Protecteur rapide (Swift Protector)",
            "description": "<p>For 14, Dex 18, Con 16, Int 10, Sag 10, Cha 10 ; CA +1 (Dex max +4)</p>"
        },
        "Hidden Watcher": {
            "name": "Observateur caché (Hidden Watcher)",
            "description": "<p>Votre eidolon peut vous rendre tous les deux invisibles. Une fois par heure, il peut lancer @UUID[Compendium.pf2e.spells-srd.Item.XXqE1eY3w3z6xJCB]{Invisibilité} en vous ciblant, en se ciblant ou en vous ciblant tous les deux en même temps. Si le sort vous cible tous les deux, le sort prend fin pour vous deux si l'un d'entre vous utilise une action hostile.</p>"
        },
        "Soul Guardian": {
            "name": "Gardien de l'âme (Soul Guardian)",
            "description": "<p>For 18, Dex 14, Con 16, Int 10, Sag 12, Cha 8 ; CA +2 (Max Dex +3)</p>"
        },
        "Warrior Construct": {
            "name": "Créature artificielle combattante (Warrior Construct)",
            "description": "<p>For 18, Dex 14, Con 16, Int 12, Sag 10, Cha 8 ; CA +2 (Max Dex +3)</p>"
        },
        "Steadfast Devotion": {
            "name": "Dévouement sans faille (Steadfast Devotion)",
            "description": "<p>Grâce au dévouement de votre eidolon, il est extrêmement difficile pour vos ennemis de faire plier son esprit. Votre eidolon bénéficie d'un bonus de circonstances de +2 aux jets de sauvegarde contre les effets mentaux et s'il obtient un succès contre un tel effet, il obtient un succès critique à la place. Si vous possédez la capacité de classe @UUID[Compendium.pf2e.classfeatures.Item.eZPfHVz14j42jCnS]{Résolution partagée} et que votre eidolon obtient un échec critique contre un effet mental, il obtient un simple échec à la place.</p>"
        },
        "Primary (1d6, forceful, sweep)": {
            "name": "Primaire (1d6, percutant, balayage) (Primary (1d6, forceful, sweep))"
        },
        "Dutiful Retaliation": {
            "name": "Représailles consciencieuses (Dutiful Retaliation)",
            "description": "<p><strong>Déclencheur</strong> Un ennemi dans les 4,5 m de vous vous touche avec une Frappe et vous inflige des dégâts.</p>\n<p><strong>Conditions</strong> Votre eidolon est à 4,5 m de vous.</p>\n<hr />\n<p>Votre eidolon se charge instinctivement d'énergie ectoplasmique, ce qui lui permet de riposter contre un ennemi qui ose vous faire du mal. Votre eidolon effectue une Frappe à mains nues au corps-à-corps contre l'ennemi déclencheur, même si celui-ci n'est pas à la portée de votre eidolon.</p>"
        },
        "Construct Companion": {
            "name": "Compagnon créature artificielle (Construct Companion)"
        },
        "Scribe of the Dead": {
            "name": "Scribe de la mort (Scribe of the Dead)",
            "description": "<p>For 12, Dex 18, Con 12, Int 14, Sag 12, Cha 10 ; CA +1 (Max Dex +4)</p>"
        },
        "Anger Aura": {
            "name": "Aura colérique (Anger Aura)",
            "description": "<p>Votre eidolon dégage une aura de colère autour de lui, suscitant l'ire des créatures proches et faisant craquer leurs défenses alors qu'elles bouillonnent de rage. Votre eidolon gagne une aura de colère de @Template[type:emanation|distance:20]{6 mètres} qui possède les traits aura, émotion, enchantement, mental et occulte. Les résistances de toute créature dans l'aura, y compris vous, vos alliés, vos ennemis et votre eidolon sont réduites d'un montant égal à 3 + le modificateur de Constitution de votre eidolon. Votre eidolon peut contenir sa rage en dépensant une action simple, qui possède le trait concentration. L'effet de l'aura est alors réduit pour n'affecter que votre eidolon. Il peut refaire cette action pour rétablir le plein effet de son aura. Les créatures en proie à une @UUID[Compendium.pf2e.classfeatures.Item.WZUCvxqbigXos1L9]{Rage de barbare}, une @Compendium[pf2e-animal-companions.AC-Features.7K6UJ3D3owmOQS03]{Frénésie effrénée} ou toute capacité similaire qui leur permet de canaliser leur colère ne sont pas affectées par l'aura de colère.</p>"
        },
        "Angelic Emissary": {
            "name": "Émissaire angélique (Angelic Emissary)",
            "description": "<p>For 12, Dex 18, Con 12, Int 10, Sag 12, Cha 14 ; CA +1 (Max Dex +4)</p>"
        },
        "Marauding Dragon": {
            "name": "Dragon maraudeur (Marauding Dragon)",
            "description": "<p>For 18, Dex 14, Con 16, Int 10, Sag 10, Cha 10 ; CA +2 (Max Dex +3)</p>"
        },
        "Breath Weapon (Electricity)": {
            "name": "Arme de souffle (Électricité) (Breath Weapon (Electricity))",
            "description": "<p>Votre eidolon souffle une explosion d'énergie destructrice. Votre eidolon inflige [[/r 1d6[fire]]]{1d6 dégâts de feu} à toutes les créatures dans la zone, avec un jet de Réflexes basique contre votre DD de sort. La zone et le type de dégâts de l'arme de souffle sont choisis lorsque l'eidolon obtient cette capacité. Votre eidolon ne peut plus alors utiliser son arme de souffle de nouveau pendant [[/br 1d4 #Recharge arme de souffle]]{1d4 rounds}.</p>\n<p>Au niveau 3 et tous les 2 niveaux par la suite, les dégâts augmentent de 1d6.</p>\n<p>@Template[type:cone|distance:30]{cône de 9 m}</p>\n<p>@Template[type:line|distance:60]{ligne de 18 m}</p>"
        },
        "Construct Heart": {
            "name": "Coeur de créature artificielle (Construct Heart)",
            "description": "<p>Votre eidolon créature artificielle est directement liée à votre force vitale, ce qui en fait une créature vivante et donc sensible à de nombreux maux qui ne touchent que les vivants, bien qu'elle possède certaines résistances à ces effets. Il ne possède pas les immunités normales d'une créature artificielle, mais bénéficie d'un bonus de circonstances de +2 aux jets de sauvegarde contre les effets de mort, les maladies, la nécromancie et le poison, ainsi que contre les effets provoquant les états @UUID[Compendium.pf2e.conditionitems.Item.HL2l2VRSaQHu9lUw]{Fatigué} ou @UUID[Compendium.pf2e.conditionitems.Item.fesd1n5eVhpCSS18]{Malade/nauséeuse}. De plus, son essence astale s'écoule lentement et il n'a besoin que de réussir un @Check[type:flat|dc:10] pour mettre un terme à des dégâts de saignement (ou un @Check[type:flat|dc:5] s'il bénéficie d'une assistance particulièrement efficace).</p>"
        },
        "Undead Brute": {
            "name": "Brute morte vivante (Undead Brute)",
            "description": "<p>For 18, Dex 14, Con 16, Int 8, Sag 10, Cha 12</p>"
        },
        "Dexterity Boost": {
            "name": "Prime de Dextéritté (Dexterity Boost)"
        },
        "Eidolon Defensive Expertise": {
            "name": "Expertise défensive de l'eidolon (Eidolon Defensive Expertise)",
            "description": "<p>Votre eidolon augmente sa capacité à éviter les attaques. Sa maîtrise avec la défense sans armures passe à expert.</p>"
        },
        "Anchored Incorporeality": {
            "name": "Intagibilité ancrée (Anchored Incorporeality)",
            "description": "<p>Alors que la plupart des fantômes sont liés au site où ils sont morts ou ont été enterrés, certains se retrouvent plutôt liés à des objets spécifiques, comme un bijou particulier, un vêtement, le collier d'un animal domestique ou une pierre issu d'un bâtiment dans lequel ils ont vécu. Ces objets, connus sous le nom d'ancres, étaient importants pour le fantôme dans sa vie, ou essentiels aux évènements de sa mort et du fait qu'il le hante.</p>\n<p>Une créature disposant d'intangibilité ancrée possède le trait intangible, ce qui signifie qu'elle peut se déplacer à travers les créatures physiques et que ces dernières peuvent se déplacer à travers elle. Elle ne peut pas tenter des tests basés sur la Force (tel que @UUID[Compendium.pf2e.actionspf2e.Item.PMbdMWc2QroouFGD]{Saisir}) contre des créatures tangibles et les créatures tangibles ne peuvent pas tenter de tels tests contre elle. Bien qu'intangible, une créature ayant intagibilité ancrée ne peut pas se déplacer à plus de 18 m de son point d'ancrage et doit maintenir une ligne d'effet vers cet ancre. Cela l'empêche généralement de se déplacer à travers les murs. Contrairement à de nombreuses autres créatures intangibles, une créature dotée d'intangibilité ancrée ne bénéficie pas d'une résistance à tous les dégâts ni d'immunité aux dégâts de précision.</p>\n<p>Un personnage ayant un compagnon animal ou un familier qui possède intangibilité ancrée peut transférer l'ancre sur un nouvel objet à l'aide d'un rituel spécial. Cela nécessite de passer 1 semaine de concert avec le compagnon pour créer une nouvelle ancre. Un personnage qui connait cette technique pourrait être en mesure de l'adapter pour transférer la capacité Site lié d'un fantôme (ou une restriction similaire) afin de l'attacher à une ancre plutôt qu'à un lieu.</p>"
        },
        "Eidolon Ability Boosts (5th)": {
            "name": "Primes d'attributs de l'eidolon (5e) (Eidolon Ability Boosts (5th))"
        },
        "Fey Chicanery": {
            "name": "Chicanerie féerique (Fey Chicanery)",
            "description": "<p>Toujours plein d'astuces, votre eidolon fée tisse des protections magiques dans votre force vitale commune, ce qui lui permet d'avoir une réserve dans sa poche arrière pour les situations désespérées. Au cours de vos préparatifs quotidiens, votre eidolon peut lancer un sort de @UUID[Compendium.pf2e.spells-srd.Item.WG91Z5TiR6oO5FOw]{Contingence}. Le sort de rang 4 qu'il choisit doit provenir de la liste des dons primordiaux ou de la liste des sorts du Cadeau féerique et doit être soit courant soit un issu d'un sort auquel vous avez accès.</p>"
        },
        "Advanced Maneuver": {
            "name": "Manoeuvre avancée (Advanced Maneuver)"
        },
        "Spirit Touch": {
            "name": "Contact spirituel (Spirit Touch)",
            "description": "<p>Les attaques de votre eidolon possèdent une capacité de psychopompe de blesser les vivants et les morts. Les Frappes de votre eidolon affectent les créatures intangibles comme si elles étaient revêtues d'une rune de propriété spectrale était gravée et infligent [[/r 1[void]]]{1 dégât de vide} supplémentaire aux créatures vivantes et [[/r 1[vitality]]]{1 dégât de vitalité} supplémentaire aux morts-vivants.</p>"
        },
        "Reconfigured Evolution": {
            "name": "Évolution reconfigurée (Reconfigured Evolution)",
            "description": "<p>Votre eidolon créature artificielle est particulièrement facilement reconfigurable, obtenant une évolution supplémentaire qui convient à vos souhaits partagés. Choisissez un don d'évolution de niveau 6 ou inférieur. Votre eidolon obtient ce don. Vous pouvez utiliser le Réapprentissage de ce don pour n'importe quel autre don d'évolution de niveau 6 ou inférieur en passant un unique jour d'Intermède si vous réussissez un test d'Artisanat, avec un DD standard du niveau de votre eidolon. En cas d'échec, vous pouvez recommencer en passant de nouveau un autre jour. De nombreux conjurateur choisissent @Compendium[pf2e-animal-companions.AC-Evolution-Feats.OGTIinVaETSz7kdW]{Courroux de l'eidolon} pour cette capacité.</p>"
        },
        "Furious Strike": {
            "name": "Frappe furieuse (Furious Strike)",
            "description": "<p>Votre eidolon peut imprégner une attaque avec une rage sans limite. Il obtient l'activité @Compendium[pf2e-animal-companions.AC-Features.Q8yXShOx8PGjL0LV]{Frappe furieuse}.</p>"
        },
        "Hallowed Strikes": {
            "name": "Frappes sanctifiées (Hallowed Strikes)",
            "description": "<p>Les attaques de votre eidolon sont sanctifiées par les royaumes célestes. Les Frappes à mains nues de votre eidolon infligent un supplément de [[/r 1[spirit]]]{1 dégât spirituel}. Comme à l'ordinaire, ces dégâts supplémentaires ne blessent que les créatures maléfiques ou celles qui ont une faiblesse contre les dégâts spirituels. De plus, votre eidolon peut effectuer des attaques non-létales avec ses attaques à mains nues sans subir la pénalité de circonstances habituelle de -2.</p>"
        },
        "Breath Weapon": {
            "name": "Arme de souffle (Breath Weapon)",
            "description": "<p>Votre eidolon possède une arme de souffle puissante, qu'il est capable d'utiliser régulièrement pour provoquer des ravages sur vo ennemis. Il obtient l'activité Arme de souffle. Choisissez un type de dégâts d'acide, d'électricité, de feu, de froid négatifs, perforants ou de poison et choisissez si la zone est un @Template[type:cone|distance:30]{cône de 9 m} ou une @Template[type:line|distance:60]{ligne de 18 m}. À moins que vous choisissiez les dégâts perforants, l'Arme de souffle et votre eidolon obtiennent le trait correpondant au type de dégâts.</p>"
        },
        "Primary (1d8, trip)": {
            "name": "Primaire (1d8, croc-en-jambe) (Primary (1d8, trip))"
        },
        "Constitution Boost": {
            "name": "Prime de Constitution (Constitution Boost)"
        },
        "Primary (1d6, deadly d8, finesse)": {
            "name": "Primaire (1d6, finesse, mortel d8) (Primary (1d6, deadly d8, finesse))"
        },
        "Elemental Burst": {
            "name": "Explosion élémentaire (Elemental Burst)",
            "description": "<p><strong>Fréquence</strong> une fois toutes les 10 minutes</p>\n<hr />\n<p>Votre eidolon arrache un morceau de matière élémentaire à sa propre forme et le projette sur un groupe d'ennemis. Votre eidolon perd un nombre de points de vie égal à votre niveau. Toutes les créatures dans une @Template[type:burst|distance:20]{explosion de 6 mètres} dans les 18 mètres subissent @Damage[(@actor.level - 1)d6] dégâts avec un jet de Réflexes basiques contre votre DD de sort. Les dégâts augmentent de 1d6 pour chaque niveau que vous possédez au delà du niveau 7. Le type de dégât est soit de feu si votre eidolon est un élémentaire de feu, soit du même type de dégât physique que ceux de l'attaque à mains nues primaire de l'eidolon si votre eidolon n'est pas un élémentaire de feu. Les explosions élémentaires obtient tous les traits que les attaques à mains nues de l'eidolon obtiennennt du noyau élémentaire.</p>"
        },
        "Intelligence Boost": {
            "name": "Prime d'Intelligence (Intelligence Boost)"
        },
        "Elemental Maelstrom": {
            "name": "Maelström élémentaire (Elemental Maelstrom)",
            "description": "<p>Votre eidolon se transforme temporairement en un vortex tournoyant de matière élémentaire et sème la destruction parmis ses ennemis. Votre eidolon Marche rapidement. Au cours de ce déplacement, il peut tenter une Frappe contre chaque ennemi qui est dans son allonge. Si un ennemi se retrouve dans l'allonge de votre eidolon plus d'une fois, votre eidolon ne porte qu'une seule Frappe contre cet ennemi donné. Ces attaques comptent toutes dans la pénalité d'attaques multiples de votre eidolon, mais la pénalité n'augmente pas avant qu'il ait terminé toutes ses attaques. Si votre eidolon possède la Vitesse appropriée, il peut Escalader, Voler ou Nager au lieu de Marcher rapidement.</p>"
        },
        "Primary (1d8, disarm)": {
            "name": "Primaire (1d8, désarmer) (Primary (1d8, disarm))"
        },
        "Breath Weapon (Fire)": {
            "name": "Arme de souffle (Feu) (Breath Weapon (Fire))",
            "description": "<p>Votre eidolon souffle une explosion d'énergie destructrice. Votre eidolon inflige [[/r 1d6[fire]]]{1d6 dégâts de feu} à toutes les créatures dans la zone, avec un jet de Réflexes basique contre votre DD de sort. La zone et le type de dégâts de l'arme de souffle sont choisis lorsque l'eidolon obtient cette capacité. Votre eidolon ne peut plus alors utiliser son arme de souffle de nouveau pendant [[/br 1d4 #Recharge arme de souffle]]{1d4 rounds}.</p>\n<p>Au niveau 3 et tous les 2 niveaux par la suite, les dégâts augmentent de 1d6.</p>\n<p>@Template[type:cone|distance:30]{cône de 9 m}</p>\n<p>@Template[type:line|distance:60]{ligne de 18 m}</p>"
        },
        "Eidolon": {
            "name": "Eidolon",
            "rules": {
                "0": {
                    "prompt": "Sélectionnez les détails de la Frappe primaire. Cela peut être édité sur l'onglet inventaire par la suite."
                }
            }
        },
        "Fey Gift Spells": {
            "name": "Sorts du Cadeau féerique (Fey Gift Spells)",
            "description": "<p>Votre eidolon ajoute à votre magie primordiale la magie d'enchantement et d'illusion, vous permettant à tous les deux d'utiliser le pouvoir du charme et de l'attrait des fées. Lorsque vous ajoutez des sorts à votre répertoire, vous pouvez choisir parmi la liste des sorts primordiaux ainsi que parmi les sorts d'enchantement et d'illusion qui figurent sur la liste des sorts arcaniques. Comme à l'ordinaire, lorsque vous ajoutez des sorts d'une autre tradition à votre liste de sorts, vous êtes toujours un lanceur de sorts primordiaux de sorte que tous vos sorts sont des sorts primordimaux.</p>\n<p>Votre eidolon obtient le don de conjurateur @UUID[Compendium.pf2e.feats-srd.Item.WfbmFsRxbVyzMmCz]{Doublure magique} bien qu'il n'ait pas le niveau requis et il peut choisir des tours de magie du Cadeau de fée en plus des tours de magie primordiaux. Comme à l'ordinaire pour un don que l'on vous accorde par le nom, vous ne pouvez pas réapprendre Doublure magique pour un autre don.</p>"
        },
        "Eidolon Transcendence": {
            "name": "Transcendance de l'eidolon (Eidolon Transcendence)",
            "description": "<p>Le lien forgé avec votre eidolon approche son paroxysme, accordant à votre eidolon la possibilité d'accéder à une nouvelle capacité puissante qui dépend de son type, comme indiqué dans les capacités de l'eidolon dans chaque description des différents types d'eidolon. Cette capacité accroit aussi l'un des scores d'attribut de l'eidolon de +1.</p>",
            "rules": {
                "0": {
                    "prompt": "Sélectionnez un score d'attribut à augmenter"
                }
            }
        },
        "Animal Companion": {
            "name": "Compagnon animal (Animal Companion)"
        },
        "Primary (1d6, fatal d10)": {
            "name": "Primaire (1d6, fatal d10) (Primary (1d6, fatal d10))"
        },
        "Tempter Demon": {
            "name": "Démon tentateur (Tempter Demon)",
            "description": "<p>For 12, Dex 18, Con 12, Int 10, Sag 10, Cha 16 ; CA +1 (Max Dex +4)</p>"
        }
    },
    "mapping": {
        "description": "system.description.value",
        "gm": "system.description.gm",
        "rules": {
            "path": "system.rules",
            "converter": "translateRules"
        }
    }
}