{
    "label": "Ascendances et classes (Animal Companions)",
    "entries": {
        "Dromaeosaur": {
            "name": "Droméosaure",
            "description": "<p>Votre compagnon est un droméosaure (aussi appelé un raptor), tel qu'un vélociraptor ou un déinonychus.</p>\n<p><strong>Taille</strong> Petite</p>\n<p><strong>Corps-à-corps</strong> <span class=\"action-glyph\">1</span> mâchoires (finesse), <strong>Dégâts</strong> 1d8 perforants</p>\n<p><strong>Corps-à-corps</strong> <span class=\"action-glyph\">1</span> serre (agile, finesse), <strong>Dégâts</strong> 1d6 tranchants</p>\n<p><strong>For</strong> +2, <strong>Dex</strong> +3, <strong>Con</strong> +2, <strong>Int</strong> -4, <strong>Sag</strong> +1, <strong>Cha</strong> +0</p>\n<p><strong>Points de Vie</strong> 6</p>\n<p><strong>Compétence</strong> Discrétion</p>\n<p><strong>Sens</strong> vision nocturne, odorat 9 m (imprécis)</p>\n<p><strong>Vitesse</strong> 15 m</p>\n<p><strong>Avantage de soutien</strong> Votre raptor s'élance constamment pour se mettre en position de tenaille. Jusqu'au début de votre prochain tour, il compte comme étant dans sa case ou dans une case vide de votre choix dans un rayon de 3 mètres lorsqu'il s'agit de déterminer si vous et votre compagnon prenez en tenaille ; vous pouvez choisir une case différente pour chacune de vos attaques).</p>\n<p><strong>Manœuvre avancée</strong> @Compendium[pf2e-animal-companions.AC-Advanced-Maneuvers.ClUiCoBn3lHBBK5c]{Attaque foudroyante}</p>"
        },
        "Bird": {
            "name": "Oiseau de proie",
            "description": "<p>Votre compagnon est un oiseau de proie tel qu'un aigle, un faucon ou une chouette.</p>\n<p><strong>Taille</strong> Petite</p>\n<p><strong>Corps-à-corps</strong> <span class=\"action-glyph\">1</span> bec (finesse), <strong>Dégâts</strong> 1d6 perforants</p>\n<p><strong>Corps-à-corps</strong> <span class=\"action-glyph\">1</span> serres (agile, finesse), <strong>Dégâts</strong> 1d4 tranchants</p>\n<p><strong>For</strong> +2, <strong>Dex</strong> +3, <strong>Con</strong> +1, <strong>Int</strong> -4, <strong>Sag</strong> +2, <strong>Cha</strong> +0</p>\n<p><strong>Points de Vie</strong> 4</p>\n<p><strong>Compétence</strong> Discrétion</p>\n<p><strong>Sens</strong> vision nocturne</p>\n<p><strong>Vitesse</strong> 3 m, vol 18 m</p>\n<p><strong>Avantage de soutien</strong> L'oiseau de proie picore les yeux de vos ennemis lorsque vous créez une ouverture. Jusqu'au début de votre prochain tour, vos Frappes qui blessent une créature que votre oiseau de proie menace inflige aussi [[/r 1d4[bleed]]]{1d4 dégâts de saignement} et la cible est @UUID[Compendium.pf2e.conditionitems.Item.TkIyaNPgTZFBCCuh]{Éblouie} jusqu'à ce qu'elle mette un terme aux dégâts de saignement. Si votre oiseau est agile ou sauvage, les dégâts de saignement passent à 2d4.</p>\n<p><strong>Manœuvre avancée</strong> @Compendium[pf2e-animal-companions.AC-Advanced-Maneuvers.X4VjMfVVAjZjwcrT]{Attaque en vol}</p>"
        },
        "Wolf": {
            "name": "Loup",
            "description": "<p>Votre compagnon est un loup ou un autre canidé tel qu'un chien.</p>\n<p><strong>Taille</strong> Petite</p>\n<p><strong>Corps-à-corps</strong> <span class=\"action-glyph\">1</span> mâchoires (finesse), <strong>Dégâts</strong> 1d8 perforants</p>\n<p><strong>For</strong> +2, <strong>Dex</strong> +3, <strong>Con</strong> +2, <strong>Int</strong> -4, <strong>Sag</strong> +1, <strong>Cha</strong> +0</p>\n<p><strong>Points de Vie</strong> 6</p>\n<p><strong>Compétence</strong> Survie</p>\n<p><strong>Sens</strong> vision nocturne, odorat 9 m (imprécis)</p>\n<p><strong>Vitesse</strong> 12 m</p>\n<p><strong>Avantage de soutien</strong> Votre loup déchire les tendons à chaque ouverture. Jusqu'au début de votre prochain tour, vos frappes qui blessent les créatures dans l'allonge de votre loup infligent à la cible une pénalité de statut de -1,5 m à ses Vitesses pendant 1 minute (-3 m en cas de coup critique).</p>\n<p><strong>Manœuvre avancée</strong> @Compendium[pf2e-animal-companions.AC-Advanced-Maneuvers.xssFjTXqGlsaddvl]{Renversement}</p>"
        },
        "Shadow Hound": {
            "name": "Molosse d'ombre",
            "description": "<p><strong>Accès</strong> Vous êtes un incantateur de l'ombre.</p>\n<hr />\n<p>Votre compagnon est une créature canine créature liée aux habitants du Nébulmonde connus sous le nom de mâtins de l'ombre.</p>\n<p><strong>Taille</strong> Petite</p>\n<p><strong>Corps-à-corps</strong> <span class=\"action-glyph\">1</span> mâchoires (finesse), <strong>Dégâts</strong> 1d8 perforants</p>\n<p><strong>For </strong>+2, <strong>Dex </strong>+3, <strong>Con </strong>+1, <strong>Int </strong>-4, <strong>Sag </strong>+1, <strong>Cha </strong>+1</p>\n<p><strong>Points de Vie</strong> 4</p>\n<p><strong>Compétence</strong> Intimidation</p>\n<p><strong>Sens</strong> vision dans le noir, odorat 9 m (imprécis)</p>\n<p><strong>Vitesse</strong> 9 m</p>\n<p><strong>Avantage de soutien</strong> Votre molosse d'ombre enveloppe vos ennemis dans l'ombre lorsque vous laissez une ouverture. Jusqu'au début de votre prochain tour, lorsque vous infligez des dégâts à une créature avec une Frappe et que cette créature se trouve dans l'allonge de votre molosse d'ombre, vous et votre molosse d'ombre devenez tous les deux @UUID[Compendium.pf2e.conditionitems.Item.DmAIPqOBomZ7H95W]{Masqué} pour la créature jusqu'à la fin de votre prochain tour.</p>\n<p><strong>Manœuvre avancée</strong> @Compendium[pf2e-animal-companions.AC-Advanced-Maneuvers.EvuMVR9ut9wIHOtq]{Plainte}</p>"
        },
        "Draft Lizard": {
            "name": "Lézard de monte",
            "description": "<p>Votre compagnon est un lézard géant, utilisé dans les profondeurs de Heaume en tant que montures et animaux de bât.</p>\n<p><strong>Taille</strong> Moyenne</p>\n<p><strong>Corps-à-corps</strong> <span class=\"action-glyph\">1</span> mâchoires, <strong>Dégâts</strong> 1d8 perforants</p>\n<p><strong>Corps-à-corps</strong> <span class=\"action-glyph\">1</span> queue (finesse), <strong>Dégâts</strong> 1d6 contondants</p>\n<p><strong>For</strong> +3, <strong>Dex</strong> +2, <strong>Con</strong> +2, <strong>Int</strong> –4, <strong>Sag</strong> +1, <strong>Cha</strong> +0</p>\n<p><strong>Points de vie</strong> 8</p>\n<p><strong>Compétence</strong> Athlétisme</p>\n<p><strong>Sens</strong> vision dans le noir, odorat 9 mètres (imprécis)</p>\n<p><strong>Vitesse</strong> 7,5 mètres</p>\n<p><strong>Spécial</strong> monture</p>\n<p><strong>Avantage de soutien</strong> Votre lézard de trait vous assiste dans la bataille. Vous obtenez un bonus de circonstances de +1 à votre prochain jet d'attaque pour Frapper un ennemi dans l'allonge de votre lézard de trait. Le bonus persiste jusqu'à la première fois que vous l'utilisez ou jusqu'au début de votre prochain tour, selon ce qui advient en premier.</p>\n<p><strong>Manœuvre avancée</strong> Coup de queue</p>"
        },
        "Legchair": {
            "name": "Chaise sur pattes",
            "description": "<p>Votre compagnon est une étrange créature, ressemblant à une chaise avec des pattes bestiales.</p>\n<p><strong>Taille</strong> Moyenne ou Grande</p>\n<p><strong>Corps-à-corps</strong> <span class=\"action-glyph\">1</span> sabot (agile), <strong>Dégâts</strong> 1d6 contondants</p>\n<p><strong>For</strong> +3, <strong>Dex</strong> +2, <strong>Con</strong> +2, <strong>Int</strong> -4, <strong>Sag</strong> +1, <strong>Cha</strong> +0</p>\n<p><strong>Points de Vie</strong> 8</p>\n<p><strong>Compétence</strong> Discrétion</p>\n<p><strong>Sens</strong> vision nocturne, odorat 9 m (imprécis)</p>\n<p><strong>Vitesse</strong> 12 m</p>\n<p><strong>Spécial</strong> monture</p>\n<p><strong>Avantage de soutien</strong> Votre chaise sur pattes déplace ses membres dans le passage des attaques de l'ennemi. Vous obtenez un abri partiel de la part de votre chaise sur pattes contre toutes les attaques, pas juste celles pour lesquelles la chaise sur pattes serait dans le passage.</p>\n<p><strong>Manœuvre avancée</strong> @Compendium[pf2e-animal-companions.AC-Advanced-Maneuvers.lrchn6ROZcuKCg3C]{Retrait précautionneux}</p>"
        },
        "Fiery Leopard": {
            "name": "Léopard brûlant",
            "description": "<p><strong>Taille</strong> Petite</p>\n<p><strong>Corps-à-corps</strong> <span class=\"action-glyph\">1</span> mâchoires (finesse), <strong>Dégâts</strong> 1d6 perforants</p>\n<p><strong>Corps-à-corps</strong> <span class=\"action-glyph\">1</span> griffe (agile, finesse), <strong>Dégâts</strong> 1d4 tranchants</p>\n<p><strong>For</strong> +2, <strong>Dex</strong> +3, <strong>Con</strong> +1, <strong>Int</strong> -4, <strong>Sag</strong> +2, <strong>Cha</strong> +0</p>\n<p><strong>Points de Vie</strong> 4</p>\n<p><strong>Compétence</strong> Discrétion</p>\n<p><strong>Sens</strong> vision nocturne, odorat 9 m (imprécis)</p>\n<p><strong>Vitesse</strong> 10,5 m</p>\n<p><strong>Spécial</strong> Votre félin inflige 1d4 dégâts de précision supplémentaires contre les cibles Prises au dépourvu.</p>\n<p><strong>Avantage de soutien</strong> Votre félin déséquilibre vos ennemis lorsque vous créez une ouverture. Jusqu'au début de votre prochain tour, vos Frappes qui infligent des dégâts à une créature que votre félin menace rendent la cible @UUID[Compendium.pf2e.conditionitems.Item.AJh5ex99aV6VTggg]{Prises au dépourvu} jusqu'à la fin de votre prochain tour.</p>\n<p><strong>Manœuvre avancée</strong> @Compendium[pf2e-animal-companions.AC-Advanced-Maneuvers.U0J8J5ukmqnOskE8]{Bond du félin}</p>\n<p><strong>Immunité</strong> feu <strong>Faiblesse</strong> froid 5</p>\n<p><strong>Attaques enflammées</strong> (feu) Les attaques naturelles du léopard brûlant infligent 1 dégât de feu (en plus des dégâts infligés aux cibles prises au dépourvu). Ces dégâts passent à 1d4 lorsque le léopard brûlant devient un compagnon animal agile ou sauvage.</p>\n<p><strong>Fourrure brûlante</strong> (feu) Les créatures qui débutent leur tour agrippées par le léopard brûlant subissent 1d4 dégâts de feu. Quiconque essaie d'empoigner le léopard brûlant subit 1d4 dégâts de feu à chaque tentative.</p>\n<p><strong>Lueur ardente</strong> Le léopard brûlant émet une lumière faible dans un rayon de 3 m qui lui donne une pénalité de circonstances de -2 sur les tests de Discrétion la nuit ou dans un environnement sombre.</p>"
        },
        "Shark": {
            "name": "Squale",
            "description": "<p>Votre compagnon est un squale de n'importe quel type tel qu'un requin marteau, un grand requin blanc ou un requin bleu.</p>\n<p><strong>Taille</strong> Petite</p>\n<p><strong>Corps-à-corps</strong> <span class=\"action-glyph\">1</span> mâchoires, <strong>Dégâts</strong> 1d8 perforants</p>\n<p><strong>For</strong> +3, <strong>Dex</strong> +2, <strong>Con</strong> +2, <strong>Int</strong> -4, <strong>Sag</strong> +1, <strong>Cha</strong> +0</p>\n<p><strong>Points de Vie</strong> 6</p>\n<p><strong>Compétence</strong> Discrétion</p>\n<p><strong>Sens</strong> perception du sang, odorat 18 m (imprécis)</p>\n<p><strong>Vitesse</strong> nage 12 m</p>\n<p><strong>Spécial</strong> Le squale a le trait aquatique. sa perception du sang lui permet de sentir le sang dans l'eau à 1,5 km de distance.</p>\n<p><strong>Avantage de soutien</strong> Lorsque votre squale perçoit le sang, il déchire vos ennemis. Jusqu'au début de votre prochain tour, chaque fois que vous touchez une créature à la portée du requin avec une Frappe et que vous lui infligez des dégâts tranchants ou perforants, la créature subit @Damage[1d8[slashing]]{1d8 dégâts tranchants} de la part du requin. Si votre requin est agile ou sauvage, les dégâts tranchants passent à 2d8.</p>\n<p><strong>Manœuvre avancée</strong> @Compendium[pf2e-animal-companions.AC-Advanced-Maneuvers.F98ajoIakyOPEuwj]{Déchiqueter}</p>"
        },
        "Water Elemental": {
            "name": "Élémentaire d'eau",
            "description": "<p>Votre compagnon est un élémentaire d'eau, comme un requin de saumure.</p>\n<p><strong>Accès</strong> Vous êtes un membre de l'ordre de la vague.</p>\n<p><strong>Taille</strong> Petite</p>\n<p><strong>Corps-à-corps</strong> <span class=\"action-glyph\">1</span> vague, <strong>Dégâts</strong> 1d8 contondant</p>\n<p><strong>For</strong> +2, <strong>Dex</strong> +2, <strong>Con</strong> +1, <strong>Int</strong> –4, <strong>Sag</strong> +1, <strong>Cha</strong> +0</p>\n<p><strong>Points de vie</strong> 6</p>\n<p><strong>Compétence</strong> Survie</p>\n<p><strong>Sens</strong> vision dans le noir</p>\n<p><strong>Vitesse</strong> 4,5 m, nager 10,5 m</p>\n<p><strong>Spécial</strong> Résistance au feu (égal au niveau de l'élémentaire d'eau)</p>\n<p><strong>Avantage de soutien</strong> Votre élémentaire d'eau détrempe un ennemi. La première fois avant le début de votre prochain tour que vous touchez avec une Frappe qui inflige des dégâts à une créature dans l'allonge de votre élémentaire d'eau, cette créature devient @UUID[Compendium.pf2e.conditionitems.Item.i3OJZU2nk64Df3xm]{Maladroite 1} jusqu'à la fin de votre prochain tour.</p>\n<p><strong>Manœuvre avancée</strong> @UUID[Compendium.pf2e-animal-companions.AC-Advanced-Maneuvers.Item.x4clojDNIvYB5V7X]{Tremper}</p>"
        },
        "Ghost": {
            "name": "Fantôme",
            "description": "<p>Votre compagnon est un fantôme lié à un objet en votre possession. Grâce à ce lien, votre compagnon fantôme peut se déplacer au-delà du périmètre d'une seule habitation mais il est plus facile à perturber que la plupart des créatures intangibles. Un compagnon fantôme peut être formé à partir d'une créature humanoïde, animale ou autre. Le fantôme n'est pas intelligent et est incapable de parler avec les vivants.</p>\n<p><strong>Taille</strong> Petite ou Moyenne</p>\n<p><strong>Corps-à-corps</strong> <span class=\"action-glyph\">1</span> contact fantomatique (finesse, magique), <strong>Dégâts</strong> 1d8 négatifs (n'appliquent pas le modificateur de Force du fantôme)</p>\n<p><strong>For</strong> -5, <strong>Dex</strong> +3, <strong>Con</strong> +0, <strong>Int</strong> -4, <strong>Sag</strong> +1, <strong>Cha</strong> +2</p>\n<p><strong>Points de vie</strong> 4</p>\n<p><strong>Compétence</strong> Discrétion</p>\n<p><strong>Sens</strong> vision dans le noir</p>\n<p><strong>Vitesse</strong> vol 6 m</p>\n<p><strong>Spécial</strong> @Compendium[pf2e-animal-companions.AC-Features.BjE6osOFlAishRbh]{Intangibilité ancrée}</p>\n<p><strong>Avantage de soutien</strong> Votre fantôme effraie vos ennemis et leur fait peur lorsque vous les attaquez. Jusqu'au début de votre prochain tour, si vous touchez et infligez des dégâts à une créature dans l'allonge de votre fantôme, cette dernière devient @UUID[Compendium.pf2e.conditionitems.Item.Frightened]{Effrayée 1}.</p>\n<p><strong>Manœuvre avancée</strong> @Compendium[pf2e-animal-companions.AC-Advanced-Maneuvers.NMaMTiDB40L5O41S]{Assaut télékinésique}</p>",
            "rules": {
                "6": {
                    "label": "Contact fantomatique"
                }
            }
        },
        "Crocodile": {
            "name": "Crocodile",
            "description": "<p>Votre compagnon est un crocodile ou un reptile crocodilien similaire tel qu'un alligator ouun caïman.</p>\n<p><strong>Taille</strong> Petite</p>\n<p><strong>Corps-à-corps</strong> <span class=\"action-glyph\">1</span> mâchoires, <strong>Dégâts</strong> 1d8 perforants</p>\n<p><strong>Corps-à-corps</strong> <span class=\"action-glyph\">1</span> queue (agile), <strong>Dégâts</strong> 1d6 contondants</p>\n<p><strong>For</strong> +3, <strong>Dex</strong> +2, <strong>Con</strong> +2, <strong>Int</strong> -4, <strong>Sag</strong> +1, <strong>Cha</strong> +0</p>\n<p><strong>Points de Vie</strong> 6</p>\n<p><strong>Compétence</strong> Discrétion</p>\n<p><strong>Sens</strong> vision nocturne</p>\n<p><strong>Vitesse</strong> 6 m, natation 7,5 m</p>\n<p><strong>Spécial</strong> Le crocodile peut retenir sa respiration pendant 2 heures.</p>\n<p><strong>Avantage de soutien</strong> Votre crocodile serre ses mâchoires sur votre ennemi, refusant de le lâcher. Jusqu'au début de votre prochain tour, si votre Frappe blesse une créature dans l'allonge de votre crocodile, ce dernier peut s'accrocher à cette créature. Pendant qu'il est ainsi attaché, le crocodile peut se déplacer avec la cible à chaque fois que celle-ci se déplace jusqu'à la fin de votre prochain tour. Votre crocodile ne peut s'accrocher qu'à une seule créature de cette façon et il doit relâcher la créature pour faire une Frappe de mâchoire. Si la cible est plus petite que le crocodile, elle subit une pénalité de circonstances de -3 m à ses Vitesses et ne peuvent Voler tant que le crocodile est attaché.</p>\n<p><strong>Manœuvre avancée</strong> @Compendium[pf2e-animal-companions.AC-Advanced-Maneuvers.ttJ1CanrAuehoSV8]{Roulade mortelle}</p>"
        },
        "Undead Hand": {
            "name": "Main morte-vivante",
            "description": "<p>Votre compagnon est une main d'humanoïde squelettique ou composée de chair de taille grande, similaire à une main rampante géante.</p>\n<p><strong>Taille</strong> Petite</p>\n<p><strong>Corps-à-corps</strong> <span class=\"action-glyph\">1</span> griffe (agile, finesse), <strong>Dégâts</strong> 1d6 tranchant</p>\n<p><strong>For</strong> +2, <strong>Dex</strong> +2, <strong>Con</strong> +1, <strong>Int</strong> -5, <strong>Sag</strong> +1, <strong>Cha</strong> +0</p>\n<p><strong>Points de vie</strong> 4</p>\n<p><strong>Compétence</strong> aucune (dénuée d'intelligence)</p>\n<p><strong>Sens</strong> Vision dans le noir</p>\n<p><strong>Vitesse</strong> 6 m, escalade 6 m</p>\n<p><strong>Spécial</strong> dénuée d'intelligence</p>\n<p><strong>Avantage de soutien</strong> La main frappe vicieusement les ennemis que vous attaquez. Jusqu'au début de votre prochain tour, chaque fois que vous touchez une créature à portée de la main avec une Frappe, la créature subit @Damage[1d6[bludgeoning]]{1d6 dégâts contondants} de la main. Si votre main est agile ou sauvage, les dégâts contondants passent à @Damage[2d6[bludgeoning]]{2d6}.</p>\n<p><strong>Manœuvre avancée</strong> @Compendium[pf2e-animal-companions.AC-Advanced-Maneuvers.MQv67R7KBIrJkshN]{Gorge serrée}</p>"
        },
        "Capybara": {
            "name": "Capybara",
            "description": "<p>Votre compagnon animal est un capybara, un rongeur géant courant dans les forêts d'Arcadie.</p>\n<p><strong>Taille</strong> Petite</p>\n<p><strong>Corps-à-corps</strong> <span class=\"action-glyph\">1</span> tête (agile), <strong>Dégâts</strong> 1d6 contondants</p>\n<p><strong>For</strong> +2, <strong>Dex</strong> +2, <strong>Con</strong> +2, <strong>Int</strong> -4, <strong>Sag</strong> +2, <strong>Cha</strong> +0</p>\n<p><strong>Points de Vie</strong> 6</p>\n<p><strong>Compétence</strong> Survie</p>\n<p><strong>Sens</strong> vision nocturne, odorat 9 m (imprécis)</p>\n<p><strong>Vitesse</strong> 9 m, natation 4,5 m</p>\n<p><strong>Avantage de soutien</strong> Votre capybara vous assiste dans la bataille. Vous obtenez un bonus de circonstances de +1 à votre prochain jet d'attaque pour Frapper un ennemi dans l'allonge de votre capybara. Le bonus dure jusqu'à la première fois que vous l'utilisez ou jusqu'au début de votre prochain tour, ce qui se produit en premier.</p>\n<p><strong>Manœuvre avancée</strong> @Compendium[pf2e-animal-companions.AC-Advanced-Maneuvers.cpMkN79PdNci3nGp]{Aspersion distrayante}</p>",
            "rules": {
                "8": {
                    "label": "Tête"
                }
            }
        },
        "Wood Elemental": {
            "name": "Élémentaire de bois",
            "description": "<p>Votre compgnon est un élémentaire de bois, tel qu'un paresseux de mousse.</p>\n<p><strong>Accès</strong> Vous êtes un membre de l'ordre de la feuille.</p>\n<p><strong>Taille</strong> Petite</p>\n<p><strong>Corps-à-corps</strong> <span class=\"action-glyph\">1</span> branche <strong>Dégâts</strong> 1d8 contondant</p>\n<p><strong>For</strong> +2, <strong>Dex</strong> +1, <strong>Con</strong> +2, <strong>Int</strong> –4, <strong>Sag</strong> +1, <strong>Cha</strong> +0</p>\n<p><strong>Points de vie</strong> 8</p>\n<p><strong>Skill</strong> Survival</p>\n<p><strong>Sens</strong> vision dans le noir</p>\n<p><strong>Vitesse</strong> 7,5 mètres, Escalader 7,5 mètres</p>\n<p><strong>Avantage de soutien</strong> Votre élémentaire de bois enchevêtre vos ennemis avec des branches et des racines détachables. Jusqu'au début de votre prochain tour, si vous touchez avec une Frappe qui inflige des dégâts à une créature dans l'allonge de votre élémentaire de bois, la créature subit une pénalité de circonstances de -1,5 mètre à ses Vitesses pendant 1 minute (–10 sur un coup critique). La créature ou une créature qui lui est adjacente, peut utiliser une action Interagir pour démêler les branches et les racines et supprimer la sanction.</p>\n<p><strong>Manœuvre avancée</strong> @UUID[Compendium.pf2e-animal-companions.AC-Advanced-Maneuvers.Item.gvOo0KSSHkqfW3j5]{Branches accrocheuses}</p>"
        },
        "Oozeform Chair": {
            "name": "Fauteuil de forme de vase",
            "description": "<p>Votre compagnon est une vase alchimique qui étend ses pseudopodes pour se déplacer alentour.</p>\n<p><strong>Taille</strong> Moyenne ou Grande</p>\n<p><strong>Corps-à-corps</strong> <span class=\"action-glyph\">1</span> pseudopode (agile), <strong>Dégâts</strong> 1d6 contondant</p>\n<p><strong>For</strong> +3, <strong>Dex</strong> +2, <strong>Con</strong> +3, <strong>Int</strong> –4, <strong>Sag</strong> +0, <strong>Cha</strong> +0</p>\n<p><strong>Points de vie</strong> 6</p>\n<p><strong>Compétence</strong> Athlétisme</p>\n<p><strong>Sens</strong> Sens du déplacement Votre fauteuil de forme de vase peut sentir des créatures proches à travers les vibrations de l'air. C'est un sens imprécis avec une portée de 9 mètres.</p>\n<p><strong>Vitesse</strong> 6 mètres</p>\n<p><strong>Spécial</strong> monture</p>\n<p><strong>Avantage de soutien</strong> Un pseudopode s'étend de votre fauteuil, en récupérant un objet laissé non tenu dans un rayon de 4,5 mètres. Si vous n'avez pas une main libre pour recevoir l'objet, le fauteuil le dépose dans votre espace.</p>\n<p><strong>Manœuvre avancée</strong> @Compendium[pf2e-animal-companions.AC-Advanced-Maneuvers.gzefJocgdWbXWWPi]{Étendre un pseudopode}</p>"
        },
        "Ulgrem-Lurann": {
            "name": "Ulgrem-Lurann",
            "description": "<p>Votre compagnon est l'un des rares membres survivants d'une espèce autrefois éteinte, issu de la dernière ponte de Ulgrem-Axaan. Comme il est très jeune, son intelligence ne s'est pas encore développée, mais un jour, il deviendra une créature hautement intelligente. Un Ulgrem-Lurann a le trait bête au lieu du trait animal mais fonctionne autrement de la même manière qu'un compagnon animal.</p>\n<p><strong>Taille</strong> Medium</p>\n<p><strong>Corps-à-corps</strong> <span class=\"action-glyph\">1</span> mâchoires, <strong>Dégâts</strong> 1d8 perforants</p>\n<p><strong>Corps-à-corps</strong> <span class=\"action-glyph\">1</span> queue, <strong>Dégâts</strong> 1d6 contondants</p>\n<p><strong>For</strong> +3, <strong>Dex</strong> +2, <strong>Con</strong> +2, <strong>Int</strong> -4, <strong>Sag</strong> 0, <strong>Cha</strong> +1</p>\n<p><strong>Points de Vie</strong> 6</p>\n<p><strong>Compétence</strong> Intimidation</p>\n<p><strong>Sens</strong> vision dans le noir</p>\n<p><strong>Vitesse</strong> 6 m, natation 7,5 m</p>\n<p><strong>Spécial</strong> L'Ulgrem-Lurann possède le trait amphibie.</p>\n<p><strong>Avantage de soutien</strong> L'Ulgrem-Lurann saisit votre ennemi et l'électrocute. Jusqu'au début de votre prochain tour, chaque fois que vous touchez une créature dans l'allonge de l'Ulgrem-Lurann avec une Frappe, celle-ci subit @Damage[1d4[piercing]]]{1d4 dégâts perforants} et @Damage[1d4[electricity]]{1d4 dégâts d'électricité} supplémentaires de la part de l'Ulgrem-Lurann. Si l'Ulgrem-Lurann est agile ou sauvage, les dégâts perforants et d'électricité passent chacun à 2d4.</p>\n<p><strong>Manœuvre avancée</strong> @Compendium[pf2e-animal-companions.AC-Advanced-Maneuvers.Upr7u0KhPAIMOqXv]{Arracher et électrocuter}</p>"
        },
        "Rhinoceros": {
            "name": "Rhinocéros",
            "description": "<p>Votre compagnon est un rhinocéros ou un rhinocéros laineux.</p>\n<p><strong>Taille</strong> Grande</p>\n<p><strong>Corps-à-corps</strong> <span class=\"action-glyph\">1</span> corne, <strong>Dégâts</strong> 1d8 perforants</p>\n<p><strong>For</strong> +3, <strong>Dex</strong> +1, <strong>Con</strong> +3, <strong>Int</strong> -4, <strong>Sag</strong> +1, <strong>Cha</strong> +0</p>\n<p><strong>Points de vie</strong> 8</p>\n<p><strong>Compétence</strong> Survie</p>\n<p><strong>Sens</strong> odorat 9 m (imprécis)</p>\n<p><strong>Vitesse</strong> 9 m</p>\n<p><strong>Spécial</strong> monture</p>\n<p><strong>Avantage de soutien</strong> Votre rhinocéros balance sa lourde tête pour déséquilibrer votre ennemi. La première créature dans l'allonge de votre rhinocéros que vous touchez et à laquelle vous infligez des dégâts avant le début de votre prochain tour devient @UUID[Compendium.pf2e.conditionitems.Item.i3OJZU2nk64Df3xm]{Maladroite 1} jusqu'à la fin de votre prochain tour.</p>\n<p><strong>Manœuvre avancée</strong> @Compendium[pf2e-animal-companions.AC-Advanced-Maneuvers.JMHoCFb886K6dT1n]{Charge du rhinocéros}</p>"
        },
        "Snake": {
            "name": "Serpent",
            "description": "<p>Votre compagnon est un serpent constricteur, tel qu'un boa ou un python.</p>\n<p><strong>Taille</strong> Petite</p>\n<p><strong>Corps-à-corps</strong> <span class=\"action-glyph\">1</span> mâchoires (finesse), <strong>Dégâts</strong> 1d8 perforants</p>\n<p><strong>For</strong> +3, <strong>Dex</strong> +3, <strong>Con</strong> +1, <strong>Int</strong> -4, <strong>Sag</strong> +1, <strong>Cha</strong> +0</p>\n<p><strong>Points de Vie</strong> 6</p>\n<p><strong>Compétence</strong> Discrétion</p>\n<p><strong>Sens</strong> vision nocturne, odorat 9 m (imprécis)</p>\n<p><strong>Vitesse</strong> 6 m, escalader 6 m, nager 6 m</p>\n<p><strong>Avantage de soutien</strong> Votre serpent retient vos ennemis avec ses anneaux, interférant avec les réactions. Jusqu'au début de votre prochain tour, toute créature que votre serpent menace ne peut utiliser les réactions déclenchées par vos actions, sauf si son niveau est supérieur au vôtre.</p>\n<p><strong>Manœuvre avancée</strong> @Compendium[pf2e-animal-companions.AC-Advanced-Maneuvers.kKW68gi1FNJlNSOp]{Constriction}</p>"
        },
        "Ape": {
            "name": "Singe",
            "description": "<p>Votre compagnon est un singe ou un autre primate.</p>\n<p><strong>Taille</strong> Petite</p>\n<p><strong>Corps-à-corps</strong> <span class=\"action-glyph\">1</span> poing, <strong>Dégâts</strong> 1d8 contondants</p>\n<p><strong>For</strong> +3, <strong>Dex</strong> +1, <strong>Con</strong> +2, <strong>Int</strong> -4, <strong>Sag</strong> +2, <strong>Cha</strong> +0</p>\n<p><strong>Points de Vie</strong> 8</p>\n<p><strong>Compétence</strong> Intimidation</p>\n<p><strong>Sens</strong> vision nocturne</p>\n<p><strong>Vitesse</strong> 7,5 m, escalade 7,5 m</p>\n<p><strong>Avantage de soutien</strong> Votre singe menace vos ennemis avec des grognements menaçants. Jusqu'au début de votre prochain tour, si vous touchez et infligez des dégâts à une créature dans l'allonge de votre singe, celle-ci devient @UUID[Compendium.pf2e.conditionitems.Item.TBSHQspnbcqxsmjL]{Effrayée 1}.</p>\n<p><strong>Manœuvre avancée</strong> @Compendium[pf2e-animal-companions.AC-Advanced-Maneuvers.0WtqP7Wei3AxHh5M]{Démonstration effrayante}</p>"
        },
        "Vampiric Animal": {
            "name": "Animal vampirique",
            "description": "<p>Votre compagnon est un loup, une belette, un renard ou un autre prédateur doté de crocs et assoiffé de sang comme un vampire. Ils servent souvent les vampires qui partagent volontiers leur sang pour lier l'animal à leurs caprices vampiriques.</p>\n<p><strong>Taille</strong> Petite ou Moyenne</p>\n<p><strong>Corps-à-corps</strong> <span class=\"action-glyph\">1</span> mâchoires (finesse), <strong>Dégâts</strong> 1d8 perforants</p>\n<p><strong>For</strong> +2, <strong>Dex</strong> +2, <strong>Con</strong> +1, <strong>Int</strong> -4, <strong>Sag</strong> +1, <strong>Cha</strong> +0</p>\n<p><strong>Points de vie</strong> 4</p>\n<p><strong>Compétence</strong> Survival</p>\n<p><strong>Sens</strong> vision nocturne, odorat (imprécis 9 m)</p>\n<p><strong>Vitesse</strong> 9 m</p>\n<p><strong>Spécial</strong> Les compagnons animaux vampiriques sont particulièrement sensibles à l'odeur du sang. Si une créature subit des dégâts de saignement, votre compagnon animal vampirique peut sentir la créature si elle se trouve dans un rayon de 36 m au lieu de 9 m.</p>\n<p><strong>Avantage de soutien</strong> Lorsque votre animal vampirique sent le sang, il déchire vos ennemis. Jusqu'au début de votre prochain tour, les coups qui blessent une créature à la portée de votre animal vampirique infligent également @Damage[1d6[bleed]]{1d6 dégâts de saignement}. Si votre animal vampirique est agile ou sauvage, les dégâts de saignement passent à @Damage[2d6[bleed]]{2d6}.</p>\n<p><strong>Manœuvre avancée</strong> @Compendium[pf2e-animal-companions.AC-Advanced-Maneuvers.cVrW2GGLVpydj8h5]{Festin sanglant}</p>"
        },
        "Terror Bird": {
            "name": "Oiseau de terreur",
            "description": "<p>Votre compagnon est un oiseau de terreur, une importante espèce de carnivores aviaires qui ne volent pas.</p>\n<p><strong>Taille</strong> Grande</p>\n<p><strong>Corps-à-corps</strong> <span class=\"action-glyph\">1</span> bec <strong>Dégâts</strong> 1d8 perforant</p>\n<p><strong>Corps-à-corps</strong> <span class=\"action-glyph\">1</span> serre (agile) <strong>Dégâts</strong> 1d6 perforants</p>\n<p><strong>For</strong> +3, <strong>Dex</strong> +2, <strong>Con</strong> +2, <strong>Int</strong> -4, <strong>Sag</strong> +1, <strong>Cha</strong> +0</p>\n<p><strong>Points de Vie</strong> 8</p>\n<p><strong>Compétence</strong> Survie</p>\n<p><strong>Sens</strong> vision nocturne</p>\n<p><strong>Vitesse</strong> 12 m</p>\n<p><strong>Spécial</strong> monture</p>\n<p><strong>Avantage de soutien</strong> Votre oiseau de terreur hurle sur vos ennemis lorsque vous créez une ouverture. Jusqu'au début de votre prochain tour, vos Frappes qui infligent des dégâts à une créature dans l'allonge de votre oiseau de terreur rendent la cible @UUID[Compendium.pf2e.conditionitems.Item.AJh5ex99aV6VTggg]{Prise au dépourvu} jusqu'au début de votre prochain tour.</p>\n<p><strong>Manœuvre avancée</strong> @Compendium[pf2e-animal-companions.AC-Advanced-Maneuvers.TCEQtO5DawzVAIyT]{Serrage déchirant}</p>"
        },
        "Tyrannosaurus": {
            "name": "Tyrannosaure",
            "description": "<p>Votre compagnon est un tyrannosaure, un allosaure ou un dinosaure carnivore de grande taille.</p>\n<p><strong>Taille</strong> Grande</p>\n<p><strong>Corps-à-corps</strong> <span class=\"action-glyph\">1</span> mâchoires, <strong>Dégâts</strong> 1d8 perforants</p>\n<p><strong>Corps-à-corps</strong> <span class=\"action-glyph\">1</span> pied, <strong>Dégâts</strong> 1d6 contondants</p>\n<p><strong>For</strong> +3, <strong>Dex</strong> +1, <strong>Con</strong> +3, <strong>Int</strong> -4, <strong>Sag</strong> +1, <strong>Cha</strong> +0</p>\n<p><strong>Points de vie</strong> 8</p>\n<p><strong>Compétence</strong> Intimidation</p>\n<p><strong>Sens</strong> vision nocturne, odorat 9m (imprécis)</p>\n<p><strong>Vitesse</strong> 10,5 m</p>\n<p><strong>Avantage de soutien</strong> Votre tyrannosaure rugit et fait une démonstration effrayante lorsque vous attaquez, faisant sursauter vos ennemis. Jusqu'au début de votre prochain tour, si vous touchez et infligez des dégâts à une créature qui se trouve à dans l'allonge de votre tyrannosaure, cette dernière est @UUID[Compendium.pf2e.conditionitems.Item.TBSHQspnbcqxsmjL]{Effrayée 1}.</p>\n<p><strong>Manœuvre avancée</strong> @Compendium[pf2e-animal-companions.AC-Advanced-Maneuvers.yXw82Zd5nkcCUfRQ]{Mâchoires refermées}</p>"
        },
        "Cat": {
            "name": "Félin",
            "description": "<p>Votre compagnon est un gros félin, tel qu'un léopard ou un tigre.</p>\n<p><strong>Taille</strong> Petite</p>\n<p><strong>Corps-à-corps</strong> <span class=\"action-glyph\">1</span> mâchoires (finesse), <strong>Dégâts</strong> 1d6 perforants</p>\n<p><strong>Corps-à-corps</strong> <span class=\"action-glyph\">1</span> griffe (agile, finesse), <strong>Dégâts</strong> 1d4 tranchants</p>\n<p><strong>For</strong> +2, <strong>Dex</strong> +3, <strong>Con</strong> +1, <strong>Int</strong> -4, <strong>Sag</strong> +2, <strong>Cha</strong> +0</p>\n<p><strong>Points de Vie</strong> 4</p>\n<p><strong>Compétence</strong> Discrétion</p>\n<p><strong>Sens</strong> vision nocturne, odorat 9 m (imprécis)</p>\n<p><strong>Vitesse</strong> 10,5 m</p>\n<p><strong>Spécial</strong> Votre félin inflige 1d4 dégâts de précision supplémentaires contre les cibles Prises au dépourvu.</p>\n<p><strong>Avantage de soutien</strong> Votre félin déséquilibre vos ennemis lorsque vous créez une ouverture. Jusqu'au début de votre prochain tour, vos Frappes qui infligent des dégâts à une créature que votre félin menace rendent la cible @UUID[Compendium.pf2e.conditionitems.Item.AJh5ex99aV6VTggg]{Prises au dépourvu} jusqu'à la fin de votre prochain tour.</p>\n<p><strong>Manœuvre avancée</strong> @Compendium[pf2e-animal-companions.AC-Advanced-Maneuvers.U0J8J5ukmqnOskE8]{Bond du félin}</p>"
        },
        "Zombie Carrion Bird": {
            "name": "Oiseau charognard zombie",
            "description": "<p>Votre compagnon est le cadavre sombifié d'un grand oiseau charognard, tel qu'un vautour ou un corbeau qui subsiste en se nourrissant de viande.</p>\n<p><strong>Taille</strong> Petite</p>\n<p><strong>Corps-à-corps</strong> <span class=\"action-glyph\">1</span> mâchoires, <strong>Dégâts</strong> 1d8 perforants</p>\n<p><strong>For</strong> +2, <strong>Dex</strong> +1, <strong>Con</strong> +3, <strong>Int</strong> -5, <strong>Sag</strong> +0, <strong>Cha</strong> +0</p>\n<p><strong>Points de vie</strong> 6</p>\n<p><strong>Compétence</strong> aucune (dénué d'intelligence)</p>\n<p><strong>Sens</strong> vision dans le noir</p>\n<p><strong>Vitesse</strong> 3 m, vol 9 m</p>\n<p><strong>Spécial</strong> dénué d'intelligence</p>\n<p><strong>Avantage de soutien</strong> Le zombie émet une aura de pourriture, faisant suppurer les blessures. Jusqu'au début de votre prochain tour, chaque fois que vous touchez et infligez des dégâts à une créature qui se trouve dans un rayon de 3 mètres de l'oiseau charognard zombie, la créature subit 1d6 dégâts supplémentaires tandis que la blessure s'infecte. Si votre charognard est agile ou sauvage, les dégâts passent à [[/r 2d6]]{2d6}. Il s'agit d'un effet de maladie et de nécromancie.</p>\n<p><strong>Manœuvre avancée</strong> @Compendium[pf2e-animal-companions.AC-Advanced-Maneuvers.9o7NwxGqohpa9M7r]{Piquer la viande}</p>"
        },
        "Rootball Chair": {
            "name": "Fauteuil motte de racines",
            "description": "<p>Votre compagnon est une sphère tressée de racines de plante qui roule sur le sol, alors que vous êtes assis sur un siège stabilité au dessus.</p>\n<p><strong>Taille</strong> Moyenne ou Grande</p>\n<p><strong>Corps-à-corps</strong> <span class=\"action-glyph\">1</span> liane (allonge 3 mètres), <strong>Dégâts</strong> 1d8 tranchants</p>\n<p><strong>For</strong> +2, <strong>Dex</strong> +2, <strong>Con</strong> +3, <strong>Int</strong> –4, <strong>Sag</strong> +1, <strong>Cha</strong> +0</p>\n<p><strong>Points de vie</strong> 8</p>\n<p><strong>Compétence</strong> Discrétion</p>\n<p><strong>Sens</strong> vision nocturne</p>\n<p><strong>Vitesse</strong> 9 mètres</p>\n<p><strong>Spécial</strong> monture</p>\n<p><strong>Avantage de soutien</strong> Votre Fauteuil motte de racines se déplace lentement sur la plupart des terrains, grâce à ses nombreuses lianes. Votre Fauteuil motte de racines ignore le terrain difficile.</p>\n<p><strong>Manœuvre avancée</strong> @Compendium[pf2e-animal-companions.AC-Advanced-Maneuvers.Xd4dnyHWexQRVyXn]{Éclosion printanière}</p>"
        },
        "Camel": {
            "name": "Chameau",
            "description": "<p>Votre compagnon est un chameau ou un lama.</p>\n<p><strong>Taille</strong> Moyenne ou Grande</p>\n<p><strong>Corps-à-corps</strong> <span class=\"action-glyph\">1</span> Mâchoires, <strong>Dégâts</strong> 1d6 perforants</p>\n<p><strong>For</strong> +3, <strong>Dex</strong> +2, <strong>Con</strong> +2, <strong>Int</strong> -4, <strong>Sag</strong> +1, <strong>Cha</strong> +0</p>\n<p><strong>Points de vie</strong> 8</p>\n<p><strong>Compétences</strong> Survie</p>\n<p><strong>Sens</strong> vision nocturne, odorat 9 m (imprécis)</p>\n<p><strong>Vitesse</strong> 10,5 m</p>\n<p><strong>Spécial</strong> monture ; votre chameau ignore les effets dommageables de la chaleur ou du froid modéré, sévère ou extrême, élément choisi lorsque vous obtenez le compagnon</p>\n<p><strong>Avantage de soutien</strong> Le chameau porte une attaque à distance de crachat d'un long filet de salive sur un ennemi à 3 m. S'il touche, l'ennemi est @UUID[Compendium.pf2e.conditionitems.Item.TkIyaNPgTZFBCCuh]{Ébloui} pendant 1 round.</p>\n<p><strong>Manœuvre avancée</strong> @Compendium[pf2e-animal-companions.AC-Advanced-Maneuvers.PAXJgysWqv3T0tTD]{Marche sur le sable}</p>"
        },
        "Scorpion": {
            "name": "Scorpion",
            "description": "<p>Votre compagnon est une des diverses espèces de scorpion géant.</p>\n<p><strong>Taille</strong> Petite</p>\n<p><strong>Corps-à-corps</strong> <span class=\"action-glyph\">1</span> dard, <strong>Dégâts</strong> 1d6 perforants plus poison (voir Spécial)</p>\n<p><strong>Corps-à-corps</strong> <span class=\"action-glyph\">1</span> pince (agile), <strong>Dégâts</strong> 1d6 tranchants</p>\n<p><strong>For</strong> +3, <strong>Dex</strong> +3, <strong>Con</strong> +1, <strong>Int</strong> -4, <strong>Sag</strong> +1, <strong>Cha</strong> +0</p>\n<p><strong>Points de Vie</strong> 6</p>\n<p><strong>Compétence</strong> Discrétion</p>\n<p><strong>Sens</strong> vision dans le noir</p>\n<p><strong>Vitesse</strong> 9 m</p>\n<p><strong>Spécial</strong> L'attaque de dard du scorpion inflige @Damage[1d4[poison]]{1d4 dégâts de poison} supplémentaires ou @Damage[2d4[poison]]{2d4 dégâts de poison} si le scorpion est un compagnon spécialisé.</p>\n<p><strong>Avantage de soutien</strong> Votre scorpion fait couler du poison de son dard lorsque vous créez une ouverture. Jusqu'au début de votre prochain tour, vos Frappes qui blessent une créature dans l'allonge de votre scorpion infligent également @Damage[1d6[persistent,poison]]{1d6}{1d6 dégâts persistants de poison}. Si votre scorpion est agile ou sauvage, les dégâts de poison persistants passent à @Damage[2d6[persistent,poison]]{2d6}.</p>\n<p><strong>Manœuvre avancée</strong> @Compendium[pf2e-animal-companions.AC-Advanced-Maneuvers.7H8wqKtsAaSgyLyp]{Saisir et piquer}</p>",
            "rules": {
                "8": {
                    "label": "Dard"
                },
                "9": {
                    "label": "Pince"
                }
            }
        },
        "Pangolin": {
            "name": "Pangolin",
            "description": "<p>Votre compagnon est un pangolin particulièrement grand, tel qu'un ugvashi du Vudra.</p>\n<p><strong>Taille</strong> Moyenne</p>\n<p><strong>Corps-à-corps</strong> <span class=\"action-glyph\">1</span> corps, <strong>Dégâts</strong> 1d8 contondants</p>\n<p><strong>Corps-à-corps</strong> <span class=\"action-glyph\">1</span> griffe (agile), <strong>Dégâts</strong> 1d6 tranchants</p>\n<p><strong>For</strong> +3, <strong>Dex</strong> +2, <strong>Con</strong> +2, <strong>Int</strong> -4, <strong>Sag</strong> +1, <strong>Cha</strong> +0</p>\n<p><strong>Points de Vie</strong> 8</p>\n<p><strong>Compétence</strong> Survie</p>\n<p><strong>Sens</strong> vision nocturne</p>\n<p><strong>Vitesse</strong> 7,5 m</p>\n<p><strong>Avantage de soutien</strong> Votre pangolin déchire vos ennemis avec ses plaques dentelées. Jusqu'au début de votre prochain tour, les Frappes qui blessent une créature dans l'allonge de votre pangolin infligent ausi @Damage[1d6[bleed]]{1d6 dégâts de saignement}. Si votre pangolin est agile ou sauvage, les dégâts de saignement passent à @Damage[2d6[bleed]]{2d6}.</p>\n<p><strong>Manœuvre avancée</strong> @Compendium[pf2e-animal-companions.AC-Advanced-Maneuvers.pMPtswKNokDNyYR2]{Posture défensive}</p>"
        },
        "Augdunar": {
            "name": "Augdunar",
            "description": "<p>Votre compagnon est un augdunar, une variété puissante de mule privilégiées par les nains de Heaume.</p>\n<p><strong>Taille</strong> Moyenne</p>\n<p><strong>Corps-à-corps</strong> <span class=\"action-glyph\">1</span> sabot, <strong>Dégâts</strong> 1d8 contondant</p>\n<p><strong>For</strong> +3, <strong>Dex</strong> +1, <strong>Con</strong> +3, <strong>Int</strong> –4, <strong>Sag</strong> +1, <strong>Cha</strong> +0</p>\n<p><strong>Points de vie</strong> 10</p>\n<p><strong>Compétence</strong> Athlétisme</p>\n<p><strong>Sens</strong> vision nocturne, odort 9 mètres (imprécis)</p>\n<p><strong>Vitesse</strong> 7,5 m</p>\n<p><strong>Spécial</strong> monture</p>\n<p><strong>Avantage de soutien</strong> L'augdunar se déplace, vous offrant un objet. Vous Interagissez pour tirer une arme ou un objet qui est transporté par l'augdunar.</p>\n<p><strong>Manœuvre avancée</strong> Ruade lestée</p>"
        },
        "Monitor Lizard": {
            "name": "Varan",
            "description": "<p>Votre compagnon est un lézard aux membres trapus et au corps long, presque serpentin.</p>\n<p><strong>Taille</strong> Moyenne</p>\n<p><strong>Corps-à-corps</strong> <span class=\"action-glyph\">1</span> Mâchoires, <strong>Dégâts</strong> 1d8 perforants</p>\n<p><strong>For</strong> +3, <strong>Dex</strong> +2, <strong>Con</strong> +2, <strong>Int</strong> -4, <strong>Sag</strong> +1, <strong>Cha</strong> +0</p>\n<p><strong>Points de Vie</strong> 8</p>\n<p><strong>Compétence</strong> Survie</p>\n<p><strong>Sens</strong> vision nocture, odorat 9 m (imprécis)</p>\n<p><strong>Vitesse</strong> 9 m</p>\n<p><strong>Spécial</strong> monture</p>\n<p><strong>Avantage de soutien</strong> Le varan distrait un adversaire adjacent avec ses mâchoires claquantes et des mouvements rapides. Jusqu'au début de votre prochain tour, si votre Frappe blesse un adversaire, chaque fois que celui-ci tente une action avec le trait manipulation jusqu'à la fin de votre prochain tour, il doit tenter un test nu DD 5. En cas d'échec, l'action est interrompue.</p>\n<p><strong>Manœuvre avancée</strong> @Compendium[pf2e-animal-companions.AC-Advanced-Maneuvers.uR3j6TAJFeOVUHpY]{Embardée ruante}</p>"
        },
        "Gibtas": {
            "name": "Gibtas",
            "description": "<p>Votre compagnon est un gibtas.</p>\n<p><strong>Taille</strong> Petite</p>\n<p><strong>Corps-à-corps</strong> <span class=\"action-glyph\">1</span> mâchoires, <strong>Dégâts</strong> 1d8 perforants</p>\n<p><strong>Corps-à-corps</strong> <span class=\"action-glyph\">1</span> griffe (agile), <strong>Dégâts</strong> 1d6 tranchants</p>\n<p><strong>For</strong> +3, <strong>Dex</strong> +2, <strong>Con</strong> +2, <strong>Int</strong> -4, <strong>Sag</strong> +1, <strong>Cha</strong> +0</p>\n<p><strong>Points de vie</strong> 8</p>\n<p><strong>Compétence</strong> Intimidation</p>\n<p><strong>Sens</strong> vision nocturne, odorat 9m (imprécis)</p>\n<p><strong>Vitesse</strong> 10,5 feet</p>\n<p><strong>Avantage de soutien</strong> Votre gibtas malmène vos ennemis lorsque vous créez une ouverture. Jusqu'au début de votre prochain tour, chaque fois que vous touchez une créature dans l'allonge du gibtas avec une Frappe, la créature subit @Damage[1d8[slashing]]{1d8 dégâts tranchants} du gibtas. Si votre gibtas est agile ou sauvage, les dégâts tranchants passent à 2d8.</p>\n<p><strong>Manœuvre avancée</strong> @Compendium[pf2e-animal-companions.AC-Advanced-Maneuvers.Uv49tQCwUUjaMCj5]{Coup rebondissant}</p>"
        },
        "Skeletal Bird of Prey": {
            "name": "Oiseau de proie squelettique",
            "description": "<p>Votre compagnon est le squelette d'un oiseau de proie comme un faucon ou un hibou.</p>\n<p><strong>Taille</strong> Petite</p>\n<p><strong>Corps-à-corps</strong> <span class=\"action-glyph\">1</span> mâchoires (finesse), <strong>Dégâts</strong> 1d6 perforants</p>\n<p><strong>Corps-à-corps</strong> <span class=\"action-glyph\">1</span> serres (agile, finesse), <strong>Dégâts</strong> 1d4 tranchants</p>\n<p><strong>For</strong> +2, <strong>Dex</strong> +3, <strong>Con</strong> +1, <strong>Int</strong> -5, <strong>Sag</strong> +0, <strong>Cha</strong> +0</p>\n<p><strong>Points de vie</strong> 4</p>\n<p><strong>Compétence</strong> aucune (dénué d'intelligence)</p>\n<p><strong>Sens</strong> vision dans le noir</p>\n<p><strong>Vitesse</strong> 3 m, vol 15 m</p>\n<p><strong>Spécial</strong> dénué d'intelligence</p>\n<p><strong>Avantage de soutien</strong> L'oiseau voltige en tous sens et déséquilibre votre adversaire. Jusqu'au début de votre prochain tour, lorsque vous blessez une créature à portée de l'oiseau avec une Frappe, cette créature devient @UUID[Compendium.pf2e.conditionitems.Item.i3OJZU2nk64Df3xm]{Maladroite 1} jusqu'à la fin de votre prochain tour.</p>\n<p><strong>Manœuvre avancée</strong> @Compendium[pf2e-animal-companions.AC-Advanced-Maneuvers.ow3S5zhS51Nj8tsI]{Cri strident}</p>"
        },
        "Elephant": {
            "name": "Éléphant",
            "description": "<p>Votre compagnon est un éléphant ou un mammouth.</p>\n<p><strong>Taille</strong> Grande</p>\n<p><strong>Corps-à-corps</strong> <span class=\"action-glyph\">1</span> défense, <strong>Dégâts</strong> 1d8 perforants</p>\n<p><strong>Corps-à-corps</strong> <span class=\"action-glyph\">1</span> pied, <strong>Dégâts</strong> 1d6 contondants</p>\n<p><strong>For</strong> +3, <strong>Dex</strong> +1, <strong>Con</strong> +2, <strong>Int</strong> -4, <strong>Sag</strong> +2, <strong>Cha</strong> +0</p>\n<p><strong>Points de vie</strong> 8</p>\n<p><strong>Skill</strong> Intimidation</p>\n<p><strong>Sens</strong> vision nocturne, odorat 9 m (imprécis)</p>\n<p><strong>Vitesse</strong> 10,5 m</p>\n<p><strong>Spécial</strong> monture</p>\n<p><strong>Avantage de soutien</strong> Votre éléphant barit bruyamment et menace votre ennemi. La première créature dans l'allonge de votre éléphant que vous touchez et à qui vous infligez des dégâts avant le début de votre prochain tour a du mal à entendre car ses oreilles bourdonnent à cause du bruit. Elle subit une pénalité de statut de -4 aux tests de Perception purement auditive jusqu'à la fin de votre prochain tour.</p>\n<p><strong>Manœuvre avancée</strong> @Compendium[pf2e-animal-companions.AC-Advanced-Maneuvers.oYEXImMSzg0eDqzR]{Trompe agrippante}</p>",
            "rules": {
                "7": {
                    "label": "Défense"
                }
            }
        },
        "Cave Gecko": {
            "name": "Gecko des cavernes",
            "description": "<p>Votre compagnon est un lézard à pattes collantes comme un gecko ou un anoli.</p>\n<p><strong>Taille</strong> Petite</p>\n<p><strong>Corps-à-corps</strong> <span class=\"action-glyph\">1</span> mâchoires (finesse), <strong>Dégâts</strong> 1d6 perforants</p>\n<p><strong>For</strong> +2, <strong>Dex</strong> +3, <strong>Con</strong> +1, <strong>Int</strong> -4, <strong>Sag</strong> +2, <strong>Cha</strong> +0</p>\n<p><strong>Points de Vie</strong> 6</p>\n<p><strong>Compétence</strong> Discrétion</p>\n<p><strong>Sens</strong> vision nocturne, odorat 9 m (imprécis)</p>\n<p><strong>Vitesse</strong> 7,5 m, escalade 7,5 m</p>\n<p><strong>Avantage de soutien</strong> Votre gecko des cavernes vous aide à rester sur pied, s'appuyant sur vous et vous soutenant lorsque vous manœuvrez votre adversaire. Jusqu'à la fin de votre prochain tour, tant que vous êtes adjacent à votre gecko des cavernes, si vous tentez de désarmer, poussez ou faites un Croc-en-jambe à un adversaire et que vous obtenez un échec critique, vous obtenez un échec à la place.</p>\n<p><strong>Manœuvre avancée</strong> @Compendium[pf2e-animal-companions.AC-Advanced-Maneuvers.q0Vh2V6KlzdMi1Pv]{Traction de la langue}</p>"
        },
        "Metal Elemental": {
            "name": "Élémentaire de métal",
            "description": "<p>Votre compagnon est un élémentaire de métal, comme un mercurial.</p>\n<p>Accès</p> Les élémentaires de métal n'ont pas de condition d'accès particulière car les druides n'ont pas d'ordre dédié à la magie élémentaire du métal.</p>\n<p><strong>Taille</strong> Petite</p>\n<p><strong>Corps-à-corps</strong> <span class=\"action-glyph\">1</span> pique, <strong>Dégâts</strong> 1d8 perforants</p>\n<p><strong>For</strong> +2, <strong>Dex</strong> +1, <strong>Con</strong> +2, <strong>Int</strong> –4, <strong>Sag</strong> +1, <strong>Cha</strong> +0</p>\n<p><strong>Points de vie</strong> 8</p>\n<p><strong>Compétence</strong> Intimidation</p>\n<p><strong>Sens</strong> vision dans le noir</p>\n<p><strong>Vitesse</strong> 7,5 mètres</p>\n<p><strong>Avantage de soutien</strong> Votre élémentaire de métal perfore un ennemi avec des piques de métal qui provoquent un saignement. Jusqu'au début de votre prochain tour, vos Frappes qui blessent une créature dans l'allonge de votre élémentaire de métal infligent aussi @Damage[1d6[bleed]]{1d6 dégâts de saignement}. Si votre élémentaire de métal est agile ou sauvage, les dégâts de saignement passent à @Damage[2d6[bleed]]{2d6 dégâts de saignement}.</p>\n<p><strong>Manœuvre avancée</strong> @UUID[Compendium.pf2e-animal-companions.AC-Advanced-Maneuvers.Item.oyNZpuQ6EU3prvo2]{Bunker pointu}</p>",
            "rules": {
                "6": {
                    "label": "Pique"
                }
            }
        },
        "Goat": {
            "name": "Chèvre",
            "description": "<p>Votre compagnon est une race de chèvre de montagne peuplant les montagnes des Cinq Rois.</p>\n<p><strong>Taille</strong> Moyenne</p>\n<p><strong>Corps-à-corps</strong> <span class=\"action-glyph\">1</span> coup de tête (pousser), <strong>Dégâts</strong> 1d8 contondant</p>\n<p><strong>For</strong> +3, <strong>Dex</strong> +2, <strong>Con</strong> +2, <strong>Int</strong> –4, <strong>Sag</strong> +1, <strong>Cha</strong> +0</p>\n<p><strong>Points de vie</strong> 8</p>\n<p><strong>Compétence</strong> Acrobaties</p>\n<p><strong>Sens</strong> odort 9 mètres (imprécis)</p>\n<p><strong>Vitesse</strong> 10,5 m, Escalade 4,5 m</p>\n<p><strong>Spécial</strong> monture</p>\n<p><strong>Avantage de soutien</strong> Votre chèvre vous propulse le long d'un mur, vous permettant d'atteindre de plus grandes hauteurs. Vous grimpez le long d'une surface comme si vous aviez obtenu un succès sur une action d'@Compendium[pf2e.actionspf2e.pprgrYQ1QnIDGZiy]{Escalader}.</p>\n<p><strong>Manœuvre avancé</strong> Pousser de côté</p>",
            "rules": {
                "7": {
                    "label": "Coup de tête"
                }
            }
        },
        "Bear": {
            "name": "Ours",
            "description": "<p>Votre compagnon est un ours noir, un grizzli, un ours polaire ou un autre type d'ours.</p>\n<p><strong>Taille</strong> Petite</p>\n<p><strong>Corps-à-corps</strong> <span class=\"action-glyph\">1</span> mâchoires, <strong>Dégâts</strong> 1d8 perforants</p>\n<p><strong>Corps-à-corps</strong> <span class=\"action-glyph\">1</span> griffe (agile), <strong>Dégâts</strong> 1d6 tranchants</p>\n<p><strong>For</strong> +3, <strong>Dex</strong> +2, <strong>Con</strong> +2, <strong>Int</strong> -4, <strong>Sag</strong> +1, <strong>Cha</strong> +0</p>\n<p><strong>Points de Vie</strong> 8</p>\n<p><strong>Compétence</strong> Intimidation</p>\n<p><strong>Sens</strong> vision nocturne, odorat 9 m (imprécis)</p>\n<p><strong>Vitesse</strong> 10,5 m</p>\n<p><strong>Avantage de soutien</strong> Votre ours malmène vos ennemis lorsque vous créez une ouverture. Jusqu'au début de votre prochain tour, chaque fois que vous touchez une créature à portée de l'ours avec une Frappe, la créature subit @Damage[1d8[slashing]]{1d8 dégâts tranchants} de la part de l'ours. Si votre ours est agile ou sauvage, les dégâts tranchants passent à @Damage[2d8[slashing]]{2d8}.</p>\n<p><strong>Manœuvre avancée</strong> @Compendium[pf2e-animal-companions.AC-Advanced-Maneuvers.oCgdnQP5bMDD02YC]{Étreinte de l'ours}</p>"
        },
        "Cave Pterosaur": {
            "name": "Ptérosaure des cavernes",
            "description": "<p>Votre compagnon est une créature préhistorique volante, tel qu'un dimorphodon ou un ptérodactyle, qui s'est adapté à la vie dans les cavernes sous le sol.</p>\n<p><strong>Taille</strong> Petite</p>\n<p><strong>Corps-à-corps</strong> 1 bec (finesse), <strong>Dégâts</strong> 1d6 perforants</p>\n<p><strong>Corps-à-corps</strong> <span class=\"action-glyph\">1</span> serre (agile, finesse), <strong>Dégâts</strong> 1d4 tranchants</p>\n<p><strong>For</strong> +2, <strong>Dex</strong> +3, <strong>Con</strong> +1, <strong>Int</strong> -4, <strong>Sag</strong> +2, <strong>Cha</strong> +0</p>\n<p><strong>Points de Vie</strong> 4</p>\n<p><strong>Compétence</strong> Vol</p>\n<p><strong>Sens</strong> Vision dans le noir</p>\n<p><strong>Vitesse</strong> 3 m, Vol 18 m</p>\n<p><strong>Avantage de soutien</strong> Votre ptérosaure étend ses ailes et crée de la distraction avec ses battements d'aile. Toute créature qui pourrait bénéficier d'un abri partiel de la part du ptérosaure obtient un abri standard à la place.</p>\n<p><strong>Manœuvre avancée</strong> @Compendium[pf2e-animal-companions.AC-Advanced-Maneuvers.7C9iFWBpEOJs4Uo2]{Piqué du ptérosaure}</p>"
        },
        "Vulture": {
            "name": "Vautour",
            "description": "<p>Votre compagnon est un vautour, un condor ou un autre grand oiseau charognard.</p>\n<p><strong>Taille</strong> Petite</p>\n<p><strong>Corps-à-corps</strong> <span class=\"action-glyph\">1</span> bec (finesse), <strong>Dégâts</strong> 1d8 perforants</p>\n<p><strong>For</strong> +2, <strong>Dex</strong> +2, <strong>Con</strong> +2, <strong>Int</strong> -4, <strong>Sag</strong> +2, <strong>Cha</strong> +0</p>\n<p><strong>Points de Vie</strong> 6</p>\n<p><strong>Compétence</strong> Survie</p>\n<p><strong>Sens</strong> vision nocturne, odorat 9 m (imprécis)</p>\n<p><strong>Vitesse</strong> 3 m, vol 13,5 m</p>\n<p><strong>Spécial</strong> Votre vautour obtient un bonus de statut à tous les jets de sauvegarde contre la maladie et s'il obtient un succès sur un jet de sauvegarde contre une maladie, il bénéficie d'un succès critique à la place.</p>\n<p><strong>Avantage de soutien</strong> Le vautour vomit sur un ennemi dans un rayon de 3 mètres. Jusqu'au début de votre prochain tour, si vous touchez et infligez des dégâts à la cible, celle-ci doit réussir un jet de Vigueur ou être @UUID[Compendium.pf2e.conditionitems.Item.fesd1n5eVhpCSS18]{Malade/nauséeuse 1}. (@UUID[Compendium.pf2e.conditionitems.Item.fesd1n5eVhpCSS18]{Malade/nauséeuse 2} sur un échec critique). Le DD du jet de Vigueur est de 12 (ou 14 si le vautour est un compagnon animal spécialisé) + votre niveau + le modificateur de Constitution du vautour.</p>\n<p><strong>Manœuvre avancée</strong> @Compendium[pf2e-animal-companions.AC-Advanced-Maneuvers.g4JEtCnKXyY4LJpm]{Festin sur le déchu}</p>",
            "rules": {
                "9": {
                    "text": "<p class='compact-text'><strong>Vautour</strong> Lorsque votre vautour obtient un succès sur un jet de sauvegarde contre une maladie, il bénéficie d'un succès critique à la place.</p>"
                }
            }
        },
        "Skeletal Constrictor": {
            "name": "Serpent constricteur squelettique",
            "description": "<p>Votre compagnon est le squelette d'un serpent constricteur tel qu'un boa ou un python. Des lumières rouges brillent dans les profondeurs des orbites de ses yeux.</p>\n<p><strong>Taille</strong> Petite</p>\n<p><strong>Corps-à-corps</strong> <span class=\"action-glyph\">1</span> mâchoires (finesse), <strong>Dégâts</strong> 1d8 perforant</p>\n<p><strong>For</strong> +2, <strong>Dex</strong> +2, <strong>Con</strong> +1, <strong>Int</strong> -5, <strong>Sag</strong> +1, <strong>Cha</strong> +0</p>\n<p><strong>Points de vie</strong> 4</p>\n<p><strong>Compétences</strong> aucune (dénué d'intelligence)</p>\n<p><strong>Sens</strong> vision dans le noir</p>\n<p><strong>Vitesse</strong> 6 m, escalade 6 m, nage 6 m</p>\n<p><strong>Spécial</strong> dénué d'intelligence</p>\n<p><strong>Avantage de soutien</strong> Votre serpent se balance, envoûtant un ennemi. Choisissez une créature dans un rayon de 6 mètres du serpent constricteur qui peut le voir. Jusqu'au début de votre prochain tour, vos Frappes qui infligent des dégâts à la créature choisie rendent la cible @UUID[Compendium.pf2e.conditionitems.Item.AJh5ex99aV6VTggg]{Prise au dépourvu} jusqu'à la fin de votre prochain tour.</p>\n<p><strong>Manœuvre avancée</strong> @Compendium[pf2e-animal-companions.AC-Advanced-Maneuvers.AH3kNbdGLYaRjVAr]{Constriction osseuse}</p>"
        },
        "Zombie Mount": {
            "name": "Monture zombie",
            "description": "<p>Votre compagnon est le cadavre ranimé et pourrissant d'un cheval, d'un chameau ou d'un autre animal de monte similaire.</p>\n<p><strong>Taille</strong> Grande</p>\n<p><strong>Corps-à-corps</strong> <span class=\"action-glyph\">1</span> sabot, <strong>Dégâts</strong> 1d8 contondant</p>\n<p><strong>For</strong> +2, <strong>Dex</strong> +1, <strong>Con</strong> +3, <strong>Int</strong> -5, <strong>Sag</strong> +0, <strong>Cha</strong> +0</p>\n<p><strong>Points de vie</strong> 8</p>\n<p><strong>Compétence</strong> aucune (voir Spécial)</p>\n<p><strong>Sens</strong> Vision dans le noir</p>\n<p><strong>Vitesse</strong> 9 m</p>\n<p><strong>Spécial</strong> dénué d'intelligence, monture</p>\n<p><strong>Avantage de soutien</strong> Votre monture zombie ronge vos ennemis. Jusqu'au début de votre prochain tour, chaque fois que vous portez un coup en chevauchant la monture zombie et que vous touchez une créature à portée de la monture zombie, celle-ci subit @Damage[1d4[bludgeoning]]{1d4 dégâts contondants} de la part de la monture zombie. Si votre monture zombie est agile ou sauvage, les dégâts contondants passent à 2d4. Cet avantage est basé sur un cheval ou un chameau zombie, mais pourrait infliger des dégâts perforants si votre monture avait des dents pointues.</p>\n<p><strong>Manœuvre avancée</strong> @Compendium[pf2e-animal-companions.AC-Advanced-Maneuvers.h1Rldre8WVjUR5XO]{Galop immonde}</p>"
        },
        "Air Elemental": {
            "name": "Éléméntaire d'air",
            "description": "<p>Votre compagnon est un élémentaire d'air, tel qu'un faucon zépyhr.</p>\n<p><strong>Accès</strong> Vous êtes un membre de l'ordre de la tempête.</p>\n<p><strong>Taille</strong> Petite</p>\n<p><strong>Corps-à-corps</strong> <span class=\"action-glyph\">1</span> rafale (finesse), <strong>Dégât</strong> 1d6 contondant</p>\n<p><strong>For</strong> +1, <strong>Dex</strong> +2, <strong>Con</strong> +1, <strong>Int</strong> -4, <strong>Sag</strong> +1, <strong>Cha</strong> +1</p>\n<p><strong>Points de vie</strong> 4</p>\n<p><strong>Compétence</strong> Discrétion</p>\n<p><strong>Sens</strong> vision dans le noir</p>\n<p><strong>Vitesse</strong> vol 15 m</p>\n<p><strong>Avantage de soutien</strong> Votre élémentaire d'air s'enroule autour de vous avec des rafales dissimulatrices, rendant la tâche de vous toucher plus difficile pour vos adversaires et vous donnant possiblement un moment pour vous cacher. Jusqu'au début de votre prochain tour, si vous touchez avec une Frappe et infligez des dégâts à une créature dans l'allonge de votre élémentaire, vous êtes @UUID[Compendium.pf2e.conditionitems.Item.DmAIPqOBomZ7H95W]{Masqué} par rapport à cette créature jusqu'au début de votre prochain tour.</p>\n<p><strong>Manœuvre avancée</strong> @UUID[Compendium.pf2e-animal-companions.AC-Advanced-Maneuvers.Item.ePNzRvGvBqzIujJr]{Vol circulaire}</p>",
            "rules": {
                "6": {
                    "label": "Rafale"
                }
            }
        },
        "Triceratops": {
            "name": "Tricératops",
            "description": "<p>Votre compagnon est un tricératops ou un autre dinosaure cuirrassé. Si nécessaire, changez l'attaque de corne et le type de dégâts pour une attaque plus appropriée au dinosaure (par exemple, un ankylosaure aurait une attaque de queue qui inflige des dégâts contondants).</p>\n<p><strong>Taille</strong> Grande</p>\n<p><strong>Corps-à-corps</strong> <span class=\"action-glyph\">1</span> corne,<strong> Dégâts</strong> 1d8 perforants</p>\n<p><strong>Corps-à-corps</strong> <span class=\"action-glyph\">1</span> pied,<strong> Dégâts</strong> 1d6 contondants</p>\n<p><strong>For</strong> +3, <strong>Dex</strong> +1, <strong>Con</strong> +2, <strong>Int</strong> -4, <strong>Sag</strong> +2, <strong>Cha</strong> +0</p>\n<p><strong>Points de vie</strong> 8</p>\n<p><strong>Compétence</strong> Intimidation</p>\n<p><strong>Sens</strong> vision nocturne, odorat 9m (imprécis)</p>\n<p><strong>Vitesse</strong> 7,5 m</p>\n<p><strong>Spécial</strong> monture</p>\n<p><strong>Avantage de soutien</strong> Votre tricératops éventre les cibles @UUID[Compendium.pf2e.conditionitems.Item.j91X7x0XSomq8d60]{À terre} dans votre sillage. Jusqu'au début de votre prochain tour, vos frappes qui blessent une créature À terre dans l'allonge de votre tricératops infligent également @Damage[1d8[bleed]]{1d8 dégâts de saignement}. Si votre tricératops est agile ou sauvage, les dégâts de saignement passent à @Damage[2d8[bleed]]{2d8}.</p>\n<p><strong>Manœuvre avancée</strong> @Compendium[pf2e-animal-companions.AC-Advanced-Maneuvers.H1ElYt6KovGYGzLD]{Renversement boutoir}</p>"
        },
        "Arboreal Sapling": {
            "name": "Jeune arboréen",
            "description": "<p>Votre compagnon est un arbre qui marche, un cousin des grands gardiens et régents arboréens. Un jeune arboréen possède le trait plante au lieu du trait animal mais il fonctionne normalement comme un compagnon animal. Ils ne sont généralement choisis que par les druides de l'ordre des animaux qui sont également membres de l'ordre de la feuille.</p>\n<p><strong>Accès</strong> Vous êtes un membre de l'ordre de la feuille.</p>\n<p><strong>taille</strong> Petite</p>\n<p><strong>Corps-à-corps</strong> <span class=\"action-glyph\">1</span> branche, <strong>Dégâts</strong> 1d8 contondants</p>\n<p><strong>For</strong> +3, <strong>Dex</strong> +1, <strong>Con</strong> +2, <strong>Int</strong> -4, <strong>Sag</strong> +2, <strong>Cha</strong> +0</p>\n<p><strong>Points de Vie</strong> 8</p>\n<p><strong>Compétence</strong> Discrétion</p>\n<p><strong>Sens</strong> vision nocturne</p>\n<p><strong>Vitesse</strong> 7,5 m</p>\n<p><strong>Avantage de soutien</strong> Votre jeune arboréen plante des racines autour de votre ennemi, entravant son mouvement. Jusqu'au début de votre prochain tour, si vous touchez et infligez des dégâts à une créature dans l'allonge du jeune arboréen, la première case dans laquelle la créature se déplace après avoir subi ces dégâts est un terrain difficile.</p>\n<p><strong>Manœuvre avancée</strong> @Compendium[pf2e-animal-companions.AC-Advanced-Maneuvers.FKh7ZMNyKxgnV7kI]{Lancer de rocher}</p>"
        },
        "Blood Wolf": {
            "name": "Loup de sang",
            "description": "<p>Votre compagnon est un loup de sang partiellement transformé.</p>\n<p><strong>Taille</strong> Petite</p>\n<p><strong>Corps-à-corps</strong> <span class=\"action-glyph\">1</span> mâchoires (finesse), <strong>Dégâts</strong> 1d8 perforants</p>\n<p><strong>For</strong> +2, <strong>Dex</strong> +3, <strong>Con</strong> +2, <strong>Int</strong> -4, <strong>Sag</strong> +1, <strong>Cha</strong> +0</p>\n<p><strong>Points de Vie</strong> 8</p>\n<p><strong>Compétence</strong> Intimidation</p>\n<p><strong>Sens</strong> vision dans le noir, odorat 9 m (imprécis)</p>\n<p><strong>Vitesse</strong> 12 m</p>\n<p><strong>Avantage de soutien</strong> Votre loup déchire les tendons à chaque ouverture. Jusqu'au début de votre prochain tour, vos Frappent qui blessent les créatures que votre loup menace donnent à la cible une pénalité de statut de -1,5 m à ses Vitesses pendant 1 minute. (-3 msur un succès critique).</p>\n<p><strong>Manœuvre avancé</strong> @Compendium[pf2e-animal-companions.AC-Advanced-Maneuvers.xssFjTXqGlsaddvl]{Renversement}</p>"
        },
        "Fire Elemental": {
            "name": "Élémentaire de feu",
            "description": "<p>Votre compagnon est un élémentaire de feu, tel qu'un rat des braises ou une outre de lave.</p>\n<p><strong>Accès</strong> Vous êtes un membre de l'ordre de la flamme.</p>\n<p><strong>taille</strong> Petite</p>\n<p><strong>Corps-à-corps</strong> <span class=\"action-glyph\">1</span> flamèche (agile, finesse), <strong>Dégâts</strong> 1d6 feu</p>\n<p><strong>For</strong> +2, <strong>Dex</strong> +2, <strong>Con</strong> +1, <strong>Int</strong> –4, <strong>Sag</strong> +1, <strong>Cha</strong> +0</p>\n<p><strong>Points de vie</strong> 4</p>\n<p><strong>Compétence</strong> Intimidation</p>\n<p><strong>Sens</strong> Vision dans le noir</p>\n<p><strong>Vitesse</strong> 7,5 m</p>\n<p><strong>Spécial</strong> Immunité au feu, Faiblesses contre le froid et l'eau (égal au niveau de l'élémentaire de feu)</p>\n<p><strong>Avantage de soutien</strong> Votre élémentaire de feu brûle vos ennemis et les met en feu. Jusqu'au début de votre prochain tour, vos Frappes qui blessent une créature dans l'allonge de votre élémentaire inflige aussi @Damage[1d6[persistent,fire]]{1d6 dégâts de feu persistants}. Si votre élémentaire de feu est agile ou sauvage, les dégâts de feu persistants passent à @Damage[2d6[persistent,fire]]{2d6}.</p>\n<p><strong>Manœuvre avancée</strong> @UUID[Compendium.pf2e-animal-companions.AC-Advanced-Maneuvers.Item.LCilgiiIZp408R3k]{Lance-flammes}</p>",
            "rules": {
                "6": {
                    "label": "Flamèche"
                }
            }
        },
        "Ankylosaurus": {
            "name": "Ankylosaure",
            "description": "<p>Votre compagnon est un ankylosaure ou un autre dinosaure cuirassé.</p>\n<p><strong>Taille</strong> Grande</p>\n<p><strong>Corps-à-corps</strong> <span class=\"action-glyph\">1</span> queue,<strong> Dégâts</strong> 1d8 contondants</p>\n<p><strong>Corps-à-corps</strong> <span class=\"action-glyph\">1</span> pied,<strong> Dégâts</strong> 1d6 contondants</p>\n<p><strong>For</strong> +3, <strong>Dex</strong> +1, <strong>Con</strong> +2, <strong>Int</strong> -4, <strong>Sag</strong> +2, <strong>Cha</strong> +0</p>\n<p><strong>Points de vie</strong> 8</p>\n<p><strong>Compétence</strong> Intimidation</p>\n<p><strong>Sens</strong> vision nocturne, odorat 9m (imprécis)</p>\n<p><strong>Vitesse</strong> 7,5 m</p>\n<p><strong>Spécial</strong> monture</p>\n<p><strong>Avantage de soutien</strong> Votre ankylosaure éventre les cibles @UUID[Compendium.pf2e.conditionitems.Item.Prone]{À terre} dans votre sillage. Jusqu'au début de votre prochain tour, vos frappes qui blessent une créature À terre dans l'allonge de votre ankylosaure infligent également @Damage[1d8[bleed]]{1d8 dégâts de saignement}. Si votre ankylosaure est agile ou sauvage, les dégâts de saignement passent à 2d8.</p>\n<p><strong>Manœuvre avancée</strong> @Compendium[pf2e-animal-companions.AC-Advanced-Maneuvers.H1ElYt6KovGYGzLD]{Renversement boutoir}</p>\n<hr />\n<p><em>Note : Cette version alternative du tricératops est fournie par le module. Elle bénéficie de l'avantage de soutien et de la manœuvre avancée du tricératops</em></p>"
        },
        "Riding Drake": {
            "name": "Drake de monte",
            "description": "<p>Votre compagnon est un drake rapide, incapable de voler et doté d'une intelligence limitée, moins vicieux que la plupart des drakes mais qui vous est farouchement loyal. Un drake de monte possède le trait dragon au lieu du trait animal, mais il fonctionne comme un compagnon animal ordinaire.</p>\n<p><strong>Taille</strong> Grande</p>\n<p><strong>Corps-à-corps</strong> <span class=\"action-glyph\">1</span> mâchoires, <strong>Dégâts</strong> 1d8 perforants</p>\n<p><strong>Corps-à-corps</strong> <span class=\"action-glyph\">1</span> queue, <strong>Dégâts</strong> 1d6 contondants</p>\n<p><strong>For</strong> +2, <strong>Dex</strong> +1, <strong>Con</strong> +2, <strong>Int</strong> -4, <strong>Sag</strong> +1, <strong>Cha</strong> +2</p>\n<p><strong>Points de Vie</strong> 8</p>\n<p><strong>Compétence</strong> Intimidation</p>\n<p><strong>Sens</strong> vision dans le noir</p>\n<p><strong>Vitesse</strong> 13,5 m</p>\n<p><strong>Spécial</strong> monture</p>\n<p><strong>Avantage de soutien</strong> Votre drake crache du feu au visage de vos adversaires. Jusqu'au début de votre prochain tour, chaque fois que vous faites une Frappe alors que vous Montez le drake et que vous touchez une créature dans l'allonge du drake, celle-ci subit @Damage[1d4[fire]]{1d4 dégâts de feu} de la part du drake. Si votre drake est agile ou sauvage, les dégâts de feu passent à @Damage[2d4[fire]]]{2d4}.</p>\n<p><strong>Manœuvre avancée</strong> @Compendium[pf2e-animal-companions.AC-Advanced-Maneuvers.8JdETVTpbZAgtBA3]{Arme de souffle}</p>"
        },
        "Beetle": {
            "name": "Scarabée",
            "description": "<p>Votre compagnon animal est un grand coléoptère sans aile géant.</p>\n<p><strong>Taille</strong> Moyenne ou Grande</p>\n<p><strong>Corps-à-corps</strong> <span class=\"action-glyph\">1</span> mandibule, <strong>Dégâts</strong> 1d8 perforants</p>\n<p><strong>Corps-à-corps</strong> <span class=\"action-glyph\">1</span> pied (agile), <strong>Dégâts</strong> 1d6 contondants</p>\n<p><strong>For</strong> +3, <strong>Dex</strong> +1, <strong>Con</strong> +3, <strong>Int</strong> -4, <strong>Sag</strong> +1, <strong>Cha</strong> +0</p>\n<p><strong>Points de Vie</strong> 8</p>\n<p><strong>Compétence</strong> Survie</p>\n<p><strong>Sens</strong> vision nocturne</p>\n<p><strong>Vitesse</strong> 7,5 m</p>\n<p><strong>Spécial</strong> monture</p>\n<p><strong>Avantage de soutien</strong> Votre scarabée se déplace en trépignant et percute les ennemis, les déséquilibrant ou les repoussant sur le côté lorsque vous créez une ouverture. Jusqu'au début de votre prochain tour, lorsque vous Montez sur votre scarabée, vos Frappes qui infligent des dégâts rendent la cible @UUID[Compendium.pf2e.conditionitems.Item.AJh5ex99aV6VTggg]{Prise au dépourvu} jusqu'à la fin de votre prochain tour ou éloignent la cible à 1,5 m du scarabée (c'est un déplacement forcé). La cible choisit l'effet qui se produit.</p>\n<p><strong>Manœuvre avancée</strong> @Compendium[pf2e-animal-companions.AC-Advanced-Maneuvers.zSlsnbvsGKdCTzL1]{S'empresser}</p>",
            "rules": {
                "6": {
                    "label": "Mandibule"
                }
            }
        },
        "Horse": {
            "name": "Cheval",
            "description": "<p>Votre compagnon est un cheval, un poney ou un équidé similaire.</p>\n<p><strong>Taille</strong> Moyenne ou Grande</p>\n<p><strong>Corps-à-corps</strong> <span class=\"action-glyph\">1</span> sabot (agile), <strong>Dégâts</strong> 1d6 contondants</p>\n<p><strong>For</strong> +3, <strong>Dex</strong> +2, <strong>Con</strong> +2, <strong>Int</strong> -4, <strong>Sag</strong> +1, <strong>Cha</strong> +0</p>\n<p><strong>Points de Vie</strong> 8</p>\n<p><strong>Compétence</strong> Survie</p>\n<p><strong>Sens</strong> vision nocturne, odroat 9 m (imprécis)</p>\n<p><strong>Vitesse</strong> 12 m</p>\n<p><strong>Spécial</strong> monture</p>\n<p><strong>Avantage de soutien</strong> Votre cheval ajoute de l'élan à votre charge. Jusqu'au début de votre prochain tour, si vous vous déplacez d'au moins 3 m lors de l'action avant que vous n'attaquiez, ajoutez un bonus de circonstances aux dégâts à cette attaque égal à deux fois le nombre de dés de dégâts. Si votre arme a déjà le trait d'arme joute, augmentez le bonus aux dégâts de 2 par dé à la place.</p>\n<p><strong>Advanced Maneuver</strong> @Compendium[pf2e-animal-companions.AC-Advanced-Maneuvers.tsOaXTRWQvsKTyaL]{Galop}</p>"
        },
        "Hyena": {
            "name": "Hyène",
            "description": "<p>Votre compagnon est une hyène.</p>\n<p><strong>Taille</strong> Petite</p>\n<p><strong>Corps-à-corps</strong> <span class=\"action-glyph\">1</span> mâchoires (finesse), <strong>Dégâts</strong> 1d8 perforants</p>\n<p><strong>For</strong> +2, <strong>Dex</strong> +3, <strong>Con</strong> +2, <strong>Int</strong> -4, <strong>Sag</strong> +1, <strong>Cha</strong> +0</p>\n<p><strong>Points de Vie</strong> 6</p>\n<p><strong>Compétence</strong> Intimidation</p>\n<p><strong>Sens</strong> vision nocturne, odorat 9 m (imprécis)</p>\n<p><strong>Vitesse</strong> 12 m</p>\n<p><strong>Avantage de soutien</strong> La hyène se moque de vos ennemis en glapissant et les mord lorsque vous créez une ouverture. Jusqu'au début de votre prochain tour, chaque fois que vous touchez une créature à portée de la hyène avec une Frappe, la créature devient @UUID[Compendium.pf2e.conditionitems.Item.TBSHQspnbcqxsmjL]{Effrayée 1}.</p>\n<p><strong>Manœuvre avancée</strong> @Compendium[pf2e-animal-companions.AC-Advanced-Maneuvers.oisXYTTYE0TABboA]{Ronger}</p>"
        },
        "Zombie": {
            "name": "Zombie",
            "description": "<p>Votre compagnon est un zombie dénué d'intelligence créé à partir du corps décédé sans âme, d'un animal ou d'un humanoïde. Les statistiques ci-dessous comprennent une frappe de poing mais elle peut être remplacée par une griffe ou une option correspondant mieux à la forme de la créature.</p>\n<p><strong>Taille</strong> Petite ou Moyenne</p>\n<p><strong>Corps-à-corps</strong> <span class=\"action-glyph\">1</span> poing, <strong>Dégâts</strong> 1d8 perforants</p>\n<p><strong>For</strong> +2, <strong>Dex</strong> +0, <strong>Con</strong> +4, <strong>Int</strong> -5, <strong>Sag</strong> +0, <strong>Cha</strong> +0</p>\n<p><strong>Points de vie</strong> 10</p>\n<p><strong>Compétence</strong> aucune (dénué d'intelligence)</p>\n<p><strong>Sens</strong> vision dans le noir</p>\n<p><strong>Vitesse</strong> 6 m</p>\n<p><strong>Spécial</strong> @Compendium[pf2e-animal-companions.AC-Features.CSBy1IgHTSkVAFMM]{Compagnon dénué d'intelligence}</p>\n<p><strong>Avantage de soutien</strong> Le zombie émet une aura de pourriture, faisant suppurer les blessures. Jusqu'au début de votre prochain tour, chaque fois que vous touchez une créature qui se trouve dans un rayon de 3 mètres du zombie et que vous lui infligez des dégâts, la créature subit 1d6 points de dégâts supplémentaires car la blessure s'envenime. Si votre zombie est agile ou sauvage, les dégâts passent à 2d6. Il s'agit d'un effet de maladie et de nécromancie.</p>\n<p><strong>Manœuvre avancée</strong> @Compendium[pf2e-animal-companions.AC-Advanced-Maneuvers.LaBfTYUsvoI3nscv]{Goûte un morceau}</p>"
        },
        "Badger": {
            "name": "Blaireau",
            "description": "<p>Votre compagnon est un blaireau, un glouton ou un autre mustélidé.</p>\n<p><strong>Taille</strong> Petite</p>\n<p><strong>Corps-à-corps</strong> <span class=\"action-glyph\">1</span> mâchoires, <strong>Dégâts</strong> 1d8 perforants</p>\n<p><strong>Corps-à-corps</strong> <span class=\"action-glyph\">1</span> griffe (agile), <strong>Dégâts</strong> 1d6 tranchants</p>\n<p><strong>For</strong> +2, <strong>Dex</strong> +2, <strong>Con</strong> +2, <strong>Int</strong> -4, <strong>Sag</strong> +2, <strong>Cha</strong> +0</p>\n<p><strong>Points de Vie</strong> 8</p>\n<p><strong>Compétence</strong> Survie</p>\n<p><strong>Sens</strong> vision nocturne, odorat 9 m (imprécis)</p>\n<p><strong>Vitesse</strong> 7,5 m, creuser 3 m, escalader 3 m</p>\n<p><strong>Avantage de soutien</strong> Votre blaireau creuse autour de la position de votre ennemi, gênant son pied. Jusqu'au début de votre prochain tour, si vous touchez et infligez des dégâts à une créature que votre blaireau menace, la cible ne peut pas utiliser une action de Pas (sauf si elle peut traverser un terrain difficile) jusqu'à ce qu'elle se déplace de sa position actuelle.</p>\n<p><strong>Manœuvre avancée</strong> @Compendium[pf2e-animal-companions.AC-Advanced-Maneuvers.HLD4JW6SUn5Oy8C9]{Rage du blaireau}</p>"
        },
        "Skeletal Mount": {
            "name": "Monture squelettique",
            "description": "<p>Votre compagnon est un cheval, un daim, un élan ou un autre animal squelettique adapté à l'équitation. Les montures squelettiques peuvent être démontées, rassemblées en un tas d'os et rangées pour être stockées.</p>\n<p><strong>Taille</strong> Grande</p>\n<p><strong>Corps-à-corps</strong> <span class=\"action-glyph\">1</span> sabot (agile), <strong>Dégâts</strong> 1d6 contondants</p>\n<p><strong>For</strong> +2, <strong>Dex</strong> +2, <strong>Con</strong> +2, <strong>Int</strong> -5, <strong>Sag</strong> +0, <strong>Cha</strong> +0</p>\n<p><strong>Points de vie</strong> 4</p>\n<p><strong>Compétence</strong> aucune (dénué d'intelligence)</p>\n<p><strong>Sens</strong> vision dans le noir</p>\n<p><strong>Vitesse</strong> 10,5 m</p>\n<p><strong>Spécial</strong> @Compendium[pf2e-animal-companions.AC-Features.CSBy1IgHTSkVAFMM]{Compagnon dénué d'intelligence}, monture</p>\n<p><strong>Avantage de soutien</strong> Votre monture squelettique fait peur lorsqu'elle charge. Jusqu'au début de votre prochain tour, si vous chevauchez votre monture squelettique et que vous vous déplacez d'au moins 10 pieds sur l'action précédant votre attaque, toute créature blessée par l'attaque devient @UUID[Compendium.pf2e.conditionitems.Item.TBSHQspnbcqxsmjL]{Effrayée 1} ou @UUID[Compendium.pf2e.conditionitems.Item.TBSHQspnbcqxsmjL]{Effrayée 2} si l'attaque est un coup critique. C'est un effet d'émotion, de peur et mental.</p>\n<p><strong>Manœuvre avancée</strong> @Compendium[pf2e-animal-companions.AC-Advanced-Maneuvers.tsOaXTRWQvsKTyaL]{Galop}</p>"
        },
        "Bat": {
            "name": "Chauve-souris",
            "description": "<p>Votre compagnon est une chauve-souris particulièrement grande comme une chauve souris-géante.</p>\n<p><strong>Taille</strong> Petite</p>\n<p><strong>Corps-à-corps</strong> <span class=\"action-glyph\">1</span> mâchoires (finesse), <strong>Dégâts</strong> 1d6 perforants</p>\n<p><strong>Corps-à-corps</strong> <span class=\"action-glyph\">1</span> aile (agile, finesse), <strong>Dégâts</strong> 1d4 tranchants</p>\n<p><strong>For</strong> +2, <strong>Dex</strong> +3, <strong>Con</strong> +2, <strong>Int</strong> -4, <strong>Sag</strong> +1, <strong>Cha</strong> +0</p>\n<p><strong>Points de Vie</strong> 6</p>\n<p><strong>Compétence</strong> Discrétion</p>\n<p><strong>Sens</strong> écholocalisation 6 m (la chauve-souris peut utiliser son audition comme un sens précis à cette portée), vision nocturne</p>\n<p><strong>Vitesse</strong> 4,5 m, vol 9 m</p>\n<p><strong>Avantage de soutien</strong> Votre chauve-souris vole autour des bras et des visages de vos ennemis, gênant leurs attaques. Jusqu'au début de votre prochain tour, les créatures dans l'allonge de votre chauve-souris que vous blessez avec des frappes subissent une pénalité de circonstances de -1 à leurs jets d'attaque.</p>\n<p><strong>Manœuvre avancée</strong> @Compendium[pf2e-animal-companions.AC-Advanced-Maneuvers.ODGf6brAHHKrSAPo]{Frappe violente d'aile}</p>"
        },
        "Boar": {
            "name": "Sanglier",
            "description": "<p>Votre compagnon est un sanglier ou un cochon.</p>\n<p><strong>Taille</strong> Petite</p>\n<p><strong>Corps-à-corps</strong> <span class=\"action-glyph\">1</span> défense, <strong>Dégâts</strong> 1d8 perforants</p>\n<p><strong>For</strong> +3, <strong>Dex</strong> +1, <strong>Con</strong> +2, <strong>Int</strong> -4, <strong>Sag</strong> +2, <strong>Cha</strong> +0</p>\n<p><strong>Points de Vie</strong> 8</p>\n<p><strong>Compétence</strong> Survie</p>\n<p><strong>Sens</strong> vision nocturne, odorat 9 m (imprécis)</p>\n<p><strong>Vitesse</strong> 10,5 m</p>\n<p><strong>Avantage de soutien</strong> Votre sanglier éventre vos ennemis. Jusqu'au début de votre prochain tour, vos Frappes qui blessent une créature dans l'allonge de votre sanglier infligent aussi @Damage[1d6[bleed]]{1d6 dégâts de saignement}. Si votre sanglier est agile ou sauvage, les dégâts de saignement passent à @Damage[2d6[bleed]]{2d6}.</p>\n<p><strong>Manœuvre avancée</strong> @Compendium[pf2e-animal-companions.AC-Advanced-Maneuvers.EwCqdvU8WOw2SSxm]{Charge du sanglier}</p>",
            "rules": {
                "7": {
                    "label": "Défense"
                }
            }
        },
        "Water Wraith": {
            "name": "Âme-en-peine aquatique",
            "description": "<p>Votre compagnon est une âme-en-peine aquatique, un lézard amphibie et expressif capable de changer la couleur de ses écailles à sa guise. Bien que votre compagnon n'ait pas encore atteint sa pleine force et son intelligence, il vous sert toujours avec une ténacité et une loyauté admirables, sans parler de sa bouche de lamproie aux dents lacérantes et de ses huit pattes griffues et tranchantes.</p>\n<p><strong>Taille</strong> Petite</p>\n<p><strong>Compétence</strong> Survie</p>\n<p><strong>For</strong> +3, <strong>Dex</strong> +2, <strong>Con</strong> +2, <strong>Int</strong> +4, <strong>Sag</strong> +1, <strong>Cha</strong> +0 <strong>PV</strong> 6</p>\n<p><strong>Vitesse</strong> 6 m, nage 7,5 m</p>\n<p><strong>Corps-à-corps</strong> <span class=\"action-glyph\">1</span> mâchoires, <strong>Dégâts</strong> 1d8 perforants</p>\n<p><strong>Corps-à-corps</strong> <span class=\"action-glyph\">1</span> griffe (agile), <strong>Dégâts</strong> 1d6 tranchants</p>\n<p><strong>Spécial</strong> The water wraith can hold its breath for about 2&nbsp;hours.</p>\n<p><strong>Avantage de soutien</strong> Votre âme-en-peine aquatique siffle et change rapidement de couleur dans un fracas irisé, submergeant vos ennemis dans une avalanche de nuances et de teintes. Jusqu'au début de votre prochain tour, chaque fois que vous touchez une créature dans l'allonge de votre âme-en-peine aquatique, celle-ci est @UUID[Compendium.pf2e.conditionitems.Item.TkIyaNPgTZFBCCuh]{Éblouie} pendant 1 round.</p>\n<p><strong>Manœuvre avancée</strong> Gorgée de sang</p>"
        },
        "Skeletal Servant": {
            "name": "Serviteur squelettique",
            "description": "<p>Votre compagnon est un squelette humanoïde, dénué d'intelligence mais capable d'aider aux tâches rudimentaires. Il peut être démonté, réuni en un tas d'os pour être facilement rangé.</p>\n<p><strong>Taille</strong> Petite ou Moyenne</p>\n<p><strong>Corps-à-corps</strong> <span class=\"action-glyph\">1</span> Mâchoires, <strong>Dégâts</strong> 1d8 perforants</p>\n<p><strong>Corps-à-corps</strong> <span class=\"action-glyph\">1</span> griffe (agile), <strong>Dégâts</strong> 1d6 tranchants</p>\n<p><strong>For</strong> +2, <strong>Dex</strong> +2, <strong>Con</strong> +1, <strong>Int</strong> -5, <strong>Sag</strong> +0, <strong>Cha</strong> +1</p>\n<p><strong>Points de vie</strong> 4</p>\n<p><strong>Compétence</strong> aucune (dénué d'intelligence)</p>\n<p><strong>Sens</strong> vision dans le noir</p>\n<p><strong>Vitesse</strong> 6 m</p>\n<p><strong>Spécial</strong> @Compendium[pf2e-animal-companions.AC-Features.CSBy1IgHTSkVAFMM]{Compagnon dénué d'intelligence}</p>\n<p><strong>Avantage de soutien</strong> Votre serviteur squelettique plante des os dans vos ennemis pour les distraire pendant que vous attaquez. Jusqu'au début de votre prochain tour, lorsqu'un coup que vous portez touche et inflige des dégâts à une créature qui se trouve dans l'allonge de votre serviteur squelettique, cette cible devient @UUID[Compendium.pf2e.conditionitems.Item.AJh5ex99aV6VTggg]{Prise au dépourvu} jusqu'à la fin de votre prochain tour.</p>\n<p><strong>Manœuvre avancée</strong> @Compendium[pf2e-animal-companions.AC-Advanced-Maneuvers.6LvtdtVVwtbzqUXG]{Crâne hurlant}</p>"
        },
        "Moth": {
            "name": "Papillon de nuit",
            "description": "<p>Votre compagnon animal est un papillon de nuit géant mangeur de fruit avec une trompe capable de percer la peau.</p>\n<p><strong>Taille</strong> Petite</p>\n<p><strong>Corps-à-corps</strong> <span class=\"action-glyph\">1</span> Trompe (finesse), <strong>Dégâts</strong> 1d6 perforants</p>\n<p><strong>For</strong> +2, <strong>Dex</strong> +3, <strong>Con</strong> +1, <strong>Int</strong> -4, <strong>Sag</strong> +2, <strong>Cha</strong> +0</p>\n<p><strong>Points de Vie</strong> 6</p>\n<p><strong>Compétence</strong> Discrétion</p>\n<p><strong>Sens</strong> vision dans le noir, odorat 9 m (imprécis)</p>\n<p><strong>Vitesse</strong> 4,5 m, vol 9 m</p>\n<p><strong>Spécial</strong> Votre papillon de nuit est invisible contre l'écholocalisation.</p>\n<p><strong>Avantage de soutien</strong> Votre papillon de nuit libère une pluie de poussière pour révéler la présence de vos ennemis. Jusqu'au début de votre prochain tour, si vous blessez une créature @UUID[Compendium.pf2e.conditionitems.Item.DmAIPqOBomZ7H95W]{Masquée} ou @UUID[Compendium.pf2e.conditionitems.Item.iU0fEDdBp3rXpTMC]{Cachée} dans l'allonge de votre papillon de nuit avec une Frappe, cette créature ne nécessite qu'un @Check[type:flat|dc:3|name:Test créature masquée|showDC:all] pour être ciblée si elle est masquée ou un @Check[type:flat|dc:3|name:Test créature cachée|showDC:all] si elle est cachée. Le DD ainsi réduit perdure jusqu'au début de votre prochain tour.</p>\n<p><strong>Manœuvre avancée</strong> @Compendium[pf2e-animal-companions.AC-Advanced-Maneuvers.WdTzlCO2i4loeYkQ]{Cri ultrasonique}</p>",
            "rules": {
                "7": {
                    "label": "Trompe"
                }
            }
        },
        "Earth Elemental": {
            "name": "Élémentaire de terre",
            "description": "<p>Votre compagnon est un élémentaire de terre, tel qu'un rocher vivant ou un molosse de tourbe.</p>\n<p><strong>Accès</strong> Vous êtes un membre de l'ordre de la pierre.</p>\n<p><strong>Taille</strong> Petite</p>\n<p><strong>Corps-à-corps</strong> <span class=\"action-glyph\">1</span> poing, <strong>Dégâts</strong> 1d8 contondant</p>\n<p><strong>For</strong> +2, <strong>Dex</strong> +0, <strong>Con</strong> +3, <strong>Int</strong> –4, <strong>Sag</strong> +1, <strong>Cha</strong> +0</p>\n<p><strong>Points de vie</strong> 10</p>\n<p><strong>Compétence</strong> Survie</p>\n<p><strong>Sens</strong> vision dans le noir</p>\n<p><strong>Vitesse</strong> 6 mètres, creuser 3 mètres</p>\n<p><strong>Avantage de soutien</strong> Votre élémentaire de terre fissure la terre sous les pieds de votre ennemi, rendant son déplacement difficile. Jusqu'au début de votre prochain tour, si vous touchez avec une Frappe et infligez des dégâts à une créature dans l'allonge de votre élémentaire de terre, la première case dans laquelle la créature se déplace après avoir subi ces dégâts est un terrain difficile.</p>\n<p><strong>MAnœuvre avancée</strong> @UUID[Compendium.pf2e-animal-companions.AC-Advanced-Maneuvers.Item.W6zkL0y4MqvlR0yW]{Roulade renversante}</p>"
        }
    },
    "mapping": {
        "description": "system.description.value",
        "gm": "system.description.gm",
        "rules": {
            "path": "system.rules",
            "converter": "translateRules"
        }
    }
}