{
    "label": "Véhicules",
    "entries": {
        "Strider": {
            "name": "Strider",
            "crew": "1 pilote",
            "pilotingcheck": "Arcanes (DD 25), Artisanat (DD 25), Connaissance de l'ingénierie (DD 23) ou Connaissance du pilotage (DD 23)",
            "speed": "9 m (alchimique, magique)",
            "items": {
                "b3OQJLYv4hEX7yhn": {
                    "name": "Long Reach",
                    "description": "<p>Le glisseur peut enjamber un trou aussi grand que 9 m en Marchant rapidement par-dessus.</p>"
                }
            }
        },
        "Clockwork Borer": {
            "name": "Clockwork Borer",
            "description": "<p>Un foreur mécanique est essentiellement un énorme vilebrequin en adamantium attaché à un grand chariot à roues. Les engrenages mécaniques à l'intérieur déplacent le foreur lui-même et font tourner le vilebrequin, ce qui lui permet de creuser rapidement dans les matériaux meubles et même dans la pierre solide mais à un rythme plus lent.</p>",
            "crew": "1 pilote",
            "pilotingcheck": "Connaissance de la conduite (DD 26) ou Artisanat (DD 28)",
            "speed": "6 m , Creuser 3 m (mécanique)",
            "items": {
                "TPj4AFDezXubgaJm": {
                    "name": "Adamantine Drill",
                    "description": "<p>Bien que la plupart des Vitesses de creusement permettent seulement à une créature ou à un véhicule de se déplacer dans de les matériaux ou de la terre meuble, ce véhicule est équipé d'une foreuse en adamantium qui peut creuser dans la roche et la pierre à une Vitesse de 1,5 mètre par minute.</p>"
                },
                "hCwx6Q30DbNVZa88": {
                    "name": "Sluggish",
                    "description": "<p>Comme ce véhicule est lent, il se déplace deux fois sa longueur à chaque fois qu'il tourne à 90 degrés.</p>"
                },
                "kQbyDtF75cOAr2Lc": {
                    "name": "Wind-Up",
                    "description": "<p>10 minutes pour remonter, 1 heure de temps opérationnel, DD 26, veille</p>\n<hr />\n<p>Pour qu'un mécanisme puisse fonctionner, il doit être remontée avec une clé unique par une autre créature. Cela prend 1 minute. Une fois remonté, il reste opérationnel pendant 24 heures, après quoi il ne perçoit plus son environnement et ne peut plus agir jusqu'à ce qu'il soit remonté. Certaines capacités de créatures mécaniques exigent qu'elles dépensent une partie de leur temps de fonctionnement restant. Elles ne peuvent pas en dépenser plus qu'elles n'en ont et s'arrêtent immédiatement lorsqu'il ne leur reste plus de temps. Comme on ne sait pas quand une créature mécanique a été remontée pour la dernière fois, la plupart des gardiens de créatures mécaniques les remontent à une heure fixe, généralement 8 heures du matin.</p>\n<p>Une créature mécanique peut passer en mode veille en dépensant 3 actions. Son temps de fonctionnement ne diminue pas en mode veille, mais elle peut percevoir son environnement (avec une pénalité de -2 à la Perception). Elle ne peut pas agir, à une exception près : lorsqu'elle perçoit une créature, elle peut sortir de son mode veille avec une réaction (en faisant un jet d'initiative si nécessaire).</p>\n<p>Une créature peut tenter un jet pour @UUID[Compendium.pf2e.actionspf2e.Item.cYdz2grcOcRt4jk6]{Désamorcer un dispositif} avec le DD listé dessus, pour réduire le temps de fonctionnement. Pour chaque succès, le mécanisme perd 1 heure de temps opérationnel. Ceci peut être fait même si le mécanisme est en mode veille.</p>"
                },
                "scXXuno9YNm1GWXK": {
                    "name": "Pivoting Seats",
                    "description": "<p>Les sièges de ce véhicule sont montés sur une plate-forme lestée qui pivote lorsque le véhicule se déplace, ajustant automatiquement sa position en fonction de la gravité. Les créatures assises restent droites, quelle que soit la position ou l'angle du véhicule. </p>"
                }
            }
        },
        "Steam Giant": {
            "name": "Steam Giant",
            "crew": "1 pilote, 3 membres d'équipage",
            "pilotingcheck": "Connaissance de la conduite (DD 32) ou Artisanant (DD 34)",
            "speed": "6 m (alchimique)",
            "items": {
                "Rb4MyOLlodPUZdJX": {
                    "name": "Flame Jet",
                    "description": "<p>Deux membres d'équipage accomplissent chacun une activité à 3 actions à leur tour pour produire une projection de flammes à la fin du tour du second personnage partant de n'importe quel coin de l'espace occupé par le géant à vapeur. Les flammes infligent @Damage[6d8[fire]]{6d8 dégâts de feu} à chaque créature dans un @Template[type:cone|distance:30]{cône de 9 m} (@Check[type:reflex|dc:32|basic:true]). Le jet de flammes cesse de fonctionner si le géant est brisé.</p>"
                }
            }
        },
        "Armored Carriage": {
            "name": "Armored Carriage",
            "description": "<p>Lente mais régulière, une carriole blindée combine une propulsion mécanique avec une coque protectrice pour un voyage sûr et confortable.</p>",
            "crew": "1 pilote",
            "pilotingcheck": "Connaissance de la conduite (DD 20) ou Artisanat (DD 22)",
            "speed": "7,5 m (mécanique)",
            "items": {
                "eMf9xcynjFjF5ma8": {
                    "name": "Wind-Up",
                    "description": "<p>10 minutes pour remonter, 1 heure de temps opérationnel, DD 20, veille</p>\n<hr />\n<p>Pour qu'un mécanisme puisse fonctionner, il doit être remonté avec une clé unique par une autre créature. Cela prend 1 minute. Une fois remonté, il reste opérationnel pendant 24 heures, après quoi il ne perçoit plus son environnement et ne peut plus agir jusqu'à ce qu'il soit remonté. Certaines capacités de créatures mécaniques exigent qu'elles dépensent une partie de leur temps de fonctionnement restant. Elles ne peuvent pas en dépenser plus qu'elles n'en ont et s'arrêtent immédiatement lorsqu'il ne leur reste plus de temps. Comme on ne sait pas quand une créature mécanique a été remontée pour la dernière fois, la plupart des gardiens de créatures mécaniques les remontent à une heure fixe, généralement 8 heures du matin.</p>\n<p>Une créature mécanique peut passer en mode veille en dépensant 3 actions. Son temps de fonctionnement ne diminue pas en mode veille, mais elle peut percevoir son environnement (avec une pénalité de -2 à la Perception). Elle ne peut pas agir, à une exception près : lorsqu'elle perçoit une créature, elle peut sortir de son mode veille avec une réaction (en faisant un jet d'initiative si nécessaire).</p>\n<p>Une créature peut tenter un jet pour @UUID[Compendium.pf2e.actionspf2e.Item.cYdz2grcOcRt4jk6]{Désamorcer un dispositif} avec le DD listé dessus, pour réduire le temps de fonctionnement. Pour chaque succès, le mécanisme perd 1 heure de temps opérationnel. Ceci peut être fait même si le mécanisme est en mode veille.</p>"
                },
                "oWlyE6XYOLX2gBB6": {
                    "name": "Weapon Mount",
                    "description": "<p>Ce véhicule possède un support pour une arme montée à l'arrière qui peut être équipé d'une arme à distance. À l'achat, cet emplacement est vide. Installer ou démonter une arme sur ce support nécessite d'y passer 10 minutes, un test d'@Check[type:crafting|dc:20|name:Attach weapon] réussi ainsi que de disposer de l'arme adaptée à installer.</p>"
                }
            }
        },
        "Bathysphere": {
            "name": "Bathysphere",
            "crew": "1 pilote",
            "pilotingcheck": "Artisanat (DD 22), Connaissance de l'ingénierie (DD 20) ou Connaissance du pilotage (DD 20)",
            "speed": "nage 6 m (alchimique, seulement sous l'eau)",
            "items": {
                "7LOtkjkF6S8p6CRA": {
                    "name": "Tether Buoy",
                    "description": "<p>Les membres d'équipage et les passagers peuvent respirer lorsque le véhicule est sous l'eau jusqu'à une profondeur de 150 m.</p>"
                },
                "Qx3tJuimyRKT7l2W": {
                    "name": "Cable",
                    "description": "<p>La bathysphère est levée et abaissée par un cable à la surface et peut seulement se déplacer verticalement.</p>"
                },
                "upS8Tctv0gf8rQOC": {
                    "name": "Ballast Release",
                    "description": "<p>Le pilot libère le ballast de la bathysphère. La bathysphère se déplace 3 fois de sa Vitesse vers la surface à la fin du tour du pilote.</p>"
                }
            }
        },
        "Sled": {
            "name": "Sled",
            "crew": "1 pilote",
            "pilotingcheck": "Connaissance de la conduite (DD 41) ou Nature (DD 16 au DD 24, selon la créature qui tire)",
            "speed": "la Vitesse de la plus lente des créatures qui tire (tiré par 2 créatures Moyennes ou 4 créatures Petites)",
            "items": {
                "dDX0a93qZCir17NH": {
                    "name": "Sluggish",
                    "description": "<p>Ce véhicule doit Marcher rapidement deux fois sa longueur pour chaque tournant de 90 degrés qu'il fait</p>"
                },
                "dWNVc3fRpbqaL7OS": {
                    "name": "Ice Traverser",
                    "description": "<p>La glace et la neige ne sont pas un terrain difficile à un traineau, mais tous les autres terrains sont des terrains difficiles pour lui.</p>"
                }
            }
        },
        "Bone Ship": {
            "name": "Bone Ship",
            "description": "<p>Il reste rarement quelque chose de vivant après le passage d'un vaisseau squelettique, seulement la mort, la destruction et des vagues rouges comme le sang qui s'entrechoquent et forment de l'écume dans son sillage. Lorsqu'un vaisseau squelettique se forme, la magie nécromantique drague de grands os du fond de la mer et les plie lentement pour qu'ils se mettent en place avec une intention malveillante. Les côtes des baleines forment généralement les poutres de la coque et leurs grandes colonnes vertébrales se tordent pour former des mâts imposants. Leurs muscles et leurs tendons enserrent le navire, se serrant et se desserrant pour faire tourner précisément le navire lorsqu'il navigue.</p>\n<p>Lorsqu'un vaisseau squelettique rencontre un autre navire ou trouve une autre occasion de semer la mort, des cadavres plus petits éparpillés dans le navire s'animent pour former un équipage et un groupe d'abordage. Chaque membre d'équipage ressemble à un squelette humanoïde, mais ces membres peuvent être constitués d'os de diverses créatures. Pour le combat, le navire crée également des canons magiques formés d'os qui propulsent des éclats d'os et des débris qui explosent par magie. Les petites pierres précieuses noires parsemées sur la structure du navire renferment les âmes d'un équipage noyé car un navire d'os constitue l'héritage maudit de marins morts.</p>\n<p>Lorsqu'une mort de masse survient en pleine mer - souvent parce qu'un navire entier coule loin des côtes - l'angoisse des victimes mourantes peut engendrer un vaisseau squelettique. Cet événement peut se produire lorsqu'un marin adresse une ultime supplique à un dieu obscur ou lorsqu'une divinité en profite pour lier ensemble les âmes de nombreux marins morts pour en faire la démonstration destructrice de sa puissance divine. Lorsqu'il n'est pas créé par une intervention divine, un vaisseau squelettique peut se développer lentement et de manière plus organique à partir d'un des navires pilotés par les marins morts-vivants connus sous le nom de @UUID[Compendium.pf2e.pathfinder-bestiary-2.Actor.48agy7vl9fQW1LLA]{Draugr}. Au fur et à mesure que les navires draugr sillonnent les mers et coulent d'autres navires, ils peuvent collecter plus d'âmes et d'os pour devenir finalement des vaisseaux squelettiques. Ces navires ont une apparence différente de celle de nombreux autres vaisseaux squelettiques, ressemblant à des assemblages de navires ou à des structures asymétriques.</p>\n<p>Un vaisseau squelettique est presque glouton, possédant un appétit insatiable pour la mort, la destruction et pour ajouter de nouvelles âmes à son équipage. Ces désirs proviennent d'une cause sous-jacente, soit placée dans le vaisseau par son créateur, soit sécrétée par les dernières volontés éparses des âmes mortes qui le composent. Par exemple, une divinité peut envoyer un vaisseau squelettique en mission spéciale pour transmettre un message ou se débarrasser d'un adversaire ou d'un gêneur particulièrement tenace. Bien que les vaisseaux squelettiques se déplacent généralement au-dessus les vagues, ils n'ont pas besoin de respirer et peuvent effectuer des missions sous-marines à la demande de leur créateur.</p>\n<p>Les vaisseaux squelettiques ont une réputation légendaire parmi les marins. Ces morts-vivants peuvent surgir de nulle part pour semer la destruction et si les corps d'un équipage sont absents lors d'un naufrage, cette calamité peut être imputée à un vaisseau squelettique. La mer peut apporter la mort de manière soudaine de bien des façons, mais l'asservissement éternel de l'âme constitue un sort bien plus terrifiant que la mort elle-même.</p>",
            "crew": "1 pilote, 12 membres d'équipage",
            "pilotingcheck": "Connaissance de la navigation (DD 40), Religion (DD 38) ; la propulsion du bâteau est le vent lorsque la Connaissance de la navigation est utilisée ou magique si Religion est utilisé",
            "speed": "Nage 12 mètres"
        },
        "Vonthos's Golden Bridge": {
            "name": "Vonthos's Golden Bridge",
            "description": "<p>Conçu par le magicien Vonthos dans le cadre de son pari de tenter le test de la Pierre-étoile à Absalom, ce véhicule étrange est considéré comme une merveille de magie et de technologie. La Passerelle d'or de Vonthos est une sphère volante faite à partir d'un trône dans lequel s'imbriquent des anneaux automatisés recouvert d'or et de joyaux, imprégné d'abjurations puissantes et adaptées qui lui octroient des capacités uniques.</p>",
            "crew": "1 pilote",
            "pilotingcheck": "Connaissance de la conduite (DD 36) ou Arcanes (DD 38)",
            "speed": "Vol 12 m (mécanique, magique)",
            "items": {
                "UQr6y2RUCvhlcvZ3": {
                    "name": "Protective Barrier",
                    "description": "<p>Bien que les anneaux tourbillonnants du véhicule ne couvrent pas entièrement le pilote, ils offrent une protection incroyable, en maintenant magiquement la température à l'intérieur de la sphère et en annulant les attaques physiques. Le pilote est protégé du froid et de la chaleur importants et extrêmes. Le pilote obtient aussi un résistance 10 contre tous les dégâts physiques (sauf l'adamantium).</p>\n<p>@UUID[Compendium.pf2e.equipment-effects.Item.exwQF6E1FWmuxwBc]{Effet : Barrière protectrice}</p>"
                },
                "izZwMB8zgdsWje9o": {
                    "name": "Prismatic Defense",
                    "description": "<p>Le pilote mobilise la puissance des joyaux magiques cachés dans les ornements extravagants de ce véhicule pour lui donner des défenses supplémentaires. Le véhicule obtient une résistance 20 aux dégâts d'une des énergies suivantes : acide, électricité, feu, force, froid ou son. Cette résistance dure jusqu'à la prochaine activation de Défense prismatique.</p>"
                },
                "kt9xSEJnhJNdCBEy": {
                    "name": "Captivating Wealth",
                    "description": "<p>12 m. L'or, les joyaux et les différents embellissements qui ornent cette sphère volante émettent une splendeur étincellante capable de subjuguer les créatures. Chaque créature qui débute son tour dans l'aura doit tenter un jet de @Check[type:will|dc:36|traits:magic]. Sur un échec, la créature est @UUID[Compendium.pf2e.conditionitems.Item.AdPVz7rbaVSRxHFg]{Fascinée} et @UUID[Compendium.pf2e.conditionitems.Item.e1XGnhKNSQIm5IXg]{Stupéfiée 2} pendant aussi longtemps qu'elle reste dans l'aura. Une créature qui obtient un succès sur son jet de sauvegarde est temporairement immunisée pendant 1 heure. À chaque fois que Défense prismatique est activée, la zone de Richesse captivante est réduite de 3 mètres pendant 1 heure, jusqu'à un minimum de 0 mètres.</p>"
                },
                "zni42kvDwzT6lzuW": {
                    "name": "Wind-Up",
                    "description": "<p>10 minutes pour remonter, 1 heure de temps opérationnel, DD 37, veille</p>\n<hr />\n<p>Pour qu'un mécanisme puisse fonctionner, il doit être remontée avec une clé unique par une autre créature. Cela prend 1 minute. Une fois remonté, il reste opérationnel pendant 24 heures, après quoi il ne perçoit plus son environnement et ne peut plus agir jusqu'à ce qu'il soit remonté. Certaines capacités de créatures mécaniques exigent qu'elles dépensent une partie de leur temps de fonctionnement restant. Elles ne peuvent pas en dépenser plus qu'elles n'en ont et s'arrêtent immédiatement lorsqu'il ne leur reste plus de temps. Comme on ne sait pas quand une créature mécanique a été remontée pour la dernière fois, la plupart des gardiens de créatures mécaniques les remontent à une heure fixe, généralement 8 heures du matin.</p>\n<p>Une créature mécanique peut passer en mode veille en dépensant 3 actions. Son temps de fonctionnement ne diminue pas en mode veille, mais elle peut percevoir son environnement (avec une pénalité de -2 à la Perception). Elle ne peut pas agir, à une exception près : lorsqu'elle perçoit une créature, elle peut sortir de son mode veille avec une réaction (en faisant un jet d'initiative si nécessaire).</p>\n<p>Une créature peut tenter un jet pour @UUID[Compendium.pf2e.actionspf2e.Item.cYdz2grcOcRt4jk6]{Désamorcer un dispositif} avec le DD listé dessus, pour réduire le temps de fonctionnement. Pour chaque succès, le mécanisme perd 1 heure de temps opérationnel. Ceci peut être fait même si le mécanisme est en mode veille.</p>"
                }
            }
        },
        "Sailing Ship": {
            "name": "Sailing Ship",
            "crew": "1 pilote, 8 membres d'équipage",
            "pilotingcheck": "Connaissance de la navigation (DD 26), Diplomatie (DD 28) ou Intimidation (DD 28)",
            "speed": "nage 12 m (vent)",
            "items": {
                "2UISHdYECuDVkedh": {
                    "name": "Sluggish",
                    "description": "<p>Ce véhicule doit se déplacer de deux fois sa longueur pour chaque virage à 90 degrés qu'il effectue.</p>"
                }
            }
        },
        "Glider": {
            "name": "Glider",
            "crew": "1 pilote",
            "pilotingcheck": "Connaissance du pilotage (DD 14) ou Nature (DD 16)",
            "speed": "vol 7,5 m (vent)",
            "items": {
                "Ix4GHIqSUqHawiG8": {
                    "name": "Starting Drop",
                    "description": "<p>Le seul moyen de lancer un planeur est de le faire sauter d'une pente inclinée avec des conditions de vent favorables. Le planeur est incontrôlé et chute de 18 m chaque round jusqu'à ce que le pilote réussisse à Prendre le contrôle. Si le planeur touche le sol avent que le pilote n'ait réussi à @UUID[Compendium.pf2e.actionspf2e.Item.yh9O9BQjwWrAIiuf]{Prendre le contrôle}, le pilote et le planeur subissent chacun des dégâts de chute.</p>"
                }
            }
        },
        "Clockwork Hopper": {
            "name": "Clockwork Hopper",
            "description": "<p>Un bondisseur mécanique possède une forme similaire à un grand lapin et effectue des avancées par bonds successifs qui évitent les aléas du terrain, bien que ces embardées peuvent provoquer des cahots et induire la maladie des transports chez certains de ceux qui l'empruntent.</p>",
            "crew": "1 pilote",
            "pilotingcheck": "Connaissance de la conduite (DD 22) ou Artisanat (DD 24)",
            "speed": "Vitesse 10,5 m (mécanique)",
            "items": {
                "gafl9oZCmfSGtfxj": {
                    "name": "Hopper",
                    "description": "<p>Ce véhicule sautille sur le terrain lorsqu'il se déplace sur le sol. Il ignore le terrain difficile constitué par la terre, la roche, les gravats, les pentes et les broussailles et le terrain très difficile provoqué par de telles caractéristiques sont un terrain difficile pource qui le concerne.</p>"
                },
                "uP38cyn9BsX8ni0O": {
                    "name": "Massive Jump",
                    "description": "<p>Le pilote engage le mécanisme de saut qui propulse le bondisseur mécanique dans les airs, dans un énorme bond. Le véhicule saute en ligne droite dans la direction de son mouvement actuel sans toucher terre sur une distance de 21 mètres en longueur et 9 mètres en hauteur, atterrissant dans un espace de sol solide. Les créatures qui sont adjacentes à l'espace où le bondisseur arrive subissent @Damage[4d10[bludgeoning]]{4d10 dégâts contondants} avec un jet de @Check[type:reflex|dc:22|basic:true|name:Éviter le bondisseur automate] et se retrouvent @UUID[Compendium.pf2e.conditionitems.Item.j91X7x0XSomq8d60]{À terre} en cas d'échec critique. Le bondisseur mécanique ne peut plus utiliser Saut massif avant 1 minute. Saut massif cesse de fonctionner si le Bondisseur mécanique est @UUID[Compendium.pf2e.conditionitems.Item.6dNUvdb1dhToNDj3]{Brisé}.</p>"
                },
                "zEf7XS6RlEjM0VSO": {
                    "name": "Wind-Up",
                    "description": "<p>10 minutes pour remonter, 1 heure de temps opérationnel, DD 22, veille</p>\n<hr />\n<p>Pour qu'un mécanisme puisse fonctionner, il doit être remontée avec une clé unique par une autre créature. Cela prend 1 minute. Une fois remonté, il reste opérationnel pendant 24 heures, après quoi il ne perçoit plus son environnement et ne peut plus agir jusqu'à ce qu'il soit remonté. Certaines capacités de créatures mécaniques exigent qu'elles dépensent une partie de leur temps de fonctionnement restant. Elles ne peuvent pas en dépenser plus qu'elles n'en ont et s'arrêtent immédiatement lorsqu'il ne leur reste plus de temps. Comme on ne sait pas quand une créature mécanique a été remontée pour la dernière fois, la plupart des gardiens de créatures mécaniques les remontent à une heure fixe, généralement 8 heures du matin.</p>\n<p>Une créature mécanique peut passer en mode veille en dépensant 3 actions. Son temps de fonctionnement ne diminue pas en mode veille, mais elle peut percevoir son environnement (avec une pénalité de -2 à la Perception). Elle ne peut pas agir, à une exception près : lorsqu'elle perçoit une créature, elle peut sortir de son mode veille avec une réaction (en faisant un jet d'initiative si nécessaire).</p>\n<p>Une créature peut tenter un jet pour @UUID[Compendium.pf2e.actionspf2e.Item.cYdz2grcOcRt4jk6]{Désamorcer un dispositif} avec le DD listé dessus, pour réduire le temps de fonctionnement. Pour chaque succès, le mécanisme perd 1 heure de temps opérationnel. Ceci peut être fait même si le mécanisme est en mode veille.</p>"
                }
            }
        },
        "Sleigh": {
            "name": "Sleigh",
            "crew": "1 pilote",
            "pilotingcheck": "Connaissance de la conduite (DD 15) ou Nature (DD 17 à DD 25 en fonction des créatures de trait)",
            "speed": "la Vitesse de la plus lente des créatures de trait (tracté par 2 créatures de taille grande ou 6 de taille Moyenne)",
            "items": {
                "Buxx8NC3JQzeLsjs": {
                    "name": "Sluggish",
                    "description": "<p>Ce véhicule doit se déplacer de deux fois sa longueur pour chaque virage à 90 degrés qu'il effectue.</p>"
                },
                "XvCWEJlIIDSfz2EA": {
                    "name": "Ice Traverser",
                    "description": "<p>La glace et la neige ne sont pas un terrain difficile pour un traîneau mais tous les autres terrains sont pour lui un terrain difficile.</p>"
                }
            }
        },
        "Clockwork Bumblebee": {
            "name": "Clockwork Bumblebee",
            "description": "<p>Ce véhicule fantasque transporte un petit nombre de passagers et de membres d'équipage. Il est capable de voler brièvement mais le poids de ses mécanismes empêche une utilisation prolongée. Le pilote, l'équipage et les passagers sont tous assis à l'arrière, à cheval sur la coque, sur des selles intégrées.</p>",
            "crew": "1 pilote, 2 membres d'équipage",
            "pilotingcheck": "Artisanat (DD 28) ou Connaissance de la conduite (DD 26)",
            "speed": "Vol 9 m (mécanique)",
            "items": {
                "TMYxeMEQ1ilLoAlJ": {
                    "name": "Wind Up",
                    "description": "<p>(10 minutes de remontage, 10 minutes de temps opérationnel, DD 26, veille)</p>"
                }
            }
        },
        "Airship": {
            "name": "Airship",
            "crew": "1 pilote, 5 autres membres d'équipage",
            "pilotingcheck": "Arcanes (DD 32), Artisanat (DD 32), Nature (DD 32) ou Connaissance du pilotage (DD 30)",
            "speed": "vol 15 m (alchimique, magique)",
            "items": {
                "zGMODH6r1X3ZbwB1": {
                    "name": "Sluggish",
                    "description": "<p>Ce véhicule doit se déplacer de deux fois sa longueur pour chaque virage à 90 degrés qu'il effectue.</p>"
                }
            }
        },
        "Sky Chariot (Light)": {
            "name": "Sky Chariot (Light)",
            "crew": "1 pilote",
            "pilotingcheck": "Arcanes (DD 25), Nature (DD 25 à 33, en fonction des créatures de trait) ou connaissance du pilotage (DD 23)",
            "speed": "la Vitesse de vol de la plus lente des créatures de trait (tiré par 2 créatures grandes ou 1 créature Très grande)"
        },
        "Hillcross Glider": {
            "name": "Hillcross Glider",
            "description": "<p>Les planeurs des collines sont faits d'os et de cuir tendu, attachés ensemble avec des tendons et scellés à l'aide d'une colle faite de graisse animale.</p>",
            "crew": "1 pilote",
            "pilotingcheck": "Connaissance du pilotage (DD 19) ou Nature (DD 21)",
            "speed": "Vol 11,5 m (vent)",
            "items": {
                "xB0A9RW1Zi6TC7g0": {
                    "name": "Starting Drop",
                    "description": "<p>La seule manière de faire décoller un planeur des collines est de sauter d'une pente fortement inclinée avec des conditions de vent favorables. Le planeur est incontrôlé et tombe de 12 mètres chaque round jusqu'à ce que le pilote réussit @UUID[Compendium.pf2e.actionspf2e.Item.yh9O9BQjwWrAIiuf]{Prendre le contrôle}. Si le planeur percute le sol avant que le Pilote ne prenne le contrôle, le pilote et le planeur subissent tous deux des dégâts de chute.</p>"
                }
            }
        },
        "Raft": {
            "name": "Raft",
            "crew": "1 pilote",
            "pilotingcheck": "Athéltisme (DD 14) ou Connaissance de la navigation (DD 12)",
            "speed": "nager 3 m (à rames)",
            "items": {
                "rwza6SRk2Qv2kNXK": {
                    "name": "Portaged",
                    "description": "<p>Le radeau peut être transporté sur terre par 2 créatures de taille Moyenne ou 1 créature de taille Grande. Ces créatures sont Surchargées.</p>"
                }
            }
        },
        "Carriage": {
            "name": "Carriage",
            "crew": "1 pilote",
            "pilotingcheck": "Connaissance de la conduite (DD 16) ou Nature (DD 18 à DD 26, en fonction des créatures de trait)",
            "speed": "la Vitesse de la plus lente des créatures de trait (tracté par 2 créatures de Grande taille)"
        },
        "Battery Tower": {
            "name": "Battery Tower",
            "description": "<p>La tour de batterie utilise à la fois la propulsion poussée et la propulsion tournée pour faire tourner un cabestan. La propulsion tournée utilise les mêmes règles que la propulsion à la rame. La propulsion poussée utilise les mêmes règles que la propulsion tirée.</p>",
            "crew": "1 pilote, 150 tourneurs, 2200 pousseurs",
            "pilotingcheck": "Diplomatcie (DD 37), Intimidation (DD 37), Connaissance de la Guerre (DD 35)",
            "speed": "3 m (poussé, tourné)",
            "items": {
                "IXh5XdWbzWAZcU3r": {
                    "name": "Sluggish",
                    "description": "<p>Ce véhicule doit se déplacer de deux fois sa longueur pour chaque virage de 90 degrés qu'il effectue.</p>"
                },
                "kXVd6uluNy32xVTp": {
                    "name": "Weaponry",
                    "description": "<p>Une tour de batterie est généralement équipée d'armes de siège à poudre noire pour les assauts lourds, avec des bombardes aux deux étages inférieurs et des canons aux autres étages. Leur prix est inclus dans celui de la tour de batterie. Lors de la construction d'une tour de batterie, vous pouvez choisir de remplacer ces armes par d'autres armes de siège d'un prix inférieur. Si vous voulez une arme de siège plus chère, vous devez l'acheter séparément. Les passagers de la tour de batterie peuvent utiliser ces armes de siège en équipage.</p>"
                },
                "vmJ59aOrcyY5Ma4M": {
                    "name": "Tiered",
                    "description": "<p>Une tour de batterie comporte cinq niveaux. L'équipage opère au niveau inférieur, en faisant tourner un cabestan géant, et jusqu'à quatre passagers peuvent prendre place à cet étage, ce qui est suffisant pour l'équipage complet d'une bombarde. Les autres niveaux peuvent accueillir 50 passagers chacun. Les étages sont spécialement conçus pour protéger les personnes se trouvant à l'intérieur de la tour de batterie (ou pour offrir une couverture standard si la tour de batterie est @UUID[Compendium.pf2e.conditionitems.6dNUvdb1dhToNDj3]{Brisée}). Une échelle massive traverse en diagonale le centre de la tour de batterie, de l'avant de l'étage supérieur à l'arrière de l'étage inférieur. L'échelle est suffisamment large pour que deux membres d'équipage ou passagers puissent y monter simultanément</p>"
                }
            }
        },
        "Sand Diver": {
            "name": "Sand Diver",
            "description": "<p>Un plongeur des sables est un véhicule présentant vaguement la forme d'un scorpion qui utilise des réactions alchimiques pour se propulser. La structure en forme de queue agit comme un puits de chaleur et libère des vapeurs alchimiques derrière le plongeur lorsqu'il creuse. Au lieu de pinces, il possède deux mécanismes permettant de creuser à l'avant qui lui permettent de plonger à travers le sable.</p>",
            "crew": "1 pilote",
            "pilotingcheck": "Connaissance de la conduite (DD 18) ou Artisanat (DD 20)",
            "speed": "6 m, creuser 3 m (alchimique)",
            "items": {
                "PqsmKTcXOM0aNYo8": {
                    "name": "Shard Trail",
                    "description": "<p>Un plongeur des sables peut seulement @UUID[Compendium.pf2e.actionspf2e.Item.H6v1VgowHaKHnVlG]{Creuser} à travers le sable, en utilisant la chaleur et les flammes de son noyau alchimique pour lentement creuser son passage à travers. Les fumées alchimiques laissées derrière sont piégées sous terre pendant que le véhicule creuse, catalysant temporairement les fragments de sable en un sous-produit semblable à du verre. Les créatures qui Creusent dans une zone où ce véhicule a creusé au cours des dernières 24 heures subissent @Damage[1d12[piercing]]{1d12 dégâts perforants} à cause des éclat de sable (@Check[type:fortitude|dc:17|basic:true|name:Éviter les éclats]). Une créature qui continue à creuser le long de la même voie que celle que le plongeur des sables a récemment creusé doit continuer à faire ce jet la première fois lors de chaque round où elle creuse à travers les éclats.</p>"
                },
                "rDwfQJPnK5YyRx7v": {
                    "name": "Sluggish",
                    "description": "<p>Ce véhicule doit se déplacer de deux fois sa longueur pour chaque virage à 90 degrés qu'il effectue.</p>"
                }
            }
        },
        "Sand Barge": {
            "name": "Sand Barge",
            "crew": "1 pilote, 2 membres d'équipage",
            "pilotingcheck": "Diplomatie (DD 24), Intimidation (DD 24) ou Connaissance de la navigation (DD 22)",
            "speed": "12 m (rames, vent)",
            "items": {
                "rvLRBCsFQMdUKtar": {
                    "name": "Sand Skimmer",
                    "description": "<p>La barge des sables peut voyager aussi bien sur le sable, l'eau ou les sables mouvants mais elle ne peut traverser un sol solide.</p>"
                }
            }
        },
        "Hot Air Balloon": {
            "name": "Hot Air Balloon",
            "crew": "1 pilote",
            "pilotingcheck": "Connaissance de la conduite (DD 16) ou Nature (DD 18)",
            "speed": "vol 6 m (vent)",
            "items": {
                "PLw9fb62MWWOHQ3N": {
                    "name": "Drifter",
                    "description": "<p>La montgolfière ne peut pas être dirigée et compte sur les courants des vents favorables pour la mener dans la bonne direction. Si le pilote ne parvient pas à garder le contrôle de la montgolfière, celle-ci dérive dans la direction où le vent la porte, se déplaçant jusqu'à quatre fois sa Vitesse à chaque tour, déterminé par le MJ.</p>"
                }
            }
        },
        "Cutter": {
            "name": "Cutter",
            "crew": "1 pilote, 3 membres d'équipage",
            "pilotingcheck": "Nature (DD 24) ou Connaissance de la navigation (DD 22)",
            "speed": "nage 9 m (vent)",
            "items": {
                "RJf32Bczb9zQaFqs": {
                    "name": "Sluggish",
                    "description": "<p>Ce véhicule doit se déplacer de deux fois sa longueur pour chaque virage à 90 degrés qu'il effectue.</p>"
                }
            }
        },
        "Sky Chariot (Medium)": {
            "name": "Sky Chariot (Medium)",
            "crew": "1 pilote",
            "pilotingcheck": "Arcanes (DD 29), Nature (DD 29 à 37, en fonction des créatures de trait) ou Connaissance du pilotage (DD 27)",
            "speed": "la Vitesse de vol de la plus lente des créatures de trait (tracté par 4 créatures Grandes, 2 créatures Très grandes ou 1 créature Gigantesque)"
        },
        "Snail Coach": {
            "name": "Snail Coach",
            "description": "<p>Ayant la forme de l'animal qui lui donne son nom, le coche escargot est propulsé par une combinaison de magie et d'adhésifs alchimiques avec une coquille extérieure solide pour se protéger des attaques. La piste laissée par la colle adhésive du véhicule sur la route permet l'escalade et laisse derrière elle une traînée qui représente un obstacle pour les ennemis qui le poursuivent.</p>",
            "crew": "1 pilote",
            "pilotingcheck": "Connaissance de la conduite (DD 23) ou Artisanat (DD 25)",
            "speed": "4,5 m, escalade 4,5 m (alchimique, magique)",
            "items": {
                "cFwKXyV5W3o1v3KK": {
                    "name": "Adhesive Secretions",
                    "description": "<p>Ce véhicule secrète une colle alchimique adhésive qui permet de coller et escalader des surfaces solides. Les espaces où le coche escargot est passé deviennent du terrain difficile pendant 1 round. Toute créature qui termine son tour sur la colle doit réussir un jet de @Check[type:reflex|dc:23|name:Éviter la colle] ou subir une pénalité de statut de -3 mètres à ses Vitesses pendant 1 round. En cas d'échec critique, la créature est aussi @UUID[Compendium.pf2e.conditionitems.Item.eIcWbB5o3pP6OIMe]{Immobilisée} pendant 1 round (@UUID[Compendium.pf2e.actionspf2e.Item.SkZAQRkLLkmBQNB9]{S'échapper} DD 23).</p>"
                }
            }
        },
        "Shark Diver": {
            "name": "Shark Diver",
            "crew": "1 pilote, 4 membres d'équipage",
            "pilotingcheck": "Artisanat (DD 30) ou Connaissance du pilotage (DD 28)",
            "speed": "nager 12 m (alchimique)",
            "items": {
                "O5JvDSJWNWG2VtpR": {
                    "name": "Electrify",
                    "description": "<p><strong>Fréquence</strong> Une fois par minute</p>\n<hr />\n<p><strong>Effet</strong> Deux membres d'équipage accomplissent chacun une activité à 2 actions lors de leur tour pour émettre une pulsation électrique, infligeant @Damage[6d6[electricity]]{6d6 dégâts électriques} à toutes les créatures dans @Template[type:emanation|distance:10]{une émanation de 3 mètres} du requin plongeur. L'équipage et les passagers du requin plongeur ne sont pas affectés. Les créatures affectées doivent tenter un jet de @Check[type:fortitude|dc:28|basic:true].</p>"
                },
                "V86H5yeH71jmelzY": {
                    "name": "Submersible",
                    "description": "<p>Le requin plongeur peut voyager sous la surface de l'eau, en transportant un réservoir d'air permettant de Maintenir 11 créatures moyennes jusqu'à 24 heures. Le requin plongeur peut atteindre en toute sécurité une profondeur de 90 m. S'il est brisé; le requin plongeur perd de l'air de son réservoir, réduisant l'air emmagasiné de 10 minutes par round. Un requin plonguer voit sa profondeur maximale de plongée réduite de moitié.</p>"
                }
            }
        },
        "Clockwork Castle": {
            "name": "Clockwork Castle",
            "description": "<p>Bien que le nom exagère un peu sa taille réelle, un château magique est néanmoins une forteresse assez grande bâtie sur dix pattes semblables à des pattes d'araignées mécaniques. Cette structure possède trois étages avec des logements luxueux. Les légendes parlent d'un château mécanique unique, beaucoup plus grand qu'un chateau de cette taille, peut-être un artefact à part entière.</p>",
            "crew": "1 pilote, 2 membres d'équipage",
            "pilotingcheck": "Connaissance de la conduite (DD 35), Arcanes (DD 39) ou Artisanat (DD 37)",
            "speed": "12 m (magique, mécanique)",
            "items": {
                "0CcYSQlAiZcoMkF0": {
                    "name": "Skewering Step",
                    "description": "<p>Deux membres d'équipage accomplissent une activité à 3 actions à leur tour pour embrocher les ennemis proches avec les pattes du château mécanique. Toutes les créatures en-dessous ou adjacentes au véhicule subissent @Damage[7d8[piercing]]{7d8 dégâts perforants} (@Check[type:reflex|dc:35|basic:true|name:Éviter les pattes]) à la fin du tour du second personnage.</p>"
                },
                "3WQ9vWhVa2yyJCcV": {
                    "name": "Luxurious Accommodations",
                    "description": "<p>Ce véhicule contient un pont, une salle des machines, des chambres à coucher privées pour 13 créatures et quatre pièces supplémentaires (habituellement une salle à manger, une cuisine, une salle d'eau et une salle de réunion).</p>"
                },
                "MBdI0c7xv3ufaJM8": {
                    "name": "Environmental Protections",
                    "description": "<p>La température de l'intérieur du véhicule est maintenue magiquement. Les créatures dans ce véhicule sont protégées du froid et du chaud sévères et extrêmes.</p>"
                },
                "VqS08x8SzApqcmVy": {
                    "name": "Weapon Mounts",
                    "description": "<p>Ce véhicule dispose de quatre supports d'armes sur le toit, un à chaque coin du véhicule. À l'achat, ces tourelles sont vides. Installer ou désinstaller une arme demande 10 minutes et une test réussi d'@Check[type:crafting|dc:35|name:Installer une arme] ainsi que de disposer de l'arme appropriée. Trois de ces supports d'arme peuvent être équipés d'une arme à distance et le quatrième peut contenir une arme de siège à distance de taille Grande ou plus petite.</p>"
                },
                "dabct2Mb2XcbWKwb": {
                    "name": "Maneuverable",
                    "description": "<p>Ce véhicule est monté sur des pattes semblables à des pattes d'araignées qui permettent un de tourner rapidement, de se retourner sur place et même de se déplacer en arrière. Chaque virage à 90 degrés effectué en moins d'une longueur de véhicule coûte 1,5 mètre de mouvement supplémentaires. Ainsi, par exemple, il faut 3 mètres de mouvement pour que le véhicule fasse demi-tour et commence à se déplacer vers l'arrière. Le véhicule perd ces avantages lorsqu'il est @UUID[Compendium.pf2e.conditionitems.Item.6dNUvdb1dhToNDj3]{Brisé}.</p>"
                },
                "tS9MnEsewMslgzhi": {
                    "name": "Wind-Up",
                    "description": "<p>10 minutes pour remonter, 1 heure de temps opérationnel, DD 35, veille</p>\n<hr />\n<p>Pour qu'un mécanisme puisse fonctionner, il doit être remonté avec une clé unique par une autre créature. Cela prend 1 minute. Une fois remonté, il reste opérationnel pendant 24 heures, après quoi il ne perçoit plus son environnement et ne peut plus agir jusqu'à ce qu'il soit remonté. Certaines capacités de créatures mécaniques exigent qu'elles dépensent une partie de leur temps de fonctionnement restant. Elles ne peuvent pas en dépenser plus qu'elles n'en ont et s'arrêtent immédiatement lorsqu'il ne leur reste plus de temps. Comme on ne sait pas quand une créature mécanique a été remontée pour la dernière fois, la plupart des gardiens de créatures mécaniques les remontent à une heure fixe, généralement 8 heures du matin.</p>\n<p>Une créature mécanique peut passer en mode veille en dépensant 3 actions. Son temps de fonctionnement ne diminue pas en mode veille, mais elle peut percevoir son environnement (avec une pénalité de -2 à la Perception). Elle ne peut pas agir, à une exception près : lorsqu'elle perçoit une créature, elle peut sortir de son mode veille avec une réaction (en faisant un jet d'initiative si nécessaire).</p>\n<p>Une créature peut tenter un jet pour @UUID[Compendium.pf2e.actionspf2e.Item.cYdz2grcOcRt4jk6]{Désamorcer un dispositif} avec le DD listé dessus, pour réduire le temps de fonctionnement. Pour chaque succès, le mécanisme perd 1 heure de temps opérationnel. Ceci peut être fait même si le mécanisme est en mode veille.</p>"
                }
            }
        },
        "Adaptable Paddleboat": {
            "name": "Adaptable Paddleboat",
            "description": "<p>Ce bateau mécanique amphibie se déplace à travers l'eau en utilisant des roues à aube pour maintenir un rhytme lent et régulier. Lorsque c'est nécessaire, le bateau utilise des mécanismes ingénieux pour repositionner les roues à aube et les transformer en roues adaptées au voyage terrestre.</p>",
            "crew": "1 pilote",
            "pilotingcheck": "Connaissance de la conduite (DD 16), Connaissance de la navigation (DD 16) ou Artisanat (DD 18)",
            "speed": "nage 4,5 m (mécanique)",
            "items": {
                "3Vt9tFjjJmSsJ99w": {
                    "name": "Wind-Up",
                    "description": "<p>10 minutes pour remonter, 1 heure de temps opérationnel, DD 16, veille</p>\n<hr />\n<p>Pour qu'un mécanisme puisse fonctionner, il doit être remonté avec une clé unique par une autre créature. Cela prend 1 minute. Une fois remonté, il reste opérationnel pendant 24 heures, après quoi il ne perçoit plus son environnement et ne peut plus agir jusqu'à ce qu'il soit remonté. Certaines capacités de créatures mécaniques exigent qu'elles dépensent une partie de leur temps de fonctionnement restant. Elles ne peuvent pas en dépenser plus qu'elles n'en ont et s'arrêtent immédiatement lorsqu'il ne leur reste plus de temps. Comme on ne sait pas quand une créature mécanique a été remontée pour la dernière fois, la plupart des gardiens de créatures mécaniques les remontent à une heure fixe, généralement 8 heures du matin.</p>\n<p>Une créature mécanique peut passer en mode veille en dépensant 3 actions. Son temps de fonctionnement ne diminue pas en mode veille, mais elle peut percevoir son environnement (avec une pénalité de -2 à la Perception). Elle ne peut pas agir, à une exception près : lorsqu'elle perçoit une créature, elle peut sortir de son mode veille avec une réaction (en faisant un jet d'initiative si nécessaire).</p>\n<p>Une créature peut tenter un jet pour @UUID[Compendium.pf2e.actionspf2e.Item.cYdz2grcOcRt4jk6]{Désamorcer un dispositif} avec le DD listé dessus, pour réduire le temps de fonctionnement. Pour chaque succès, le mécanisme perd 1 heure de temps opérationnel. Ceci peut être fait même si le mécanisme est en mode veille.</p>"
                },
                "UZrxxtljdLoLewB9": {
                    "name": "Deploy Wheels",
                    "description": "<p>Le pilote actionne un levier qui active les composants mécaniques pour transformer les roues à aubes du bateau adaptable en roues permettant de rouler sur le sol. Cela confère au bateau à rames ajustable une Vitesse de 6 m et réduit sa Vitesse de nage à 1,5 m. Cette transformation dure jusqu'à ce que le pilote désengage les roues en utilisant à nouveau cette activité.</p>"
                }
            }
        },
        "Galley": {
            "name": "Galley",
            "crew": "1 pilote, 20 rameurs",
            "pilotingcheck": "Connaissance de la navigation (DD 27), Diplomatie (DD 29) ou Intimidation (DD 29))",
            "speed": "nage 6 m (à rames, vent)",
            "items": {
                "tFb8nV3bxHVLeU8Z": {
                    "name": "Maneuverable",
                    "description": "<p>Avec un équipage au complet de rameurs compétents, une galère à rames peut tourner rapidement, tourner sur ell-même et même ramer vers l'arrière. Chaque virage à 90 degrés effectué en moins d'une longueur de véhicule coûte 1,5 mètre de mouvement supplémentaires. Elle peut ramer en arrière à un maximum de mi-vitesse et elle ne peut tourner tant qu'elle rame vers l'arrière.</p>"
                }
            }
        },
        "Steam Trolley": {
            "name": "Steam Trolley",
            "description": "<p>Une carriole à vapeur est essentiellement un plus grand chariot à vapeur avec un chaudron et un fourneau alchimiques plus puissants alimentant un plus grand moteur à vapeur.</p>",
            "crew": "1 pilote, 1 membre d'équipage",
            "pilotingcheck": "Connaissance de la conduite (DD 19) ou Artisanat (DD 21)",
            "speed": "7,5 m (alchimique)"
        },
        "Chariot (Light)": {
            "name": "Chariot (Light)",
            "crew": "1 pilote",
            "pilotingcheck": "Connaissance de la conduite (DD 14) ou Nature (DD 16 à DD 24, en fonction des créatures de trait)",
            "speed": "la Vitesse de la plus lente des créatures de trait (tracté par une créature de taille Grande)"
        },
        "Wagon": {
            "name": "Wagon",
            "crew": "1 pilote",
            "pilotingcheck": "Connaissance de la conduite (DD 15) ou Nature (DD 17 à DD 25, en fonction des créatures de trait)",
            "speed": "la Vitesse de la plus lente des créatures de trait (tracté par 2 créatures Grandes)"
        },
        "Apparatus of the Octopus": {
            "name": "Apparatus of the Octopus",
            "description": "<p>Cet appareil, qui a la forme d'une pieuvre (ou plus rarement celle d'un calamar ou d'une autre créature aquatique), utilise pratiquement entièrement une propulsion magique. Différents composants mécaniques constituent les commandes et les mécanismes destinés à améliorer certaines fonctionnalités mais c'est la magie qui alimente le mouvement des engrenages du véhicule. Bien que l'appareil n'ait besoin que d'un pilote, il peut accepter facultativement un second membre d'équipage, qui peut s'avérer utile pour manœuvrer les mains ou les yeux de l'appareil.</p>",
            "crew": "1 pilote",
            "pilotingcheck": "Connaissance de la conduite (DD 28) ou Artisanat (DD 30)",
            "speed": "1,5 m, nage 12 m (magique, mécanique)",
            "items": {
                "KFSpJiu6uoHoZl1b": {
                    "name": "Manipulate Hands",
                    "description": "<p>Un membre de l'équipage actionne un levier qui ressemble à une manette pour étendre et manipuler les mains de l'appareil. Bien que les mains ne puissent pas attaquer, elles peuvent accomplir des actions telles que @UUID[Compendium.pf2e.actionspf2e.Item.cYdz2grcOcRt4jk6]{Désamorcer un dispositif}, @UUID[Compendium.pf2e.actionspf2e.Item.RDXXE7wMrSPCLv5k]{Voler} quelque chose ou ouvrir le bouchon d'une fiole de potion et peuvent agripper/empoigner et porter un Encombrement de 50 au maximum.</p>"
                },
                "jv3XUW2upC7aFRtR": {
                    "name": "Open Eyes",
                    "description": "<p>Un membre de l'équipage actionne un levier pour ouvrir les yeux de l'appareil, qui émettent de la lumière vive dans un rayon de 6 mètres et une lumière faible dans les 6 mètres suivants. Un membre de l'équipage peut accomplir une fois de plus cette action pour Fermer les yeux.</p>"
                },
                "mTjyYbkFbVeKoGO8": {
                    "name": "Submersible",
                    "description": "<p>L'appareil pieuvre peut protéger son équipage et ses passagers de la pression de l'eau jusqu'à une profondeur maximale de 1 500 mètres et contient assez d'air pendant 12 heures pour un pilote seul ou pour 6 heures pour un pilote et un passager ou un membre d'équipage.</p>"
                },
                "uoev6dRtG1YFWPrn": {
                    "name": "Open Portholes",
                    "description": "<p>Un membre de l'équipage actionne un levier pour ouvrir deux hublots, permettant à l'équipage de regarder en dehors de l'appareil et permettant aux créatures à l'extérieur de regarder dans l'appareil. Un membre de l'équipage peut accomplir cette action une nouvelle fois pour fermer les hublots.</p>"
                }
            }
        },
        "Ambling Surveyor": {
            "name": "Ambling Surveyor",
            "description": "<p>Cet énorme appareil à mécanisme magique se déplace sur de lourdes chenilles qui facilitent la navigation de l'appareil dans diverses conditions défavorables. Il contient des oiseaux à mécanismes magiques qui peuvent transmettre des informations visuelles à l'enquêteur.</p>",
            "crew": "1 pilote, 2 membres d'équipage",
            "pilotingcheck": "Connaissance de la conduite (DD 32) ou Artisanat (DD 34)",
            "speed": "4,5 m (magique, mécanique)",
            "items": {
                "DoCusD26UNQbmFNI": {
                    "name": "Continous Track",
                    "description": "<p>Ce véhicule se déplace sur une bande continue de lourdes chenilles entraînées par une série d'engrenages et de roues, ce qui lui permet de parcourir aisément des terrains accidentés. La terre, la roche, les gravats, les pentes et les broussailles ne sont pas des terrains difficiles pour un arpenteur ambulant. L'arpenteur ambulant ignore le terrain difficile causé par la terre, la roche, les gravats, les pentes et les broussailles et le terrain très difficile provoqué par ces caractéristiques est un terrain difficile normal pour l'arpenteur ambulant.</p>"
                },
                "R4Co971n6x5ZNJHd": {
                    "name": "Wind-Up",
                    "description": "<p>10 minutes pour remonter, 1 heure de temps opérationnel, DD 32, veille</p>\n<hr />\n<p>Pour qu'un mécanisme puisse fonctionner, il doit être remonté avec une clé unique par une autre créature. Cela prend 1 minute. Une fois remonté, il reste opérationnel pendant 24 heures, après quoi il ne perçoit plus son environnement et ne peut plus agir jusqu'à ce qu'il soit remonté. Certaines capacités de créatures mécaniques exigent qu'elles dépensent une partie de leur temps de fonctionnement restant. Elles ne peuvent pas en dépenser plus qu'elles n'en ont et s'arrêtent immédiatement lorsqu'il ne leur reste plus de temps. Comme on ne sait pas quand une créature mécanique a été remontée pour la dernière fois, la plupart des gardiens de créatures mécaniques les remontent à une heure fixe, généralement 8 heures du matin.</p>\n<p>Une créature mécanique peut passer en mode veille en dépensant 3 actions. Son temps de fonctionnement ne diminue pas en mode veille, mais elle peut percevoir son environnement (avec une pénalité de -2 à la Perception). Elle ne peut pas agir, à une exception près : lorsqu'elle perçoit une créature, elle peut sortir de son mode veille avec une réaction (en faisant un jet d'initiative si nécessaire).</p>\n<p>Une créature peut tenter un jet pour @UUID[Compendium.pf2e.actionspf2e.Item.cYdz2grcOcRt4jk6]{Désamorcer un dispositif} avec le DD listé dessus, pour réduire le temps de fonctionnement. Pour chaque succès, le mécanisme perd 1 heure de temps opérationnel. Ceci peut être fait même si le mécanisme est en mode veille.</p>"
                },
                "Yr2rxvC8Hzmb70KZ": {
                    "name": "Sluggish",
                    "description": "<p>Ce véhicule doit se déplacer de deux fois sa longueur pour chaque virage à 90 degrés qu'il effectue.</p>"
                },
                "eXdF4IskaccqgTpS": {
                    "name": "Survey",
                    "description": "<p><strong>Conditions</strong> L'enquêteur ambulant n'est pas en déplacement</p>\n<hr />\n<p><strong>Effet</strong> Le pilote et l'équipage libèrent une série de six oiseaux mécaniques, qui passent deux heures à voler par dessus la zone environnante dans les 1,5 kilomètre autour de l'enquêteur ambulant. Tous ce que les oiseaux voient est magiquement transmis en retour à l'équipage de l'enquêteur ambulant sous la forme d'images illusoires que l'équipage doivent transcrire en temps réel s'ils veulent utiliser l'information pour surveiller pleinement la zone et établir une carte. Après deux heures, les oiseaux reviennent. Les oiseaux utilisent les statistiques de base d'un @UUID[Compendium.pf2e.pathfinder-bestiary-3.Actor.cKZtOsBlN3Qu8Kyq]{espion mécanique} s'ils sont attaqués ou si la Perception est importante pour déterminer ce qu'ils peuvent percevoir, bien qu'ils n'accomplissent que l'action Surveiller et qu'ils ne possèdent pas d'autres capacités d'un espion mécanique. Des oiseaux de remplacement coûtent 250 po chacun.</p>"
                }
            }
        },
        "Automated Cycle": {
            "name": "Automated Cycle",
            "description": "<p>Ce vélo mécanique fournit la majeure partie de sa mobilité grâce à des engrenages, qui permettent au vélo de se déplacer à un rythme raisonnable sans que le pilote ait à fournir un effort de pédalage significatif. Le pilote utilise un système de pédales et un guidon pour contrôler la vitesse et la direction du véhicule. Le véhicule est équipé de deux nacelles, de part et d'autre du pilote.</p>",
            "crew": "1 pilote",
            "pilotingcheck": "Connaissance de la conduite (DD 15) ou Artisanat (DD 17)",
            "speed": "9 m (mécanique)",
            "items": {
                "L0S2jaWemV8ndKIE": {
                    "name": "Sidecars",
                    "description": "<p>Chacune des deux nacelles peut contenir 1 passager ou un Encombrement de 10. La Vitesse de ce vélo automatisé est réduite de 1,5 m pour chaque nacelle qui contient un passager ou du fret.</p>"
                },
                "lctMsuE0KxKUZgnH": {
                    "name": "Wind-Up",
                    "description": "<p>10 minutes pour remonter, 1 heure de temps opérationnel, DD 14, veille</p>\n<hr />\n<p>Pour qu'un mécanisme puisse fonctionner, il doit être remonté avec une clé unique par une autre créature. Cela prend 1 minute. Une fois remonté, il reste opérationnel pendant 24 heures, après quoi il ne perçoit plus son environnement et ne peut plus agir jusqu'à ce qu'il soit remonté. Certaines capacités de créatures mécaniques exigent qu'elles dépensent une partie de leur temps de fonctionnement restant. Elles ne peuvent pas en dépenser plus qu'elles n'en ont et s'arrêtent immédiatement lorsqu'il ne leur reste plus de temps. Comme on ne sait pas quand une créature mécanique a été remontée pour la dernière fois, la plupart des gardiens de créatures mécaniques les remontent à une heure fixe, généralement 8 heures du matin.</p>\n<p>Une créature mécanique peut passer en mode veille en dépensant 3 actions. Son temps de fonctionnement ne diminue pas en mode veille, mais elle peut percevoir son environnement (avec une pénalité de -2 à la Perception). Elle ne peut pas agir, à une exception près : lorsqu'elle perçoit une créature, elle peut sortir de son mode veille avec une réaction (en faisant un jet d'initiative si nécessaire).</p>\n<p>Une créature peut tenter un jet pour @UUID[Compendium.pf2e.actionspf2e.Item.cYdz2grcOcRt4jk6]{Désamorcer un dispositif} avec le DD listé dessus, pour réduire le temps de fonctionnement. Pour chaque succès, le mécanisme perd 1 heure de temps opérationnel. Ceci peut être fait même si le mécanisme est en mode veille.</p>"
                }
            }
        },
        "Cart": {
            "name": "Cart",
            "crew": "1 pilote",
            "pilotingcheck": "Connaissance de la conduite (DD 14) ou Nature (DD 16 à DD 24 en fonction de la créature de trait)",
            "speed": "la Vitesse de la plus lente créature de trait (tracté par 1 créature Grande)"
        },
        "Siege Tower": {
            "name": "Siege Tower",
            "description": "<p>La Tour de siège utilise la propulsion poussée, qui est régi par les même règles que la propulsion tirée.</p>",
            "crew": "1 pilote, 9 pousseurs",
            "pilotingcheck": "Diplomatie (DD 21), Intimidation (DD 21), ou Connaissance de la guerre (DD 19)",
            "speed": "3 m (poussé par les pousseur de l'équipage)",
            "items": {
                "jslLtykhA68xleGI": {
                    "name": "Tiered",
                    "description": "<p>Une tour de siège comporte cinq niveaux. Le niveau inférieur abrite l'équipage, et chaque niveau supérieur peut accueillir jusqu'à 10 passagers. Les niveaux sont spécifiquement conçus pour protéger les personnes se trouvant dans la tour de siège et leur donner une un abri important (ou un abri standard si la tour de siège est brisée). Chaque niveau est relié à celui qui le précède par une échelle de 2 mètres.<br />La tour de siège possède un corvus à son niveau le plus élevé : un pont vertical qui peut être abaissé pour permettre aux créatures de franchir les brèches. Abaisser le corvus prend un total de 3 actions d'Interaction. Déplacer la tour de siège alors que le corvus est abaissé est très dangereux, surtout pour ceux qui se trouvent sur le corvus. Lorsqu'il est ouvert, les créatures de l'étage supérieur n'ont pas de couverture du côté du corvus, et les créatures sur le corvus abaissé n'ont pas de couverture sauf par en dessous</p>"
                },
                "uIzebnQMmGWvKMo5": {
                    "name": "Sluggish",
                    "description": "<p>Ce véhicule doit se déplacer de deux fois sa longueur pour chaque virage à 90 degrés qu'il effectue.</p>"
                }
            }
        },
        "Speedster": {
            "name": "Speedster",
            "description": "<p>Un bolide est un hybride fuselé léger mécanique au châssis aérodynamique qui fonctionne à la vapeur alchimique, qui a une vague forme de cheval ou de tout autre créature conçue pour la vitesse. Les bolides sont construits pour maintenir un rythme rapide qui peut devenir encore plus rapide pendant de brèves périodes de temps en libérant la pression de la vapeur accumulée pour obtenir une poussée de vitesse supplémentaire.</p>",
            "crew": "1 pilote",
            "pilotingcheck": "Connaissance de la conduite (DD 27) ou Artisanat (DD 29)",
            "speed": "15 m (alchimique, mécanique)",
            "items": {
                "R2SaS8szVUWwiHQr": {
                    "name": "Streamlined",
                    "description": "<p>Ce véhicule léger n'a pas d'espace supplémentaire pour du fret.</p>"
                },
                "iU2xj2sIMM3UdezU": {
                    "name": "Speed Boost",
                    "description": "<p>Le pilote laisse échapper de la vapeur alchimique montée en pression dans le moteur afin d'augmenter la vitesse temporairement. Pendant [[/r 1d4 #rounds]]{1d4 rounds}, la Vitesse du bolide est de 24 mètres et toutes les actions de mouvement prises par le pilote obtiennent le trait téméraire. Lorsque le pilote utilise une action qui possède le trait téméraire, le pilote utilise un degré de succès en moins que celui qu'il a obtenu sur son test de pilotage. Le bolide ne peut plus utiliser la Poussée de vitesse pendant 1 heure car il faut du temps pour régénérer la pression.</p>"
                },
                "kr1leAaQlGXDTwn6": {
                    "name": "Wind-Up",
                    "description": "<p>10 minutes pour remonter, 2 heures de temps opérationnel, DD 28, veille</p>\n<hr />\n<p>Pour qu'un mécanisme puisse fonctionner, il doit être remonté avec une clé unique par une autre créature. Cela prend 1 minute. Une fois remonté, il reste opérationnel pendant 24 heures, après quoi il ne perçoit plus son environnement et ne peut plus agir jusqu'à ce qu'il soit remonté. Certaines capacités de créatures mécaniques exigent qu'elles dépensent une partie de leur temps de fonctionnement restant. Elles ne peuvent pas en dépenser plus qu'elles n'en ont et s'arrêtent immédiatement lorsqu'il ne leur reste plus de temps. Comme on ne sait pas quand une créature mécanique a été remontée pour la dernière fois, la plupart des gardiens de créatures mécaniques les remontent à une heure fixe, généralement 8 heures du matin.</p>\n<p>Une créature mécanique peut passer en mode veille en dépensant 3 actions. Son temps de fonctionnement ne diminue pas en mode veille, mais elle peut percevoir son environnement (avec une pénalité de -2 à la Perception). Elle ne peut pas agir, à une exception près : lorsqu'elle perçoit une créature, elle peut sortir de son mode veille avec une réaction (en faisant un jet d'initiative si nécessaire).</p>\n<p>Une créature peut tenter un jet pour @UUID[Compendium.pf2e.actionspf2e.Item.cYdz2grcOcRt4jk6]{Désamorcer un dispositif} avec le DD listé dessus, pour réduire le temps de fonctionnement. Pour chaque succès, le mécanisme perd 1 heure de temps opérationnel. Ceci peut être fait même si le mécanisme est en mode veille.</p>"
                }
            }
        },
        "Sand Racer": {
            "name": "Sand Racer",
            "crew": "1 pilote",
            "pilotingcheck": "Connaissance pilotage (DD 30), Artisanat (DD 35), Arcanes (DD 36)",
            "speed": "27 m (thastéron)",
            "items": {
                "3KAdN0CvRHGl0Fap": {
                    "name": "Exploratory Kit",
                    "description": "<p>Les bolides des sables sont bâtis pour l'exploration à longues distance dans les déserts désolés, et ont une capacité de stockage de @UUID[Compendium.pf2e.equipment-srd.L9ZV076913otGtiB]{Rations} qui peuvent durent 14 jours pour une créature de taille moyenne et 14 jours de carburant. Ils ont aussi un petit compartiment de stockage sur le devant qui est habituellement réservé à un @UUID[Compendium.pf2e.equipment-srd.vLGDUFrg4yGzpTQX]{Trousse de réparation} et des pièces mécaniques de remplacement.</p>"
                },
                "PCG0t8B7xMicbSIn": {
                    "name": "Burning Exhaust",
                    "description": "<p>Tentez un test de deux actions pour Piloter pour manoeuvrer le Bolide des sables.</p>\n<hr />\n<p><strong>SUccès critique</strong> Le bolide des sable se déplace à sa Vitesse et peut faire un virage normalement. Choisissez jusqu'à deux créatures adjacente au bolide des sables au début de son mouvement. Les deux créatures subissent @Damage[6d6[fire]]{6d6 dégâts de feu} du tuyau d'échappement brûlant du bolide des sables (@Check[type:reflex|dc:30|basic:true]).</p>\n<p><strong>Succès</strong> Comme en cas de succès critique, mais choisissez une seule créature.</p>\n<p><strong>Échec</strong> Comme en cas de succès, mais la créature gagne un bonus de circonstances de +4 à son jet de sauvegarde Réflexes, et la bolide des sables se déplace à sa Vitesse en ligne droite.</p>\n<p><strong>Échec critique</strong> Vous ratez votre tentative de porter des dégâts aux créatures avec votre tuyau d'échappement. Le bolide des sables se déplace à sa Vitesse en ligne droite et devient incontrôlable.</p>"
                },
                "TbqVUPF2iKI2xCCf": {
                    "name": "Speed Boost",
                    "description": "<p><strong>Effet</strong> Le pilote déclenche l'injection de thasteron directement dans l'engin du bolide des sables afin d'augmenter sa vitesse. Pendant un round le bolide des stable gagne une vitesse de 54 mètres, tout les tests de pilotages avec le bolide des sables gagnent le trait téméraire, et le pilote gagne un bonus de circonstances de +2 à tous ses tests d'Acrobatie ou de pilotage pour des défis spécifiques de navigation. Un boost de vitesse est terriblement improductif et consomme une journée de carburant.</p>"
                }
            }
        },
        "Firework Pogo": {
            "name": "Firework Pogo",
            "crew": "1 pilote",
            "pilotingcheck": "Artisanat (DD 21) ou Connaissance du pilotage (DD 19)",
            "speed": "Propulsion de saut (Alchimique)",
            "items": {
                "V0Iw3ZOvbTqoxlvz": {
                    "name": "Jump Jet",
                    "description": "<p>Le pogo feu d'artifice se déplace exclusivelment par le biais de @UUID[Compendium.pf2e.actionspf2e.Item.d5I6018Mci2SWokk]{Bond}. Pour chaque action passée à @UUID[Compendium.pf2e.actionspf2e.Item.uS3qDAgOkZ7b8ERL]{Diriger}, le pogo Bondit de 6 m horizontalement ou de 3 m verticalement.</p>"
                },
                "W01aasqmTJL5TpkW": {
                    "name": "Unstable Launch",
                    "description": "<p>Quand le pilote utilise une activité à 3 actions pour @UUID[Compendium.pf2e.actionspf2e.Item.uS3qDAgOkZ7b8ERL]{Diriger} de manière téméraire le pogo feu d'artifice, il émet une explosion de flammes au lancement qui inflige @Damage[3d6[fire]]{3d6 dégâts de feu} au pilote, au pogo lui-même et à chaque créature dans un rayon de 3 m (@Check[type:reflex|dc:19|basic:true]).</p>"
                }
            }
        },
        "Helepolis": {
            "name": "Helepolis",
            "description": "<p>L'hélepolis utilise à la fois la propulsion poussée et la propulsion tournée pour faire tourner un cabestan. La propulsion tournée utilise les mêmes règles que la propulsion à la rame. La propulsion poussée utilise les mêmes règles que la propulsion tirée.</p>",
            "crew": "1 pilote, 200 tourneurs, 3000 pousseurs",
            "pilotingcheck": "Diplomacie (DD 37), Intimidation (DD 37), ou connaissance de la guerre (DD 35)",
            "speed": "3 m (poussé, tourné)",
            "items": {
                "LUwtad4TFV730JPb": {
                    "name": "Sluggish",
                    "description": "<p>Ce véhicule doit se déplacer de deux fois sa longueur pour chaque virage à 90 degrés qu'il effectue.</p>"
                },
                "dxxn3NqH1AvntQbw": {
                    "name": "Tiered",
                    "description": "<p>Une hélépolis comporte six niveaux. L'équipage opère au niveau inférieur, en faisant tourner un cabestan géant. Il reste de la place sur ce niveau pour accueillir jusqu'à six passagers (suffisamment pour une équipe de siège de baliste lourde complète ; voir Armement). Chacun des cinq autres niveaux peut accueillir jusqu'à 60 passagers. Les niveaux sont spécialement conçus pour protéger les personnes se trouvant à l'intérieur de l'hélipolis et leur donner un abri supérieur (ou un abri standard si l'hélépolis est @UUID[Compendium.pf2e.conditionitems.6dNUvdb1dhToNDj3]{Brisé}). Une échelle massive traverse en diagonale le centre de l'hélépolis, de l'avant du niveau supérieur à l'arrière du niveau inférieur. L'échelle est suffisamment large pour que deux membres d'équipage ou passagers puissent y monter simultanément.</p>"
                },
                "gs1T9M7KLq7a9JmG": {
                    "name": "Weaponry",
                    "description": "<p>La tour de siège est chargée à ras bord d'armes de siège - typiquement hérissées de lourdes balistes aux premier et deuxième étages et de balistes aux troisième, quatrième et cinquième étages. Le prix de ces armes est inclus dans celui de l'hélépolis. Lors de la construction d'une hélépolis, vous pouvez choisir de les remplacer par d'autres armes de siège d'un prix inférieur. Si vous voulez une arme de siège plus chère, vous devez l'acheter séparément. En raison de la structure de l'hélépolis, toute arme de siège qui s'y trouve doit lancer sa charge en ligne droite. Par exemple, une baliste ou une mangeonneau peut fonctionner dans une hélépolis, mais pas une catapulte ou un trébuchet. Les passagers de l'hélépolis peuvent utiliser ces armes de siège.</p>"
                }
            }
        },
        "Clunkerjunker": {
            "name": "Clunkerjunker",
            "description": "<p>Un grand favori des gobelins, un casse-bagnole est en gros un chariot avec une armure construit à partir de rebuts et qui utilise des produits chimiques volatiles, des explosions et des réactions alchimiques pour se propulser de manière cahoteuse. Bien que l'idée initiale soit impressionnante d'inventivité et que les coûts de fabrication soient très bas, ces casses-bagnoles ont une forte tendance à tomber en panne et il passent toujours à un cheveu près d'un désastre après un cahot provoqué par un nid-de-poule placé sur la route.</p>",
            "crew": "1 pilote",
            "pilotingcheck": "Connaissance de la conduite (DD 16) ou Artisanat (DD 18)",
            "speed": "9 m (Alchimique)",
            "items": {
                "79YskaB7D1bAmIDD": {
                    "name": "Volatile Flamethrower",
                    "description": "<p>Le pilote accomplit une activité à 3 actions lors de son tour pour éjecter du feu alchimique par les tuyaux d'échappement situés sur les côtés de son véhicule. Faisant partie de l'activité, le pilote charge trois flasques de feu grégeois mineur dans le tuyau d'échappement. Le pilote doit ensuite tenter un test @Check[type:flat|dc:5]. En cas de succès, les créatures adjacentes au véhicule subissent @Damage[1d8[fire]]{1d8 dégâts de feu} ( jet de @Check[type:reflex|dc:15|basic:true|name:Éviter les flammes]). En cas d'échec, l'effet se retourne contre le pilote et les éventuels passagers, infligeant @Damage[1d8[fire]]{1d8 dégâts de feu} à ces derniers, sans jet de sauvegarde.</p>"
                },
                "Gy4AuNFAGBzfjRFq": {
                    "name": "Smog",
                    "description": "<p>3 mètres. Lorsque le véhicule est piloté, il émet continuellement un fin brouillard de feu et de substances chimiques volatiles. Les créatures dans l'aura (ce qui inclut le pilote et les passagers) subissent une pénalité de circonstances de -1 aux tests de Perception visuels.</p>"
                },
                "yKd1wGx6zmlBwk0u": {
                    "name": "Fall Apart",
                    "description": "<p>Lorsque ce véhicule subit des dégâts physiques, le pilote doit tenter un @Check[type:flat|dc:11] (ou un @Check[type:flat|dc:20] sur un critique). En cas d'échec le véhicule perd sa Solidité et subit une pénalité de circonstances de -4 à la CA.</p>"
                }
            }
        },
        "Longship": {
            "name": "Longship",
            "crew": "1 pilote, 10 rameurs",
            "pilotingcheck": "Connaissance de la navigation (DD 26), Diplomatie (DD 28) ou Intimidation DD 28",
            "speed": "nager 12 m (à rames, vent)",
            "items": {
                "MRaXvaSDe5OvOwnS": {
                    "name": "Maneuverable",
                    "description": "<p>Avec un équipage complet de rameurs compétents, un drakkar à rames peut tourner rapidement, tourner sur place et même ramer vers l'arrière. Chaque tournant de 90 degrés accompli sur moins que la longueur du véhicule coûte 1,5 m supplémentaire de mouvement. Il peut ramer en arrière pas plus vite que la moitié de sa vitesse et elle ne peut tourner lorsqu'elle rame vers l'arrière.</p>"
                }
            }
        },
        "Mobile Inn": {
            "name": "Mobile Inn",
            "description": "<p>L'auberge mobile est l'étape qui suit celle de la voiture blindée, apportant le confort limité d'une simple (et exiguë) auberge pour rendre les voyages longue distance plus supportables pour les voyageurs fortunés. Essentiellement une minuscule auberge sur roues, alimentée par des catalyseurs alchimiques et un moteur à vapeur, le véhicule est équipé d'un poêle, d'une armoire de rangement, d'un lavabo, d'une table, de deux bancs et d'une couchette compacte assez grande pour accueillir quatre personnes. Elle peut être modifiée pour accueillir un unique passager dans un confort nettement supérieur ou pour accueillir facilement 5 passagers en lui retirant ses aménagements.</p>",
            "crew": "1 pilote",
            "pilotingcheck": "Connaissance de la conduite (DD 24) ou Artisanat (DD 26)",
            "speed": "9 m (alchimique)"
        },
        "Velocipede": {
            "name": "Velocipede",
            "crew": "1 pilote",
            "pilotingcheck": "Athlétisme (DD 15) ou Connaissance du pilotage (DD 17)",
            "speed": "La vitesse du pilote (pédalé [comme à rames])",
            "items": {
                "PcXltLxBnG3FD8dH": {
                    "name": "Portable",
                    "description": "<p>Le vélocipède peut être tiré sur le sol sur sa roue par une créature Moyenne. La créature est Surchargée.</p>"
                },
                "QwXzg5zGAZg4h78t": {
                    "name": "Fragile",
                    "description": "<p>Conduire le vélocipède sur un terrain difficile voit le DD augmenter de 2 et obtenir le trait téméraire.</p>"
                }
            }
        },
        "Sky Chariot (Heavy)": {
            "name": "Sky Chariot (Heavy)",
            "crew": "1 pilote",
            "pilotingcheck": "Arcanes (DD 33), Nature (DD 33 à DD 41, en fonction de la créature de trait) ou Connaissance du pilotage (DD 31)",
            "speed": "la Vitesse de vol de la plus lente créature de trait (tracté par 6 créatures Grandes, 2 créatures très grandes ou 1 créature gigantesque)"
        },
        "Sandsailer": {
            "name": "Sandsailer",
            "crew": "1 pilote, 2 membres d'équipage",
            "pilotingcheck": "Athlétisme (DD 39), Connaissance de la conduite (DD 34), Connaissance de la navigation (DD 34), Nature (DD 39)",
            "speed": "24 m (Vent)"
        },
        "Clockwork Wagon": {
            "name": "Clockwork Wagon",
            "description": "<p>Un carrosse mécanique est un véhicule lent et encombrant doté de rouages et d'engrenages qui courent tout le long, à l'intérieur comme à l'extérieur, ce qui lui permet de tirer environ deux fois plus de marchandises qu'un carrosse ordinaire. Toutefois, il dispose de moins d'espace pour les passagers qu'un carrosse ordinaire.</p>",
            "crew": "1 pilote",
            "pilotingcheck": "Connaissance de la conduite (DD 18) ou Artisanat (DD 20)",
            "speed": "6 m (mécanique)",
            "items": {
                "0pWllu1H0c2ZTJbM": {
                    "name": "Hauler",
                    "description": "<p>Ce véhicule est construit pour transporter des charges lourdes sur de longues distances. Il peut contenir jusqu'à 400 Encombrements de fret.</p>"
                },
                "38Zgv0sAfLXH2dfB": {
                    "name": "Wind-Up",
                    "description": "<p>1 heure pour remonter, 8 heures de temps opérationnel, DD 18, veille</p>\n<hr />\n<p>Pour qu'un mécanisme puisse fonctionner, il doit être remonté avec une clé unique par une autre créature. Cela prend 1 minute. Une fois remonté, il reste opérationnel pendant 24 heures, après quoi il ne perçoit plus son environnement et ne peut plus agir jusqu'à ce qu'il soit remonté. Certaines capacités de créatures mécaniques exigent qu'elles dépensent une partie de leur temps de fonctionnement restant. Elles ne peuvent pas en dépenser plus qu'elles n'en ont et s'arrêtent immédiatement lorsqu'il ne leur reste plus de temps. Comme on ne sait pas quand une créature mécanique a été remontée pour la dernière fois, la plupart des gardiens de créatures mécaniques les remontent à une heure fixe, généralement 8 heures du matin.</p>\n<p>Une créature mécanique peut passer en mode veille en dépensant 3 actions. Son temps de fonctionnement ne diminue pas en mode veille, mais elle peut percevoir son environnement (avec une pénalité de -2 à la Perception). Elle ne peut pas agir, à une exception près : lorsqu'elle perçoit une créature, elle peut sortir de son mode veille avec une réaction (en faisant un jet d'initiative si nécessaire).</p>\n<p>Une créature peut tenter un jet pour @UUID[Compendium.pf2e.actionspf2e.Item.cYdz2grcOcRt4jk6]{Désamorcer un dispositif} avec le DD listé dessus, pour réduire le temps de fonctionnement. Pour chaque succès, le mécanisme perd 1 heure de temps opérationnel. Ceci peut être fait même si le mécanisme est en mode veille.</p>"
                },
                "7OqKezdHChnhLvmc": {
                    "name": "Sluggish",
                    "description": "<p>Ce véhicule doit se déplacer de deux fois sa longueur pour chaque virage à 90 degrés qu'il effectue.</p>"
                }
            }
        },
        "Firefly": {
            "name": "Firefly",
            "description": "<p>Une luciole électrique est un mélange de magie et de technologie, utilisant la magie de l'électricité et le magnétisme pour planer juste au-dessus du sol. Bien que la luciole électrique ressemble plus à une boîte qu'à un insecte, elle doit son nom à la lueur constante de la lumière de la magie électrique qui l'alimente, ainsi qu'aux aimants stabilisateurs qui dépassent de ses côtés, à peu près à la place des ailes.</p>",
            "crew": "1 pilote",
            "pilotingcheck": "Connaissance du pilotage (DD 20), Arcanes (DD 22) ou Artisanat (DD 22)",
            "speed": "Planer 6 m (électrique, magique)",
            "items": {
                "ChjOaa11CkBJeVJ8": {
                    "name": "Glow",
                    "description": "<p>Alimenté par l'électricité magique, ce véhicule émet une lumière vive dans les 6 mètres et une lumière faible dans les 6 mètres suivants.</p>"
                },
                "XLttadhtgYoOq6f1": {
                    "name": "Flash",
                    "description": "<p>Le pilote surcharge le véhicule, ce qui provoque la création d'un flash de lumière brillante. Toutes les créatures dans la lumière vive de l'aura brillante doivent réussir un jet de @Check[type:fortitude|dc:19|name:Éviter le flash] ou être @UUID[Compendium.pf2e.conditionitems.Item.TkIyaNPgTZFBCCuh]{Éblouies} pendant 1 minute. La lumière de la luciole électrique s'affaiblit pendant 10 minutes, réduisant l'émission de lumière faible de 3 mètres. Pendant ce temps il ne peut plus utiliser Flash. Flash arrête de fonctionner si la luciole électrique est brisée.</p>"
                },
                "fG2IE4D8GEe8e98D": {
                    "name": "Hover",
                    "description": "<p>Ce véhicule est maintenu en l'air par des hélices qui tournent rapidement et lui permettent de planer à 30 centimètres au-dessus du sol. Il est incapable de voler plus haut et lorsque le pilote arrête la magie ou que le véhicule se casse, il descend de 30 centimètre jusqu'au sol. </p>"
                }
            }
        },
        "Bunta": {
            "name": "Bunta",
            "description": "<p>Ce coracle tissé à la main semble assez grand pour accueillir une seule personne. Cependant, lorsque vous pilotez le bateau, vous pouvez embarquer jusqu'à une douzaine de passagers, qui voyagent dans votre âme. Ils sont conscients de tout ce que vous ressentez et peuvent communiquer par télépathie avec vous ou les autres passagers, mais ils ne peuvent pas agir, sauf pour rappeler des connaissances et utiliser des actions qui ne requièrent que l'utilisation de leur esprit (comme déterminé par le MJ). Ils peuvent quitter votre âme, ou vous pouvez en retirer n'importe quel nombre en utilisant une action unique - qui possède le trait concentration - les faisant apparaître dans un espace adjacent à Bunta. Si vous quittez Bunta ou si vous êtes tué, toutes les créatures présentes dans votre âme sortent immédiatement de votre corps et se retrouvent dans l'espace disponible le plus proche. Si vous quittez Bunta après l'avoir piloté, vous pouvez utiliser une action simple, qui possède le trait concentration, pour stocker le bateau dans votre âme. Vous pouvez le retirer de votre âme dans une case adjacente avec une autre action de ce type. Si Bunta subit suffisamment de dégâts pour le détruire, il éclate en brume dorée, puis se reforme pendant 24 heures dans l'âme de son dernier pilote</p>",
            "crew": "1 pilote",
            "pilotingcheck": "Arcanes (DD 30), Nature (DD 30), ou Connaissance de la navigation maritime (DD 32)",
            "speed": "Vol 12 m (magique), Nage 12 m (magique), Nage 6 m (à la rame)",
            "items": {
                "QItYJDojJ9ncPNBt": {
                    "name": "Spirit Ship",
                    "description": "<p>Le <em>Bunta</em> peut être endommagé par des sorts comme @UUID[Compendium.pf2e.spells-srd.PHVHBbdHeQRfjLmE]{Coup spirituel} qui affecte directement l'esprit d'une créature, et ces effets ignorent la Solidité du <em>Bunta</em>.</p>"
                },
                "cSPwkOlj0iGk1iND": {
                    "name": "Activate",
                    "description": "<p><strong>Activation</strong> <span class=\"action-glyph\">3</span> concentration, manipulation</p>\n<p><strong>Conditions</strong> Vous pilotez le Bunta</p>\n<p><strong>Effet</strong> Une rivière d'argent s'écoule de votre cœur, allant de l'avant en une ligne qui contourne les obstacles comme s'il s'agissait d'eau. Si le <em>Bunta</em> voyage à sa Vitesse dans la rivière chaque round pendant 10 minutes, vous arrivez sur un autre plan comme si vous lanciez @UUID[Compendium.pf2e.spells-srd.5bTt2CvYHPvaR7QQ]{Téléportation interplanaire}. Vous arrivez à la destination que vous avez spécifié, ou un lieu aléatoire si nous n'avez pas le choix. Si le <em>Bunta</em> ne voyage pas à sa Vitesse minimum dans un round, vous pouvez mettre fin à cette activation. Si vous continuez, vous avez une chance cumulative de 1% d'arriver à un lieu extraplanaire aléatoire pour chaque round que le <em>Bunta</em> ne s'est pas déplacé à sa vitesse, jusqu'à un maximum de 60% si le <em>Bunta</em> ne s'est pas déplacé à sa vitesse pendant 10 minutes pleines. Aussi longtemps que vous restez sur le <em>Bunta</em>, vous êtes protégé de tout effet néfaste environnemental du plan.</p>"
                },
                "rE4lq3Kyp6tvwM6K": {
                    "name": "Destruction",
                    "description": "<p>Le <em>Bunta</em> peut être détruit de façon permanent uniquement si le Vieux mage Jatembe le détresse, puis immerge chaque roseau dans la Rivière Styx à la base de la Tour de Pharasma.</p>"
                },
                "tNXnjpVwYxDnck4o": {
                    "name": "Secret of Souls",
                    "description": "<p>Vous pilotez le <em>Bunta</em> dans l'âme d'une créature, la trouvant et la restaurant à sa vraie nature. Le <em>Bunta</em> tente de contrer tout effet magique sur la créature. Son rang de contre est de 20, avec un modificateur de +40.</p>"
                }
            }
        },
        "Cliff Crawler": {
            "name": "Cliff Crawler",
            "crew": "1 pilote, 2 membres d'équipage",
            "pilotingcheck": "Arcanes (DD 29), Connaissance de l'ingénierie, Connaissance du pilotage (DD 27) ou Nature (DD 29)",
            "speed": "escalade 12 m (magique)",
            "items": {
                "jUfFzSzu0PIwCSgB": {
                    "name": "Mountain Traverser",
                    "description": "<p>Les rochers et les pierres ne constituent pas un terrain difficile pour une chenille de falaise et il peut traverser la plupart des pans rocheux et surfaces de pierre verticaux à la moitié de sa Vitesse.</p>"
                }
            }
        },
        "Rowboat": {
            "name": "Rowboat",
            "crew": "1 pilote",
            "pilotingcheck": "Athlétisme (DD 16) ou Connaissance de la navigation (DD 14)",
            "speed": "nage 6 m (à rames)",
            "items": {
                "9UcPAPPrzEhaoWgY": {
                    "name": "Portaged",
                    "description": "<p>Le bateau à rames peut être transporté sur terre par 2 créatures de taille moyenne ou 1 créature de taille Grande. Ces créatures sont Surchargées lorsqu'elles le font.</p>"
                }
            }
        },
        "Titanic Stomper": {
            "name": "Titanic Stomper",
            "description": "<p>Parmi les véhicules les plus dangereux créés en Ustalav grâce à un mélange de magie et de la nouvelle technologie stasienne, un piétineur titanique a la forme d'un long lézard sinueux ou d'un béhir avec des bobines stasiennes soigneusement placées et huit grandes pattes capables de piétiner. Les piétineurs titaniques ont été conçus pour dévaster les armées de morts-vivants. Il n'en existe que deux, ce qui les rend presque uniques, et les moyens d'en créer d'autres font face à un obstacle car certains des inventeurs cruciaux ont été tués alors qu'ils tentaient de concevoir une technologie plus poussée, une armure mécanisée plus petite mais plus puissante appelée le Grobelarch, qui a fini par devenir enragée et a tué ses créateurs.</p>",
            "crew": "1 pilote, 3 membres d'équipage",
            "pilotingcheck": "Connaissance de la onduite (DD 34) ou Artisanat",
            "speed": "12 m, (électrique, magique)",
            "items": {
                "QUHIpCfam8YMHy6U": {
                    "name": "Electrical Absorption",
                    "description": "<p><strong>Déclencheur</strong> Le piétineur titanique est ciblé par ou dans une zone d'un effet qui inflige des dégâts d'électricité</p>\n<hr />\n<p><strong>Effet</strong> Le pilote utilise sa réaction pour activer les bobines stasiennes, qui engrangent l'électricité dans l'engin électrique du piétineur titanique. La prochaine fois que Faisceau d'électrique est utilisé au cours de la minute suivante, les dégâts qu'elle inflige passent à @Damage[7d12[electricity]]{7d12 dégâts d'électricité}.</p>"
                },
                "lTX8qPMdwaThuCnc": {
                    "name": "Quaking Step",
                    "description": "<p>Le sol tremble à chaque pas du piétineur titanique. À chaque fois que ce véhicule se déplace, les créatures au sol dans un rayon de 6 mètres sur son passage doivent tenter un jet de @Check[type:reflex|dc:32|name:Rester debout] pour rester debout. En cas d'échec, la créature est @UUID[Compendium.pf2e.conditionitems.Item.AJh5ex99aV6VTggg]{Prise au dépourvu} pendant 1 round et sur un échec critique, la créature tombe @UUID[Compendium.pf2e.conditionitems.Item.j91X7x0XSomq8d60]{À terre}.</p>"
                },
                "vDMm6mf0S2i9JMzd": {
                    "name": "Bolt Blast",
                    "description": "<p>Deux membres de l'équipage peuvent chacun accomplir une activité de 3 actions lors de leur tour pour lancer une ligne de foudre à la fin du tour du second personnage. Cette ligne de foudre jaillit à l'avant du piétineur titanique à partir d'un angle choisi par le membre de l'équipage qui inflige [[/r 5d12[electricity]]]{5d12 dégâts d'électricité} à chaque créature sur une ligne de 36 mètres (@Check[type:reflex|dc:34|basic:true|name:éviter la décharge]). La Décharge d'électricité cesse de fonctionner lorsque le piétineur titanique est @UUID[Compendium.pf2e.conditionitems.Item.6dNUvdb1dhToNDj3]{Brisé}.</p>"
                }
            }
        },
        "Cauldron of Flying": {
            "name": "Cauldron of Flying",
            "description": "<p>Un grand pot pour la cuisine de 1,2 m de hauteur et de 1,5 m de large de diamètre, légèrement bombé au milieu et évasé au sommet.</p>",
            "crew": "1 pilote",
            "pilotingcheck": "Arcanes (DD 24), Occultisme (DD 20) ou Connaissance du pilotage (DD 22)",
            "speed": "vol 9 m (magique)",
            "items": {
                "L5LOLKdKxPBT5LCB": {
                    "name": "Iron Rim",
                    "description": "<p>Le chaudron procure à son pilote un @UUID[Compendium.pf2e.other-effects.Item.I9lfZUiCwMiGogVi]{abri standard}, bien que cet abri ne procure pas typiquement de bonus aux tests de Discrétion dans la mesure où un chaudron volant est à la fois visible et suspicieux.</p>"
                }
            }
        },
        "Chariot (Heavy)": {
            "name": "Chariot (Heavy)",
            "crew": "1 pilote",
            "pilotingcheck": "Connaissance de la conduite (DD 18) ou Nature (DD 20 à DD 28 en fonction des créatures de trait)",
            "speed": "la Vitesse de la plus lente des créatures de trait (tracté par 2 créatures de Grande taille)"
        },
        "Second Kiss": {
            "name": "Second Kiss",
            "description": "<p>Le Second baiser est un navire volant massif et rigide. Une enveloppe en tissu tendu sur un squelette en bois et en métal ovale contient une douzaine de sac fermés emplis de gaz de floranine qui permet au vaisseau de s'élever dans les airs. Une paire de propulseurs actionnées par des mécanismes automatisés, montés dans des nacelles de chaque côté de la cabine de l'équipage, assure le mouvement vers l'avant. L'équipage dirige le vaisseau à l'aide de gouvernails et d'ailerons situés dans quatre énormes ailerons arrière. </p>",
            "crew": "1 pilote, 3 membres d'équipage",
            "pilotingcheck": "Connaissance du pilotage (DD 30) ou Artisanat (DD 32)",
            "speed": "Vol 9 mètres",
            "items": {
                "V0HecEvj92RlltT5": {
                    "name": "Sluggish",
                    "description": "<p>Ce véhicule doit se déplacer de deux fois sa longueur pour chaque virage à 90 degrés qu'il effectue.</p>"
                }
            }
        },
        "Steam Cart": {
            "name": "Steam Cart",
            "description": "<p>Un chariot à vapeur ressemble à un chariot avec un chaudron alchimique qui produit de la vapeur pour alimenter le mouvement du véhicule par le biais d'un moteur simple.</p>",
            "crew": "1 pilote",
            "pilotingcheck": "Connaissance de la conduite (DD 16) ou Artisanat (DD 18)",
            "speed": "7,5 m (alchimique)",
            "items": {
                "kbVUEpQsOKNyw0BS": {
                    "name": "Steam Cloud",
                    "description": "<p>Lorsque le chariot à vapeur subit des dégâts de collision, son moteur expulse un nuage dense de vapeur dans une @Template[type:emanation|distance:5]{émanation de 1,5 mètre}. Le chariot à vapeur et toutes les créatures dans la vapeur deviennent @UUID[Compendium.pf2e.conditionitems.Item.DmAIPqOBomZ7H95W]{Masqués} et les créatures en dehors du nuage à vapeur sont Masquées aux créatures dans le nuage. La vapeur se dissipe au bout d'un round.</p>"
                }
            }
        }
    },
    "mapping": {
        "description": "system.details.description",
        "crew": "system.details.crew",
        "passengers": "system.details.passengers",
        "pilotingcheck": "system.details.pilotingCheck",
        "speed": "system.details.speed",
        "items": {
            "path": "items",
            "converter": "translateActorItems"
        }
    }
}