{
    "label": "Capacités des monstres",
    "entries": {
        "At-Will Spells": {
            "name": "At-Will Spells",
            "description": "<p>@Localize[PF2E.NPC.Abilities.Glossary.AtWillSpells]</p>"
        },
        "Engulf": {
            "name": "Engulf",
            "description": "<p>Jet de @Check[type:reflex|dc:], @Damage[(0)[damageType]]{0 dégât}, DD pour S'échapper [0], Rupture [0]</p>\n<hr />\n<p>@Localize[PF2E.NPC.Abilities.Glossary.Engulf]</p>"
        },
        "Frightful Presence": {
            "name": "Frightful Presence",
            "description": "<p>0 mètres @Check[type:will|dc:]</p>\n<hr />\n<p>@Localize[PF2E.NPC.Abilities.Glossary.FrightfulPresence]</p>"
        },
        "Improved Knockdown": {
            "name": "Improved Knockdown",
            "description": "<p>@Localize[PF2E.NPC.Abilities.Glossary.ImprovedKnockdown]</p>"
        },
        "Swallow Whole": {
            "name": "Swallow Whole",
            "description": "<p>[Taille indiquée], @Damage[0[bludgeoning]]{0 contondant}, Rupture [0]</p>\n<hr />\n<p>@Localize[PF2E.NPC.Abilities.Glossary.SwallowWhole]</p>"
        },
        "Aquatic Ambush": {
            "name": "Aquatic Ambush",
            "description": "<p>@Localize[PF2E.NPC.Abilities.Glossary.AquaticAmbush]</p>"
        },
        "Light Blindness": {
            "name": "Light Blindness",
            "description": "<p>@Localize[PF2E.NPC.Abilities.Glossary.LightBlindness]</p>"
        },
        "Power Attack": {
            "name": "Power Attack",
            "description": "<p>@Localize[PF2E.NPC.Abilities.Glossary.PowerAttack]</p>"
        },
        "Swarm Mind": {
            "name": "Swarm Mind",
            "description": "<p>@Localize[PF2E.NPC.Abilities.Glossary.SwarmMind]</p>"
        },
        "Troop Defenses": {
            "name": "Troop Defenses",
            "description": "<p>@Localize[PF2E.NPC.Abilities.Glossary.TroopDefenses]</p>\n<p>@Localize[PF2E.NPC.Abilities.Glossary.TroopDefenses]</p>"
        },
        "Constrict": {
            "name": "Constrict",
            "description": "<p>@Damage[(0)[bludgeoning]]{0 contondant}, @Check[type:fortitude|dc:|basic:true]</p>\n<hr />\n<p>@Localize[PF2E.NPC.Abilities.Glossary.Constrict]</p>"
        },
        "Darkvision": {
            "name": "Darkvision",
            "description": "<p>@Localize[PF2E.NPC.Abilities.Glossary.Darkvision]</p>"
        },
        "Retributive Strike": {
            "name": "Retributive Strike",
            "description": "<p>@Localize[PF2E.NPC.Abilities.Glossary.RetributiveStrike]</p>"
        },
        "Change Shape": {
            "name": "Change Shape",
            "description": "<p>@Localize[PF2E.NPC.Abilities.Glossary.ChangeShape]</p>"
        },
        "Regeneration": {
            "name": "Regeneration",
            "description": "<p>@Localize[PF2E.NPC.Abilities.Glossary.Regeneration]</p>"
        },
        "Sneak Attack": {
            "name": "Sneak Attack",
            "description": "<p>Les Frappes de la créature infligent 1d6 dégâts de précision supplémentaires aux créatures @UUID[Compendium.pf2e.conditionitems.Item.AJh5ex99aV6VTggg]{Prises au dépourvu}.</p>"
        },
        "All-Around Vision": {
            "name": "All-Around Vision",
            "description": "<p>@Localize[PF2E.NPC.Abilities.Glossary.AllAroundVision]</p>"
        },
        "Void Healing": {
            "name": "Void Healing",
            "description": "<p>@Localize[PF2E.NPC.Abilities.Glossary.NegativeHealing]</p>"
        },
        "Improved Push": {
            "name": "Improved Push",
            "description": "<p>@Localize[PF2E.NPC.Abilities.Glossary.ImprovedPush]</p>"
        },
        "+1 Status to All Saves vs. Magic": {
            "name": "+1 Status to All Saves vs. Magic"
        },
        "Form Up": {
            "name": "Form Up",
            "description": "<p>@Localize[PF2E.NPC.Abilities.Glossary.FormUp]</p>"
        },
        "Constant Spells": {
            "name": "Constant Spells",
            "description": "<p>@Localize[PF2E.NPC.Abilities.Glossary.ConstantSpells]</p>"
        },
        "Knockdown": {
            "name": "Knockdown",
            "description": "<p>@Localize[PF2E.NPC.Abilities.Glossary.Knockdown]</p>"
        },
        "Tremorsense": {
            "name": "Tremorsense",
            "description": "<p>@Localize[PF2E.NPC.Abilities.Glossary.Tremorsense]</p>"
        },
        "Greater Constrict": {
            "name": "Greater Constrict",
            "description": "<p>@Damage[(0)[bludgeoning]]{0 contondant}, @Check[type:fortitude|dc:|basic:true]</p>\n<hr />\n<p>@Localize[PF2E.NPC.Abilities.Glossary.GreaterConstrict]</p>"
        },
        "Shield Block": {
            "name": "Shield Block",
            "description": "<p>@Localize[PF2E.NPC.Abilities.Glossary.ShieldBlock]</p>"
        },
        "Low-Light Vision": {
            "name": "Low-Light Vision",
            "description": "<p>@Localize[PF2E.NPC.Abilities.Glossary.LowLightVision]</p>"
        },
        "Telepathy": {
            "name": "Telepathy",
            "description": "<p>@Localize[PF2E.NPC.Abilities.Glossary.Telepathy]</p>"
        },
        "Aura": {
            "name": "Aura",
            "description": "<p>@Localize[PF2E.NPC.Abilities.Glossary.Aura]</p>"
        },
        "Catch Rock": {
            "name": "Catch Rock",
            "description": "<p>@Localize[PF2E.NPC.Abilities.Glossary.CatchRock]</p>"
        },
        "Lifesense": {
            "name": "Lifesense",
            "description": "<p>@Localize[PF2E.NPC.Abilities.Glossary.Lifesense]</p>"
        },
        "Nimble Dodge": {
            "name": "Nimble Dodge",
            "description": "<p><strong>Déclencheur</strong> Une créature vous cible avec une attaque et vous pouvez voir l'attaquant.</p>\n<p><strong>Conditions</strong> Vous n'êtes pas Surchargé</p>\n<hr />\n<p>Vous esquivez habilement le coup et obtenez un bonus de circonstances de +2 à la CA contre l'attaque déclencheuse.</p>"
        },
        "Thoughtsense": {
            "name": "Thoughtsense",
            "description": "<p>@Localize[PF2E.NPC.Abilities.Glossary.Thoughtsense]</p>"
        },
        "Push": {
            "name": "Push",
            "description": "<p>@Localize[PF2E.NPC.Abilities.Glossary.Push]</p>"
        },
        "Buck": {
            "name": "Buck",
            "description": "<p>@Check[type:reflex|dc:]</p>\n<p>@Localize[PF2E.NPC.Abilities.Glossary.Buck]</p>"
        },
        "Poison": {
            "name": "Poison",
            "description": "<p>@Localize[PF2E.NPC.Abilities.Glossary.Poison]</p>"
        },
        "Attack of Opportunity": {
            "name": "Attack of Opportunity",
            "description": "<p>@Localize[PF2E.NPC.Abilities.Glossary.AttackOfOpportunity]</p>"
        },
        "Ferocity": {
            "name": "Ferocity",
            "description": "<p>@Localize[PF2E.NPC.Abilities.Glossary.Ferocity]</p>"
        },
        "Scent": {
            "name": "Scent",
            "description": "<p>@Localize[PF2E.NPC.Abilities.Glossary.Scent]</p>"
        },
        "Grab": {
            "name": "Grab",
            "description": "<p>@Localize[PF2E.NPC.Abilities.Glossary.Grab]</p>"
        },
        "Throw Rock": {
            "name": "Throw Rock",
            "description": "<p>@Localize[PF2E.NPC.Abilities.Glossary.ThrowRock]</p>"
        },
        "Improved Grab": {
            "name": "Improved Grab",
            "description": "<p>@Localize[PF2E.NPC.Abilities.Glossary.ImprovedGrab]</p>"
        },
        "Wavesense": {
            "name": "Wavesense",
            "description": "<p>@Localize[PF2E.NPC.Abilities.Glossary.Wavesense]</p>"
        },
        "Coven": {
            "name": "Coven",
            "description": "<p>@Localize[PF2E.NPC.Abilities.Glossary.Coven]</p>"
        },
        "Trample": {
            "name": "Trample",
            "description": "<p>[Frappe indiquée], @Check[type:reflex|dc:|basic:true]</p>\n<hr />\n<p>@Localize[PF2E.NPC.Abilities.Glossary.Trample]</p>"
        },
        "Disease": {
            "name": "Disease",
            "description": "<p>@Localize[PF2E.NPC.Abilities.Glossary.Disease]</p>"
        },
        "Rend": {
            "name": "Rend",
            "description": "<p>@Localize[PF2E.NPC.Abilities.Glossary.Rend]</p>"
        },
        "Fast Healing": {
            "name": "Fast Healing",
            "description": "<p>@Localize[PF2E.NPC.Abilities.Glossary.FastHealing]</p>"
        },
        "Greater Darkvision": {
            "name": "Greater Darkvision",
            "description": "<p>@Localize[PF2E.NPC.Abilities.Glossary.GreaterDarkvision]</p>"
        }
    },
    "mapping": {
        "description": "system.description.value",
        "gm": "system.description.gm",
        "rules": {
            "path": "system.rules",
            "converter": "translateRules"
        }
    }
}